simulation/qsim/Neander.msim.vcd
$comment
	File created using the following command:
		vcd file Neander.msim.vcd -direction
$end
$date
	Tue Dec 02 23:45:41 2025
$end
$version
	ModelSim Version 10.1d
$end
$timescale
	1ps
$end
$scope module neander_vlg_vec_tst $end
$var reg 1 ! clk $end
$var reg 1 " reset $end
$var reg 1 # rundebug $end
$var reg 1 $ step $end
$var wire 1 % cpc $end
$var wire 1 & crem $end
$var wire 1 ' cri $end
$var wire 1 ( goto0 $end
$var wire 1 ) hlt $end
$var wire 1 * incpc $end
$var wire 1 + ler $end
$var wire 1 , n $end
$var wire 1 - ppcc [7] $end
$var wire 1 . ppcc [6] $end
$var wire 1 / ppcc [5] $end
$var wire 1 0 ppcc [4] $end
$var wire 1 1 ppcc [3] $end
$var wire 1 2 ppcc [2] $end
$var wire 1 3 ppcc [1] $end
$var wire 1 4 ppcc [0] $end
$var wire 1 5 rdm [7] $end
$var wire 1 6 rdm [6] $end
$var wire 1 7 rdm [5] $end
$var wire 1 8 rdm [4] $end
$var wire 1 9 rdm [3] $end
$var wire 1 : rdm [2] $end
$var wire 1 ; rdm [1] $end
$var wire 1 < rdm [0] $end
$var wire 1 = rem [7] $end
$var wire 1 > rem [6] $end
$var wire 1 ? rem [5] $end
$var wire 1 @ rem [4] $end
$var wire 1 A rem [3] $end
$var wire 1 B rem [2] $end
$var wire 1 C rem [1] $end
$var wire 1 D rem [0] $end
$var wire 1 E ri [7] $end
$var wire 1 F ri [6] $end
$var wire 1 G ri [5] $end
$var wire 1 H ri [4] $end
$var wire 1 I ri [3] $end
$var wire 1 J ri [2] $end
$var wire 1 K ri [1] $end
$var wire 1 L ri [0] $end
$var wire 1 M ri19 [15] $end
$var wire 1 N ri19 [14] $end
$var wire 1 O ri19 [13] $end
$var wire 1 P ri19 [12] $end
$var wire 1 Q ri19 [11] $end
$var wire 1 R ri19 [10] $end
$var wire 1 S ri19 [9] $end
$var wire 1 T ri19 [8] $end
$var wire 1 U ri19 [7] $end
$var wire 1 V ri19 [6] $end
$var wire 1 W ri19 [5] $end
$var wire 1 X ri19 [4] $end
$var wire 1 Y ri19 [3] $end
$var wire 1 Z ri19 [2] $end
$var wire 1 [ ri19 [1] $end
$var wire 1 \ ri19 [0] $end
$var wire 1 ] rom [7] $end
$var wire 1 ^ rom [6] $end
$var wire 1 _ rom [5] $end
$var wire 1 ` rom [4] $end
$var wire 1 a rom [3] $end
$var wire 1 b rom [2] $end
$var wire 1 c rom [1] $end
$var wire 1 d rom [0] $end
$var wire 1 e seletor $end
$var wire 1 f z $end
$var wire 1 g sampler $end
$scope module i1 $end
$var wire 1 h gnd $end
$var wire 1 i vcc $end
$var wire 1 j unknown $end
$var tri1 1 k devclrn $end
$var tri1 1 l devpor $end
$var tri1 1 m devoe $end
$var wire 1 n rundebug~input_o $end
$var wire 1 o step~input_o $end
$var wire 1 p n~output_o $end
$var wire 1 q z~output_o $end
$var wire 1 r hlt~output_o $end
$var wire 1 s ler~output_o $end
$var wire 1 t seletor~output_o $end
$var wire 1 u cpc~output_o $end
$var wire 1 v incpc~output_o $end
$var wire 1 w crem~output_o $end
$var wire 1 x cri~output_o $end
$var wire 1 y goto0~output_o $end
$var wire 1 z ppcc[7]~output_o $end
$var wire 1 { ppcc[6]~output_o $end
$var wire 1 | ppcc[5]~output_o $end
$var wire 1 } ppcc[4]~output_o $end
$var wire 1 ~ ppcc[3]~output_o $end
$var wire 1 !! ppcc[2]~output_o $end
$var wire 1 "! ppcc[1]~output_o $end
$var wire 1 #! ppcc[0]~output_o $end
$var wire 1 $! rdm[7]~output_o $end
$var wire 1 %! rdm[6]~output_o $end
$var wire 1 &! rdm[5]~output_o $end
$var wire 1 '! rdm[4]~output_o $end
$var wire 1 (! rdm[3]~output_o $end
$var wire 1 )! rdm[2]~output_o $end
$var wire 1 *! rdm[1]~output_o $end
$var wire 1 +! rdm[0]~output_o $end
$var wire 1 ,! rem[7]~output_o $end
$var wire 1 -! rem[6]~output_o $end
$var wire 1 .! rem[5]~output_o $end
$var wire 1 /! rem[4]~output_o $end
$var wire 1 0! rem[3]~output_o $end
$var wire 1 1! rem[2]~output_o $end
$var wire 1 2! rem[1]~output_o $end
$var wire 1 3! rem[0]~output_o $end
$var wire 1 4! ri[7]~output_o $end
$var wire 1 5! ri[6]~output_o $end
$var wire 1 6! ri[5]~output_o $end
$var wire 1 7! ri[4]~output_o $end
$var wire 1 8! ri[3]~output_o $end
$var wire 1 9! ri[2]~output_o $end
$var wire 1 :! ri[1]~output_o $end
$var wire 1 ;! ri[0]~output_o $end
$var wire 1 <! ri19[15]~output_o $end
$var wire 1 =! ri19[14]~output_o $end
$var wire 1 >! ri19[13]~output_o $end
$var wire 1 ?! ri19[12]~output_o $end
$var wire 1 @! ri19[11]~output_o $end
$var wire 1 A! ri19[10]~output_o $end
$var wire 1 B! ri19[9]~output_o $end
$var wire 1 C! ri19[8]~output_o $end
$var wire 1 D! ri19[7]~output_o $end
$var wire 1 E! ri19[6]~output_o $end
$var wire 1 F! ri19[5]~output_o $end
$var wire 1 G! ri19[4]~output_o $end
$var wire 1 H! ri19[3]~output_o $end
$var wire 1 I! ri19[2]~output_o $end
$var wire 1 J! ri19[1]~output_o $end
$var wire 1 K! ri19[0]~output_o $end
$var wire 1 L! rom[7]~output_o $end
$var wire 1 M! rom[6]~output_o $end
$var wire 1 N! rom[5]~output_o $end
$var wire 1 O! rom[4]~output_o $end
$var wire 1 P! rom[3]~output_o $end
$var wire 1 Q! rom[2]~output_o $end
$var wire 1 R! rom[1]~output_o $end
$var wire 1 S! rom[0]~output_o $end
$var wire 1 T! clk~input_o $end
$var wire 1 U! inst1|inst|inst|inst38~0_combout $end
$var wire 1 V! reset~input_o $end
$var wire 1 W! inst1|inst2|inst12|inst2~1_combout $end
$var wire 1 X! inst1|inst2|inst12|inst2~2_combout $end
$var wire 1 Y! inst13|Mux4~0_combout $end
$var wire 1 Z! inst13|Mux4~1_combout $end
$var wire 1 [! inst1|inst|inst|inst2|inst1~combout $end
$var wire 1 \! inst1|inst|inst|inst34~q $end
$var wire 1 ]! inst1|inst2|inst12|inst17~0_combout $end
$var wire 1 ^! inst13|Mux3~0_combout $end
$var wire 1 _! inst13|Mux3~1_combout $end
$var wire 1 `! inst4|inst8~q $end
$var wire 1 a! inst8|inst8~q $end
$var wire 1 b! instdec|inst2~3_combout $end
$var wire 1 c! instdec|inst2~4_combout $end
$var wire 1 d! inst1|inst2|inst12|inst17~1_combout $end
$var wire 1 e! inst1|inst2|inst12|inst17~2_combout $end
$var wire 1 f! inst4|inst6~q $end
$var wire 1 g! inst10|inst|inst1|inst3~0_combout $end
$var wire 1 h! inst10|inst10~combout $end
$var wire 1 i! inst10|inst38~q $end
$var wire 1 j! inst10|inst13|inst1|inst3~0_combout $end
$var wire 1 k! inst10|inst44~q $end
$var wire 1 l! inst10|inst32~combout $end
$var wire 1 m! inst10|inst14|inst1|inst3~0_combout $end
$var wire 1 n! inst10|inst34~q $end
$var wire 1 o! inst10|inst45~combout $end
$var wire 1 p! inst10|inst15|inst1|inst3~0_combout $end
$var wire 1 q! inst10|inst39~q $end
$var wire 1 r! inst1|inst2|inst14|inst~0_combout $end
$var wire 1 s! inst1|inst2|inst14|inst1~0_combout $end
$var wire 1 t! inst3|instmux4|inst3~0_combout $end
$var wire 1 u! inst1|inst|inst3|inst3~0_combout $end
$var wire 1 v! inst1|inst2|inst10|inst17~0_combout $end
$var wire 1 w! inst1|inst2|inst10|inst17~1_combout $end
$var wire 1 x! inst1|inst2|inst10|inst17~2_combout $end
$var wire 1 y! inst3|inst6~q $end
$var wire 1 z! inst13|Mux5~0_combout $end
$var wire 1 {! inst13|Mux5~1_combout $end
$var wire 1 |! inst4|inst5~q $end
$var wire 1 }! inst3|instmux3|inst3~0_combout $end
$var wire 1 ~! inst3|inst5~q $end
$var wire 1 !" inst13|Mux2~0_combout $end
$var wire 1 "" inst13|Mux2~1_combout $end
$var wire 1 #" inst4|inst10~q $end
$var wire 1 $" inst8|inst10~q $end
$var wire 1 %" inst1|inst2|inst12|inst2~0_combout $end
$var wire 1 &" inst1|inst|inst3|inst3~2_combout $end
$var wire 1 '" inst6|inst2~combout $end
$var wire 1 (" instdec|inst2~14_combout $end
$var wire 1 )" instdec|inst2~15_combout $end
$var wire 1 *" instdec|inst2~12_combout $end
$var wire 1 +" instdec|inst2~13_combout $end
$var wire 1 ," inst|inst3~0_combout $end
$var wire 1 -" inst7|inst14|inst|inst3~10_combout $end
$var wire 1 ." inst1|inst2|inst8|inst3~combout $end
$var wire 1 /" inst9|inst14~q $end
$var wire 1 0" inst|inst~2_combout $end
$var wire 1 1" inst|inst~3_combout $end
$var wire 1 2" inst7|inst14|inst|inst3~4_combout $end
$var wire 1 3" inst7|inst14|inst|inst3~6_combout $end
$var wire 1 4" inst7|inst14|inst9|inst3~0_combout $end
$var wire 1 5" inst7|inst14|inst|inst3~5_combout $end
$var wire 1 6" inst7|inst14|inst9|inst3~1_combout $end
$var wire 1 7" inst7|inst14|inst4|inst3~1_combout $end
$var wire 1 8" inst7|inst14|inst1|inst3~1_combout $end
$var wire 1 9" inst7|inst14|inst|inst3~7_combout $end
$var wire 1 :" inst7|inst14|inst|inst3~8_combout $end
$var wire 1 ;" inst7|inst14|inst|inst3~9_combout $end
$var wire 1 <" inst9|inst~q $end
$var wire 1 =" inst7|inst3|inst1|inst1~0_combout $end
$var wire 1 >" inst7|inst14|inst4|inst3~0_combout $end
$var wire 1 ?" inst7|inst14|inst4|inst3~2_combout $end
$var wire 1 @" inst7|inst14|inst1|inst3~0_combout $end
$var wire 1 A" inst7|inst14|inst4|inst3~3_combout $end
$var wire 1 B" inst7|inst14|inst4|inst3~4_combout $end
$var wire 1 C" inst7|inst14|inst4|inst3~5_combout $end
$var wire 1 D" inst9|inst3~q $end
$var wire 1 E" inst7|inst3|inst1|inst4~0_combout $end
$var wire 1 F" inst7|inst14|inst5|inst3~2_combout $end
$var wire 1 G" inst7|inst14|inst5|inst3~3_combout $end
$var wire 1 H" inst7|inst14|inst5|inst3~0_combout $end
$var wire 1 I" inst7|inst14|inst5|inst3~1_combout $end
$var wire 1 J" inst9|inst5~q $end
$var wire 1 K" inst7|inst3|inst3|inst1~0_combout $end
$var wire 1 L" inst7|inst14|inst6|inst3~0_combout $end
$var wire 1 M" inst7|inst14|inst6|inst3~1_combout $end
$var wire 1 N" inst7|inst14|inst6|inst3~2_combout $end
$var wire 1 O" inst7|inst14|inst6|inst3~3_combout $end
$var wire 1 P" inst9|inst6~q $end
$var wire 1 Q" inst7|inst13|inst[3]~0_combout $end
$var wire 1 R" inst7|inst3|inst3|inst4~0_combout $end
$var wire 1 S" inst7|inst3|inst3|inst4~1_combout $end
$var wire 1 T" inst7|inst3|inst7|inst1~combout $end
$var wire 1 U" inst7|inst14|inst1|inst3~2_combout $end
$var wire 1 V" inst7|inst14|inst1|inst3~3_combout $end
$var wire 1 W" inst7|inst14|inst1|inst3~4_combout $end
$var wire 1 X" inst9|inst8~q $end
$var wire 1 Y" inst7|inst3|inst7|inst4~0_combout $end
$var wire 1 Z" inst7|inst14|inst7|inst3~1_combout $end
$var wire 1 [" inst7|inst14|inst7|inst3~0_combout $end
$var wire 1 \" inst7|inst14|inst7|inst3~2_combout $end
$var wire 1 ]" inst9|inst10~q $end
$var wire 1 ^" inst7|inst14|inst8|inst3~2_combout $end
$var wire 1 _" inst7|inst14|inst8|inst3~3_combout $end
$var wire 1 `" inst7|inst14|inst8|inst3~0_combout $end
$var wire 1 a" inst7|inst14|inst8|inst3~1_combout $end
$var wire 1 b" inst9|inst12~q $end
$var wire 1 c" inst7|inst3|inst4|inst4~0_combout $end
$var wire 1 d" inst7|inst3|inst6|inst1~0_combout $end
$var wire 1 e" inst7|inst3|inst6|inst1~combout $end
$var wire 1 f" inst7|inst14|inst9|inst3~2_combout $end
$var wire 1 g" inst6|inst~q $end
$var wire 1 h" instdec|inst2~2_combout $end
$var wire 1 i" inst1|inst2|inst9|inst3~0_combout $end
$var wire 1 j" inst1|inst2|inst9|inst3~1_combout $end
$var wire 1 k" inst1|inst2|inst9|inst3~2_combout $end
$var wire 1 l" instdec|inst2~5_combout $end
$var wire 1 m" instdec|inst2~6_combout $end
$var wire 1 n" inst1|inst2|inst13|inst17~0_combout $end
$var wire 1 o" inst1|inst2|inst13|inst17~1_combout $end
$var wire 1 p" inst1|inst2|inst13|inst17~2_combout $end
$var wire 1 q" inst1|inst|inst|inst1|inst1~combout $end
$var wire 1 r" inst1|inst|inst|inst44~q $end
$var wire 1 s" inst1|inst|inst3|inst3~1_combout $end
$var wire 1 t" inst8|inst12~q $end
$var wire 1 u" instdec|inst2~1_combout $end
$var wire 1 v" inst1|inst2|inst11|inst8~0_combout $end
$var wire 1 w" inst1|inst2|inst11|inst8~1_combout $end
$var wire 1 x" inst1|inst2|inst11|inst8~2_combout $end
$var wire 1 y" inst10|inst12~combout $end
$var wire 1 z" inst10|inst33~combout $end
$var wire 1 {" inst10|inst16|inst1|inst3~0_combout $end
$var wire 1 |" inst10|inst35~q $end
$var wire 1 }" inst10|inst46~combout $end
$var wire 1 ~" inst10|inst17|inst1|inst3~0_combout $end
$var wire 1 !# inst10|inst40~q $end
$var wire 1 "# inst10|inst48~combout $end
$var wire 1 ## inst10|inst18|inst1|inst3~0_combout $end
$var wire 1 $# inst10|inst37~q $end
$var wire 1 %# inst10|inst50~combout $end
$var wire 1 &# inst10|inst19|inst1|inst3~0_combout $end
$var wire 1 '# inst10|inst49~q $end
$var wire 1 (# inst3|instmux8|inst3~0_combout $end
$var wire 1 )# inst3|inst14~q $end
$var wire 1 *# inst13|Mux6~1_combout $end
$var wire 1 +# inst13|Mux6~2_combout $end
$var wire 1 ,# inst4|inst3~q $end
$var wire 1 -# inst3|instmux2|inst3~0_combout $end
$var wire 1 .# inst3|inst3~q $end
$var wire 1 /# inst13|Mux1~0_combout $end
$var wire 1 0# inst13|Mux1~1_combout $end
$var wire 1 1# inst4|inst12~q $end
$var wire 1 2# inst3|instmux7|inst3~0_combout $end
$var wire 1 3# inst3|inst12~q $end
$var wire 1 4# inst3|instmux6|inst3~0_combout $end
$var wire 1 5# inst3|inst10~q $end
$var wire 1 6# inst3|instmux5|inst3~0_combout $end
$var wire 1 7# inst3|inst8~q $end
$var wire 1 8# inst13|Mux6~0_combout $end
$var wire 1 9# inst13|Mux7~0_combout $end
$var wire 1 :# inst13|Mux7~1_combout $end
$var wire 1 ;# inst13|Mux7~2_combout $end
$var wire 1 <# inst4|inst~q $end
$var wire 1 =# inst3|instmux1|inst3~0_combout $end
$var wire 1 ># inst3|inst~q $end
$var wire 1 ?# inst13|Mux0~0_combout $end
$var wire 1 @# inst13|Mux0~1_combout $end
$var wire 1 A# inst4|inst14~q $end
$var wire 1 B# inst8|inst14~q $end
$var wire 1 C# instdec|inst2~0_combout $end
$var wire 1 D# inst1|inst|inst|inst38~q $end
$var wire 1 E# inst1|inst2|inst27|inst~0_combout $end
$var wire 1 F# inst5|inst2~combout $end
$var wire 1 G# inst7|inst8|inst1~0_combout $end
$var wire 1 H# inst7|inst8|inst1~1_combout $end
$var wire 1 I# inst7|inst8|inst1~2_combout $end
$var wire 1 J# inst5|inst~q $end
$var wire 1 K# inst8|inst6~q $end
$var wire 1 L# inst8|inst5~q $end
$var wire 1 M# inst8|inst3~q $end
$var wire 1 N# inst8|inst~q $end
$var wire 1 O# instdec|inst2~7_combout $end
$var wire 1 P# instdec|inst2~8_combout $end
$var wire 1 Q# instdec|inst2~9_combout $end
$var wire 1 R# instdec|inst2~10_combout $end
$var wire 1 S# instdec|inst2~11_combout $end
$upscope $end
$upscope $end
$enddefinitions $end
#0
$dumpvars
1!
1"
0#
0$
0%
1&
0'
0(
0)
0*
0+
0,
04
03
02
01
00
0/
0.
0-
0<
0;
0:
09
08
07
06
05
0D
0C
0B
0A
0@
0?
0>
0=
0L
0K
0J
0I
0H
0G
0F
0E
1\
0[
0Z
0Y
0X
0W
0V
0U
0T
0S
0R
0Q
0P
0O
0N
0M
0d
0c
0b
0a
0`
1_
0^
0]
0e
0f
xg
0h
1i
xj
1k
1l
1m
0n
0o
0p
0q
0r
0s
0t
0u
0v
1w
0x
0y
0z
0{
0|
0}
0~
0!!
0"!
0#!
0$!
0%!
0&!
0'!
0(!
0)!
0*!
0+!
0,!
0-!
0.!
0/!
00!
01!
02!
03!
04!
05!
06!
07!
08!
09!
0:!
0;!
0<!
0=!
0>!
0?!
0@!
0A!
0B!
0C!
0D!
0E!
0F!
0G!
0H!
0I!
0J!
1K!
0L!
0M!
1N!
0O!
0P!
0Q!
0R!
0S!
1T!
1U!
1V!
1W!
0X!
0Y!
0Z!
0[!
0\!
0]!
0^!
0_!
0`!
0a!
0b!
0c!
1d!
0e!
0f!
0g!
0h!
0i!
0j!
0k!
0l!
0m!
0n!
0o!
0p!
0q!
0r!
0s!
0t!
0u!
1v!
0w!
1x!
0y!
0z!
0{!
0|!
0}!
0~!
0!"
1""
0#"
0$"
0%"
0&"
0'"
0("
0)"
0*"
0+"
0,"
1-"
0."
0/"
00"
01"
12"
03"
04"
05"
06"
07"
08"
09"
0:"
0;"
0<"
0="
0>"
0?"
1@"
0A"
0B"
0C"
0D"
0E"
0F"
0G"
0H"
0I"
0J"
0K"
0L"
0M"
0N"
0O"
0P"
0Q"
0R"
0S"
0T"
0U"
0V"
0W"
0X"
0Y"
0Z"
0["
0\"
0]"
0^"
0_"
0`"
0a"
0b"
0c"
0d"
0e"
0f"
0g"
0h"
1i"
0j"
0k"
1l"
0m"
1n"
0o"
0p"
0q"
0r"
0s"
0t"
0u"
0v"
1w"
0x"
0y"
0z"
0{"
0|"
0}"
0~"
0!#
0"#
0##
0$#
0%#
0&#
0'#
0(#
0)#
0*#
0+#
0,#
0-#
0.#
0/#
00#
01#
02#
03#
04#
05#
06#
07#
18#
09#
0:#
0;#
0<#
0=#
0>#
0?#
0@#
0A#
0B#
0C#
0D#
0E#
0F#
0G#
0H#
1I#
0J#
0K#
0L#
0M#
0N#
0O#
0P#
0Q#
0R#
0S#
$end
#5000
0!
0T!
0g
#10000
1!
1T!
1g
1D#
1v"
1q"
0v!
1]!
0U!
1x"
0x!
1e!
1y"
1h!
1g!
1v
0w
1s
1*
0&
1+
#15000
0!
0T!
0g
#20000
1!
1T!
1g
0D#
1r"
1#"
1i!
0v"
0]!
1U!
0w"
1Z"
1=#
1j!
0g!
1&!
1#!
17
14
1s"
1x
1'
0x"
0e!
1~"
0y"
0h!
0v
0s
0*
0+
0j!
#25000
0!
0T!
0g
#30000
1!
1T!
1g
1D#
1$"
1v"
0q"
1u!
1[!
0U!
1%"
1r!
16!
1G
0s"
0l"
1)"
1w!
02"
0x
0K!
1I!
0'
0\
1Z
1x!
1w
1&
#35000
0!
0T!
0g
#40000
1!
1T!
1g
0D#
0r"
1\!
1>#
0u!
1]!
1U!
1w"
1j"
0d!
1?#
1!"
13!
1D
0x!
1e!
1x"
1@#
0""
0~"
1y"
1h!
0w
1s
1v
1L!
0N!
0&
1+
1*
1]
0_
1j!
#45000
0!
0T!
0g
#50000
1!
1T!
1g
1D#
1A#
0#"
1k!
0i!
0v"
1q"
1v!
0]!
0U!
1d"
0Z"
1-#
0=#
1g!
1$!
0&!
1"!
0#!
15
07
13
04
1s!
1e"
0-#
1(#
1t
1e
0x"
1x!
0e!
0y"
0h!
0g!
0v
1w
0s
0*
1&
0+
1&#
0j!
#55000
0!
0T!
0g
#60000
1!
1T!
1g
0D#
1r"
0>#
1)#
0v!
1]!
1U!
0w"
0j"
0?#
0!"
19#
1*#
1Y!
03!
1,!
0D
1=
0s!
0@#
1-#
0(#
0t
0L!
0e
0]
0x!
1e!
1+#
1Z!
0w
1s
1R!
1P!
0&
1+
1c
1a
#65000
0!
0T!
0g
#70000
1!
1T!
1g
1D#
0A#
1,#
1f!
0q"
1&"
0]!
0[!
0U!
0&#
0d"
1="
1j!
1R"
1L"
1K"
1p!
0$!
1*!
1(!
05
1;
19
1F#
15"
1."
1'"
0e"
1p"
0e!
1M"
0@"
1>"
1y
0s
1(
0+
1O"
1?"
1G#
1C"
0I#
1J#
1p
1,
#75000
0!
0T!
0g
0F#
0'"
#80000
1!
1T!
1g
1F#
1'"
0D#
0r"
1P"
1D"
0\!
0J#
0&"
1v!
1U!
1w"
1Q"
1E"
0="
1d!
0p
0,
0F#
05"
0."
0'"
1T"
1F"
0p"
1x!
0M"
0F"
1@"
0>"
0y
1w
0(
1&
0O"
1N"
1A"
0?"
1O"
#85000
0!
0T!
0g
#90000
1!
1T!
1g
1D#
1.#
0)#
1v"
1q"
0v!
1]!
0U!
09#
1/#
0*#
0Y!
12!
0,!
1C
0=
1""
1N!
1_
1x"
0x!
1e!
10#
0+#
0Z!
1y"
0p!
1h!
1g!
1v
0w
1s
1M!
0R!
0P!
1*
0&
1+
1^
0c
0a
#95000
0!
0T!
0g
#100000
1!
1T!
1g
0D#
1r"
11#
0,#
1#"
1i!
0f!
0v"
0]!
1U!
0w"
0E"
1="
0j!
1Z"
1=#
1l!
0g!
0Q"
0L"
0K"
1%!
0*!
1&!
1#!
0(!
16
0;
17
14
09
1s"
1m!
0T"
1x
1'
0x"
0e!
1##
1~"
0y"
0m!
0h!
0v
0s
0*
0+
#105000
0!
0T!
0g
#110000
1!
1T!
1g
1D#
1t"
1v"
0q"
1u!
1[!
0U!
0r!
1X!
0W!
15!
1F
0s"
1m"
0)"
1o"
0w!
0%"
1E#
12"
0x
1E!
0I!
0'
1V
0Z
1x!
1F#
1."
1'"
13"
1w
1&
1p"
0x!
1`"
1["
1B"
0@"
1:"
14"
0[!
1y
0w
1(
0&
1a"
1\"
1V"
1I"
0N"
0A"
1;"
16"
1H#
1W"
0O"
0C"
1f"
#115000
0!
0T!
0g
0F#
0'"
#120000
1!
1T!
1g
1F#
1'"
0D#
0r"
1b"
1]"
1X"
0P"
1J"
0D"
1<"
1/"
1g"
0E#
0v"
1v!
0u!
1U!
1w"
1e"
0`"
1c"
0["
0V"
1T"
0R"
1O"
0I"
1C"
0="
0:"
1d"
04"
1q
1f
0F#
03"
0."
0'"
0o"
0a"
0e"
0\"
0W"
0;"
06"
1x!
1`"
1["
0B"
1@"
1:"
14"
0f"
1w
1&
0p"
1a"
1\"
1V"
0O"
0C"
1H"
1;"
16"
0H#
0y
0(
1H#
1W"
0G#
1I"
1f"
1G#
#125000
0!
0T!
0g
#130000
1!
1T!
1g
1D#
1>#
1v"
1q"
0v!
1]!
0U!
0/#
1^!
13!
1D
1x"
0x!
1e!
00#
1_!
0##
0~"
1y"
1m!
1h!
1v
0w
1s
0M!
1O!
1*
0&
1+
0^
1`
#135000
0!
0T!
0g
#140000
1!
1T!
1g
0D#
1r"
01#
1n!
0k!
0i!
1`!
0v"
0]!
1U!
0w"
1}!
0-#
0=#
1g!
1Y"
0T"
0%!
1!!
0"!
0#!
1'!
06
12
03
04
18
1s"
1x
1'
0x"
0e!
1~"
0y"
0m!
0h!
0g!
0v
0s
0*
0+
1{"
#145000
0!
0T!
0g
#150000
1!
1T!
1g
1D#
0t"
1a!
1E#
1v"
0q"
1u!
1[!
0U!
10"
1r!
0X!
1W!
05!
17!
0F
1H
0s"
0m"
1("
1F#
13"
1."
1'"
1w!
1%"
0E#
02"
0x
0E!
1H!
0'
0V
1Y
0`"
0["
1B"
0@"
0:"
04"
0F#
0."
0'"
03"
1x!
0a"
0\"
0V"
1O"
1C"
0H"
0;"
06"
1`"
1["
0B"
1@"
1:"
14"
1w
1&
0W"
0I"
0f"
1a"
1\"
1V"
0O"
0C"
1H"
1;"
16"
0G#
1W"
1I"
1f"
1G#
#155000
0!
0T!
0g
#160000
1!
1T!
1g
0D#
0r"
1\!
0>#
0.#
1~!
0u!
1]!
1U!
1w"
1j"
0d!
1?#
1!"
0^!
1:#
03!
02!
11!
0D
0C
1B
0x!
1e!
1x"
1@#
0""
0_!
1;#
0~"
1y"
1m!
1h!
1g!
0w
1s
1v
1L!
0N!
0O!
1S!
0&
1+
1*
1]
0_
0`
1d
0{"
#165000
0!
0T!
0g
#170000
1!
1T!
1g
1D#
1A#
1<#
0#"
1i!
0`!
0v"
1q"
1v!
0]!
0U!
0d"
1=#
1="
19"
0g!
0Z"
1j!
0Y"
1T"
1$!
1+!
0&!
1#!
0'!
15
1<
07
14
08
1s!
1e"
0c"
1^"
1(#
0}!
1t
1e
0x"
1x!
0e!
0e"
0y"
0m!
0h!
1g!
0v
1w
0s
0*
1&
0+
1&#
0j!
#175000
0!
0T!
0g
#180000
1!
1T!
1g
0D#
1r"
1>#
1)#
0~!
0v!
1]!
1U!
0w"
0j"
0:#
19#
1*#
1Y!
13!
1,!
01!
1D
1=
0B
0s!
0;#
0@#
0(#
1}!
0t
0S!
0L!
0e
0d
0]
0x!
1e!
1;#
0w
1s
1S!
0&
1+
1d
#185000
0!
0T!
0g
#190000
1!
1T!
1g
1D#
0A#
0q"
11"
1&"
0]!
0[!
0U!
0&#
1d"
0$!
05
1Z"
1F#
09"
15"
1."
1'"
1e"
1p"
0e!
0;"
0a"
1_"
1U"
1F"
0@"
1>"
06"
1y
0s
1(
0+
1a"
1G"
0H"
1?"
1C"
#195000
0!
0T!
0g
0F#
0'"
#200000
1!
1T!
1g
1F#
1'"
0D#
0r"
1D"
0<"
0\!
01"
0&"
1v!
1U!
1w"
0:"
19"
1d!
0f"
0_"
0Z"
0U"
0G"
0>"
0F#
05"
0."
0'"
1;"
0p"
1x!
0V"
0I"
0?"
0F"
1@"
0;"
16"
0y
1w
0(
1&
0W"
0C"
1V"
1H"
1A"
1f"
0G#
1W"
1I"
1C"
1G#
#205000
0!
0T!
0g
#210000
1!
1T!
1g
1D#
0)#
1~!
1v"
1q"
0v!
1]!
0U!
1:#
09#
0*#
0Y!
0?#
0!"
1^!
0,!
11!
0=
1B
1@#
1L!
1]
1x"
0x!
1e!
0;#
0@#
1""
1_!
1y"
1m!
1h!
0g!
1v
0w
1s
0S!
0L!
1N!
1O!
1*
0&
1+
0d
0]
1_
1`
1j!
#215000
0!
0T!
0g
#220000
1!
1T!
1g
0D#
1r"
0<#
1#"
1k!
0i!
1`!
0v"
0]!
1U!
0w"
0=#
09"
1g!
1c"
0^"
1Z"
1-#
1Y"
0T"
0+!
1&!
1"!
0#!
1'!
0<
17
13
04
18
1s"
0e"
1x
1'
0x"
0e!
1~"
0y"
0m!
0h!
0g!
0v
0s
0*
0+
1{"
0j!
#225000
0!
0T!
0g
#230000
1!
1T!
1g
1D#
1v"
0q"
1u!
1[!
0U!
0s"
0x
0'
1x!
1w
1&
#235000
0!
0T!
0g
#240000
1!
1T!
1g
0D#
0r"
1\!
0>#
1.#
0u!
1]!
1U!
1w"
1j"
0d!
1?#
1!"
0^!
0:#
1*#
03!
12!
0D
1C
1;#
1S!
1d
0x!
1e!
1x"
1@#
0""
0_!
0;#
1+#
0~"
1y"
1m!
1h!
1g!
0w
1s
1v
1L!
0N!
0O!
0S!
1R!
0&
1+
1*
1]
0_
0`
0d
1c
0{"
1j!
#245000
0!
0T!
0g
#250000
1!
1T!
1g
1D#
1A#
1,#
0#"
1i!
0`!
0v"
1q"
1v!
0]!
0U!
0d"
1E"
0="
0j!
0Z"
1=#
1o!
0l!
0g!
0Y"
1T"
1$!
1*!
0&!
1#!
0'!
15
1;
07
14
08
1s!
1e"
1K"
1p!
0m!
0c"
1^"
0=#
1(#
0}!
1t
1e
0x"
1x!
0e!
0e"
0y"
0p!
0h!
0v
1w
0s
0*
1&
0+
1&#
1j!
#255000
0!
0T!
0g
#260000
1!
1T!
1g
0D#
1r"
1)#
0~!
0v!
1]!
1U!
0w"
0j"
1Y!
0?#
1/#
0!"
1,!
01!
1=
0B
0s!
0@#
1=#
0(#
1}!
0t
0L!
0e
0]
0x!
1e!
1Z!
0w
1s
1P!
0&
1+
1a
#265000
0!
0T!
0g
#270000
1!
1T!
1g
1D#
0A#
1f!
0q"
11"
1&"
0]!
0[!
0U!
0&#
1d"
1R"
1L"
0K"
1p!
0$!
1(!
05
19
1Z"
0L"
1F#
15"
1."
1'"
1e"
1S"
1p"
0e!
0a"
1_"
1U"
0@"
06"
1Y"
0T"
1y
0s
1(
0+
1a"
0H"
0A"
1c"
0^"
0Z"
0U"
0I"
0C"
0e"
0_"
0\"
0V"
0f"
0a"
0W"
0H#
0G#
1I#
#275000
0!
0T!
0g
0F#
0'"
#280000
1!
1T!
1g
1F#
1'"
0D#
0r"
0b"
0]"
0X"
0J"
0D"
0/"
0\!
1J#
0g"
01"
0&"
1v!
1U!
1w"
1e"
0`"
0c"
0["
1Z"
0Y"
1T"
0S"
1K"
1F"
0E"
1="
0d"
04"
1d!
1p
0q
1,
0f
0Z"
1L"
1>"
0F#
05"
0."
0'"
0e"
1\"
0T"
0F"
0p"
1x!
0\"
1?"
1@"
0>"
1H#
0y
1w
0(
1&
0H#
1C"
0?"
0I#
1I#
1G#
0C"
0I#
0G#
1I#
#285000
0!
0T!
0g
#290000
1!
1T!
1g
1D#
1>#
0)#
1~!
1v"
1q"
0v!
1]!
0U!
1?#
0/#
0Y!
13!
0,!
11!
1D
0=
1B
0+#
0Z!
10#
1""
0R!
0P!
1M!
1N!
0c
0a
1^
1_
1x"
0x!
1e!
1@#
00#
1y"
1h!
1v
0w
1s
1L!
0M!
1*
0&
1+
1]
0^
0j!
#295000
0!
0T!
0g
