simulation/qsim/Neander.msim.vcd
$comment
	File created using the following command:
		vcd file Neander.msim.vcd -direction
$end
$date
	Mon Dec 01 20:28:55 2025
$end
$version
	ModelSim Version 10.1d
$end
$timescale
	1ps
$end
$scope module CODULA8b3b_vlg_vec_tst $end
$var reg 1 ! UALADD $end
$var reg 1 " UALAND $end
$var reg 1 # UALNOT $end
$var reg 1 $ UALOR $end
$var reg 1 % UALY $end
$var wire 1 & S [2] $end
$var wire 1 ' S [1] $end
$var wire 1 ( S [0] $end
$var wire 1 ) sampler $end
$scope module i1 $end
$var wire 1 * gnd $end
$var wire 1 + vcc $end
$var wire 1 , unknown $end
$var tri1 1 - devclrn $end
$var tri1 1 . devpor $end
$var tri1 1 / devoe $end
$var wire 1 0 S[2]~output_o $end
$var wire 1 1 S[1]~output_o $end
$var wire 1 2 S[0]~output_o $end
$var wire 1 3 UALNOT~input_o $end
$var wire 1 4 UALAND~input_o $end
$var wire 1 5 UALOR~input_o $end
$var wire 1 6 inst3~0_combout $end
$var wire 1 7 UALADD~input_o $end
$var wire 1 8 UALY~input_o $end
$var wire 1 9 inst2~0_combout $end
$var wire 1 : inst~combout $end
$upscope $end
$upscope $end
$enddefinitions $end
#0
$dumpvars
1!
0"
0#
0$
0%
1(
1'
0&
x)
0*
1+
x,
1-
1.
1/
00
11
12
03
04
05
06
17
08
19
1:
$end
#110000
0!
1"
07
14
0)
09
16
01
10
0'
1&
#270000
0"
04
1)
0:
06
02
00
0(
0&
#280000
1#
13
0)
19
16
11
10
1'
1&
#420000
1$
0#
15
03
1)
09
01
0'
#580000
0$
05
0)
06
00
0&
#590000
1%
18
1)
19
11
1'
#740000
0%
08
0)
09
01
0'
