simulation/qsim/Neander.msim.vcd
$comment
	File created using the following command:
		vcd file Neander.msim.vcd -direction
$end
$date
	Tue Dec 02 20:40:34 2025
$end
$version
	ModelSim Version 10.1d
$end
$timescale
	1ps
$end
$scope module neander_vlg_vec_tst $end
$var reg 1 ! clk $end
$var reg 1 " reset $end
$var reg 1 # rundebug $end
$var reg 1 $ step $end
$var wire 1 % cpc $end
$var wire 1 & crem $end
$var wire 1 ' cri $end
$var wire 1 ( goto0 $end
$var wire 1 ) hlt $end
$var wire 1 * incpc $end
$var wire 1 + ler $end
$var wire 1 , n $end
$var wire 1 - ppcc [7] $end
$var wire 1 . ppcc [6] $end
$var wire 1 / ppcc [5] $end
$var wire 1 0 ppcc [4] $end
$var wire 1 1 ppcc [3] $end
$var wire 1 2 ppcc [2] $end
$var wire 1 3 ppcc [1] $end
$var wire 1 4 ppcc [0] $end
$var wire 1 5 rdm [7] $end
$var wire 1 6 rdm [6] $end
$var wire 1 7 rdm [5] $end
$var wire 1 8 rdm [4] $end
$var wire 1 9 rdm [3] $end
$var wire 1 : rdm [2] $end
$var wire 1 ; rdm [1] $end
$var wire 1 < rdm [0] $end
$var wire 1 = rem [7] $end
$var wire 1 > rem [6] $end
$var wire 1 ? rem [5] $end
$var wire 1 @ rem [4] $end
$var wire 1 A rem [3] $end
$var wire 1 B rem [2] $end
$var wire 1 C rem [1] $end
$var wire 1 D rem [0] $end
$var wire 1 E ri [7] $end
$var wire 1 F ri [6] $end
$var wire 1 G ri [5] $end
$var wire 1 H ri [4] $end
$var wire 1 I ri [3] $end
$var wire 1 J ri [2] $end
$var wire 1 K ri [1] $end
$var wire 1 L ri [0] $end
$var wire 1 M rom [7] $end
$var wire 1 N rom [6] $end
$var wire 1 O rom [5] $end
$var wire 1 P rom [4] $end
$var wire 1 Q rom [3] $end
$var wire 1 R rom [2] $end
$var wire 1 S rom [1] $end
$var wire 1 T rom [0] $end
$var wire 1 U seletor $end
$var wire 1 V z $end
$var wire 1 W sampler $end
$scope module i1 $end
$var wire 1 X gnd $end
$var wire 1 Y vcc $end
$var wire 1 Z unknown $end
$var tri1 1 [ devclrn $end
$var tri1 1 \ devpor $end
$var tri1 1 ] devoe $end
$var wire 1 ^ rundebug~input_o $end
$var wire 1 _ step~input_o $end
$var wire 1 ` n~output_o $end
$var wire 1 a z~output_o $end
$var wire 1 b hlt~output_o $end
$var wire 1 c ler~output_o $end
$var wire 1 d seletor~output_o $end
$var wire 1 e cpc~output_o $end
$var wire 1 f incpc~output_o $end
$var wire 1 g crem~output_o $end
$var wire 1 h cri~output_o $end
$var wire 1 i goto0~output_o $end
$var wire 1 j ppcc[7]~output_o $end
$var wire 1 k ppcc[6]~output_o $end
$var wire 1 l ppcc[5]~output_o $end
$var wire 1 m ppcc[4]~output_o $end
$var wire 1 n ppcc[3]~output_o $end
$var wire 1 o ppcc[2]~output_o $end
$var wire 1 p ppcc[1]~output_o $end
$var wire 1 q ppcc[0]~output_o $end
$var wire 1 r rdm[7]~output_o $end
$var wire 1 s rdm[6]~output_o $end
$var wire 1 t rdm[5]~output_o $end
$var wire 1 u rdm[4]~output_o $end
$var wire 1 v rdm[3]~output_o $end
$var wire 1 w rdm[2]~output_o $end
$var wire 1 x rdm[1]~output_o $end
$var wire 1 y rdm[0]~output_o $end
$var wire 1 z rem[7]~output_o $end
$var wire 1 { rem[6]~output_o $end
$var wire 1 | rem[5]~output_o $end
$var wire 1 } rem[4]~output_o $end
$var wire 1 ~ rem[3]~output_o $end
$var wire 1 !! rem[2]~output_o $end
$var wire 1 "! rem[1]~output_o $end
$var wire 1 #! rem[0]~output_o $end
$var wire 1 $! ri[7]~output_o $end
$var wire 1 %! ri[6]~output_o $end
$var wire 1 &! ri[5]~output_o $end
$var wire 1 '! ri[4]~output_o $end
$var wire 1 (! ri[3]~output_o $end
$var wire 1 )! ri[2]~output_o $end
$var wire 1 *! ri[1]~output_o $end
$var wire 1 +! ri[0]~output_o $end
$var wire 1 ,! rom[7]~output_o $end
$var wire 1 -! rom[6]~output_o $end
$var wire 1 .! rom[5]~output_o $end
$var wire 1 /! rom[4]~output_o $end
$var wire 1 0! rom[3]~output_o $end
$var wire 1 1! rom[2]~output_o $end
$var wire 1 2! rom[1]~output_o $end
$var wire 1 3! rom[0]~output_o $end
$var wire 1 4! clk~input_o $end
$var wire 1 5! inst1|inst|inst|inst38~0_combout $end
$var wire 1 6! inst1|inst|inst3|inst3~0_combout $end
$var wire 1 7! reset~input_o $end
$var wire 1 8! inst1|inst|inst3|inst3~1_combout $end
$var wire 1 9! inst8|inst12~q $end
$var wire 1 :! inst13|Mux4~0_combout $end
$var wire 1 ;! inst13|Mux4~1_combout $end
$var wire 1 <! inst1|inst2|inst12|inst2~1_combout $end
$var wire 1 =! inst1|inst2|inst12|inst2~2_combout $end
$var wire 1 >! inst1|inst2|inst12|inst2~0_combout $end
$var wire 1 ?! inst13|Mux3~0_combout $end
$var wire 1 @! inst13|Mux3~1_combout $end
$var wire 1 A! inst4|inst8~q $end
$var wire 1 B! inst8|inst8~q $end
$var wire 1 C! instdec|inst2~1_combout $end
$var wire 1 D! inst1|inst|inst3|inst3~2_combout $end
$var wire 1 E! inst6|inst2~combout $end
$var wire 1 F! inst|inst3~0_combout $end
$var wire 1 G! inst7|inst14|inst|inst3~20_combout $end
$var wire 1 H! inst1|inst2|inst8|inst3~combout $end
$var wire 1 I! inst9|inst14~q $end
$var wire 1 J! inst|inst~2_combout $end
$var wire 1 K! inst|inst~3_combout $end
$var wire 1 L! inst7|inst14|inst|inst3~21_combout $end
$var wire 1 M! inst7|inst14|inst|inst3~16_combout $end
$var wire 1 N! inst7|inst14|inst9|inst3~0_combout $end
$var wire 1 O! inst7|inst14|inst|inst3~7_combout $end
$var wire 1 P! inst7|inst14|inst|inst3~22_combout $end
$var wire 1 Q! inst7|inst14|inst9|inst3~1_combout $end
$var wire 1 R! inst7|inst14|inst4|inst3~3_combout $end
$var wire 1 S! inst7|inst14|inst4|inst3~17_combout $end
$var wire 1 T! inst7|inst14|inst1|inst3~1_combout $end
$var wire 1 U! inst7|inst14|inst|inst3~17_combout $end
$var wire 1 V! inst7|inst14|inst|inst3~18_combout $end
$var wire 1 W! inst7|inst14|inst|inst3~19_combout $end
$var wire 1 X! inst9|inst~q $end
$var wire 1 Y! inst7|inst3|inst1|inst1~0_combout $end
$var wire 1 Z! inst7|inst14|inst4|inst3~12_combout $end
$var wire 1 [! inst7|inst14|inst4|inst3~13_combout $end
$var wire 1 \! inst7|inst14|inst1|inst3~0_combout $end
$var wire 1 ]! inst7|inst14|inst4|inst3~14_combout $end
$var wire 1 ^! inst7|inst14|inst4|inst3~15_combout $end
$var wire 1 _! inst7|inst14|inst4|inst3~16_combout $end
$var wire 1 `! inst9|inst3~q $end
$var wire 1 a! inst7|inst3|inst1|inst4~0_combout $end
$var wire 1 b! inst7|inst14|inst5|inst3~2_combout $end
$var wire 1 c! inst7|inst14|inst5|inst3~3_combout $end
$var wire 1 d! inst7|inst14|inst5|inst3~0_combout $end
$var wire 1 e! inst7|inst14|inst5|inst3~1_combout $end
$var wire 1 f! inst9|inst5~q $end
$var wire 1 g! inst7|inst3|inst3|inst1~0_combout $end
$var wire 1 h! inst7|inst14|inst6|inst3~0_combout $end
$var wire 1 i! inst7|inst14|inst6|inst3~1_combout $end
$var wire 1 j! inst7|inst14|inst6|inst3~2_combout $end
$var wire 1 k! inst7|inst14|inst6|inst3~3_combout $end
$var wire 1 l! inst9|inst6~q $end
$var wire 1 m! inst7|inst13|inst[3]~0_combout $end
$var wire 1 n! inst7|inst3|inst3|inst4~0_combout $end
$var wire 1 o! inst7|inst3|inst3|inst4~1_combout $end
$var wire 1 p! inst7|inst3|inst7|inst1~combout $end
$var wire 1 q! inst7|inst14|inst1|inst3~2_combout $end
$var wire 1 r! inst7|inst14|inst1|inst3~3_combout $end
$var wire 1 s! inst7|inst14|inst1|inst3~4_combout $end
$var wire 1 t! inst9|inst8~q $end
$var wire 1 u! inst7|inst3|inst7|inst4~0_combout $end
$var wire 1 v! inst7|inst14|inst7|inst3~1_combout $end
$var wire 1 w! inst7|inst14|inst7|inst3~0_combout $end
$var wire 1 x! inst7|inst14|inst7|inst3~2_combout $end
$var wire 1 y! inst9|inst10~q $end
$var wire 1 z! inst7|inst3|inst5|inst1~0_combout $end
$var wire 1 {! inst7|inst3|inst5|inst1~combout $end
$var wire 1 |! inst7|inst14|inst8|inst3~0_combout $end
$var wire 1 }! inst7|inst14|inst8|inst3~1_combout $end
$var wire 1 ~! inst7|inst14|inst8|inst3~2_combout $end
$var wire 1 !" inst9|inst12~q $end
$var wire 1 "" inst7|inst3|inst4|inst4~0_combout $end
$var wire 1 #" inst7|inst3|inst6|inst1~0_combout $end
$var wire 1 $" inst7|inst3|inst6|inst1~combout $end
$var wire 1 %" inst7|inst14|inst9|inst3~2_combout $end
$var wire 1 &" inst6|inst~q $end
$var wire 1 '" instdec|inst2~2_combout $end
$var wire 1 (" inst1|inst2|inst9|inst3~0_combout $end
$var wire 1 )" inst1|inst2|inst12|inst17~10_combout $end
$var wire 1 *" inst1|inst2|inst12|inst17~8_combout $end
$var wire 1 +" inst1|inst2|inst12|inst17~9_combout $end
$var wire 1 ," inst4|inst6~q $end
$var wire 1 -" inst1|inst2|inst14|inst~1_combout $end
$var wire 1 ." inst1|inst2|inst14|inst~2_combout $end
$var wire 1 /" inst1|inst2|inst14|inst~0_combout $end
$var wire 1 0" inst1|inst2|inst13|inst17~0_combout $end
$var wire 1 1" inst1|inst2|inst11|inst8~0_combout $end
$var wire 1 2" inst1|inst2|inst11|inst8~1_combout $end
$var wire 1 3" inst10|inst1|inst3~0_combout $end
$var wire 1 4" inst10|inst38~q $end
$var wire 1 5" inst10|inst2|inst3~0_combout $end
$var wire 1 6" inst10|inst44~q $end
$var wire 1 7" inst10|inst32~combout $end
$var wire 1 8" inst10|inst3|inst3~0_combout $end
$var wire 1 9" inst10|inst34~q $end
$var wire 1 :" inst10|inst45~combout $end
$var wire 1 ;" inst10|inst4|inst3~0_combout $end
$var wire 1 <" inst10|inst39~q $end
$var wire 1 =" inst1|inst2|inst14|inst1~0_combout $end
$var wire 1 >" inst3|instmux4|inst3~0_combout $end
$var wire 1 ?" inst1|inst2|inst10|inst17~0_combout $end
$var wire 1 @" instdec|inst2~3_combout $end
$var wire 1 A" inst1|inst2|inst9|inst3~1_combout $end
$var wire 1 B" inst1|inst2|inst10|inst17~1_combout $end
$var wire 1 C" inst3|inst6~q $end
$var wire 1 D" inst13|Mux5~0_combout $end
$var wire 1 E" inst13|Mux5~1_combout $end
$var wire 1 F" inst4|inst5~q $end
$var wire 1 G" inst3|instmux3|inst3~0_combout $end
$var wire 1 H" inst3|inst5~q $end
$var wire 1 I" inst13|Mux2~0_combout $end
$var wire 1 J" inst13|Mux2~1_combout $end
$var wire 1 K" inst4|inst10~q $end
$var wire 1 L" inst8|inst10~q $end
$var wire 1 M" instdec|inst2~4_combout $end
$var wire 1 N" instdec|inst2~5_combout $end
$var wire 1 O" inst1|inst2|inst13|inst17~1_combout $end
$var wire 1 P" inst1|inst2|inst13|inst17~2_combout $end
$var wire 1 Q" inst1|inst|inst|inst1|inst1~combout $end
$var wire 1 R" inst1|inst|inst|inst44~q $end
$var wire 1 S" inst1|inst|inst|inst2|inst1~combout $end
$var wire 1 T" inst1|inst|inst|inst34~q $end
$var wire 1 U" inst1|inst2|inst9|inst3~2_combout $end
$var wire 1 V" inst10|inst8~combout $end
$var wire 1 W" inst10|inst33~combout $end
$var wire 1 X" inst10|inst5|inst3~0_combout $end
$var wire 1 Y" inst10|inst35~q $end
$var wire 1 Z" inst10|inst43~combout $end
$var wire 1 [" inst10|inst6|inst3~0_combout $end
$var wire 1 \" inst10|inst40~q $end
$var wire 1 ]" inst10|inst48~combout $end
$var wire 1 ^" inst10|inst7|inst3~0_combout $end
$var wire 1 _" inst10|inst37~q $end
$var wire 1 `" inst10|inst51~combout $end
$var wire 1 a" inst10|inst9|inst3~0_combout $end
$var wire 1 b" inst10|inst49~q $end
$var wire 1 c" inst3|instmux8|inst3~0_combout $end
$var wire 1 d" inst3|inst14~q $end
$var wire 1 e" inst13|Mux6~1_combout $end
$var wire 1 f" inst13|Mux6~2_combout $end
$var wire 1 g" inst4|inst3~q $end
$var wire 1 h" inst3|instmux2|inst3~0_combout $end
$var wire 1 i" inst3|inst3~q $end
$var wire 1 j" inst13|Mux1~0_combout $end
$var wire 1 k" inst13|Mux1~1_combout $end
$var wire 1 l" inst4|inst12~q $end
$var wire 1 m" inst3|instmux7|inst3~0_combout $end
$var wire 1 n" inst3|inst12~q $end
$var wire 1 o" inst3|instmux6|inst3~0_combout $end
$var wire 1 p" inst3|inst10~q $end
$var wire 1 q" inst3|instmux5|inst3~0_combout $end
$var wire 1 r" inst3|inst8~q $end
$var wire 1 s" inst13|Mux6~0_combout $end
$var wire 1 t" inst13|Mux7~0_combout $end
$var wire 1 u" inst13|Mux7~1_combout $end
$var wire 1 v" inst13|Mux7~2_combout $end
$var wire 1 w" inst4|inst~q $end
$var wire 1 x" inst3|instmux1|inst3~0_combout $end
$var wire 1 y" inst3|inst~q $end
$var wire 1 z" inst13|Mux0~0_combout $end
$var wire 1 {" inst13|Mux0~1_combout $end
$var wire 1 |" inst4|inst14~q $end
$var wire 1 }" inst8|inst14~q $end
$var wire 1 ~" instdec|inst2~0_combout $end
$var wire 1 !# inst1|inst|inst|inst38~q $end
$var wire 1 "# inst1|inst2|inst27|inst~0_combout $end
$var wire 1 ## inst5|inst2~combout $end
$var wire 1 $# inst7|inst8|inst1~0_combout $end
$var wire 1 %# inst7|inst8|inst1~1_combout $end
$var wire 1 &# inst7|inst8|inst1~2_combout $end
$var wire 1 '# inst5|inst~q $end
$var wire 1 (# inst8|inst6~q $end
$var wire 1 )# inst8|inst5~q $end
$var wire 1 *# inst8|inst3~q $end
$var wire 1 +# inst8|inst~q $end
$upscope $end
$upscope $end
$enddefinitions $end
#0
$dumpvars
1!
1"
0#
0$
0%
1&
0'
0(
0)
0*
0+
0,
04
03
02
01
00
0/
0.
0-
0<
0;
0:
09
08
07
06
05
0D
0C
0B
0A
0@
0?
0>
0=
0L
0K
0J
0I
0H
0G
0F
0E
0T
0S
0R
0Q
0P
1O
0N
0M
0U
0V
xW
0X
1Y
xZ
1[
1\
1]
0^
0_
0`
0a
0b
0c
0d
0e
0f
1g
0h
0i
0j
0k
0l
0m
0n
0o
0p
0q
0r
0s
0t
0u
0v
0w
0x
0y
0z
0{
0|
0}
0~
0!!
0"!
0#!
0$!
0%!
0&!
0'!
0(!
0)!
0*!
0+!
0,!
0-!
1.!
0/!
00!
01!
02!
03!
14!
15!
06!
17!
08!
09!
0:!
0;!
1<!
0=!
0>!
0?!
0@!
0A!
0B!
0C!
0D!
0E!
0F!
1G!
0H!
0I!
0J!
0K!
1L!
0M!
0N!
0O!
0P!
0Q!
0R!
0S!
0T!
0U!
0V!
0W!
0X!
0Y!
0Z!
0[!
1\!
0]!
0^!
0_!
0`!
0a!
0b!
0c!
0d!
0e!
0f!
0g!
0h!
0i!
0j!
0k!
0l!
0m!
0n!
0o!
0p!
0q!
0r!
0s!
0t!
0u!
0v!
0w!
0x!
0y!
0z!
0{!
0|!
0}!
0~!
0!"
0""
0#"
0$"
0%"
0&"
0'"
1("
0)"
0*"
0+"
0,"
1-"
0."
0/"
10"
01"
02"
03"
04"
05"
06"
07"
08"
09"
0:"
0;"
0<"
0="
0>"
1?"
0@"
1A"
1B"
0C"
0D"
0E"
0F"
0G"
0H"
0I"
1J"
0K"
0L"
1M"
0N"
0O"
0P"
0Q"
0R"
0S"
0T"
0U"
0V"
0W"
0X"
0Y"
0Z"
0["
0\"
0]"
0^"
0_"
0`"
0a"
0b"
0c"
0d"
0e"
0f"
0g"
0h"
0i"
0j"
0k"
0l"
0m"
0n"
0o"
0p"
0q"
0r"
1s"
0t"
0u"
0v"
0w"
0x"
0y"
0z"
0{"
0|"
0}"
0~"
0!#
0"#
0##
0$#
0%#
1&#
0'#
0(#
0)#
0*#
0+#
$end
#5000
0!
04!
0W
#10000
1!
14!
1W
1!#
1Q"
0?"
05!
12"
1+"
1V"
13"
1f
1c
1*
1+
0B"
0g
0&
#15000
0!
04!
0W
0V"
#20000
1!
14!
1W
1V"
0!#
1R"
14"
1K"
11"
15!
1x"
15"
03"
1v!
1q
1t
14
17
02"
0+"
18!
1["
0V"
05"
0f
0c
1h
0*
0+
1'
#25000
0!
04!
0W
#30000
1!
14!
1W
1!#
1L"
1S"
0Q"
16!
05!
0M"
0-"
1O!
0L!
1>!
1&!
1G
08!
1/"
1*"
0h
0'
1B"
1g
1&
#35000
0!
04!
0W
#40000
1!
14!
1W
0!#
1T"
0R"
1y"
01"
06!
15!
1z"
1I"
1#!
1D
1+"
1c
1+
12"
0B"
1{"
0J"
0["
1V"
15"
1f
0g
1,!
0.!
1*
0&
1M
0O
04"
0x"
05"
13"
0q
04
#45000
0!
04!
0W
0V"
#50000
1!
14!
1W
1V"
1!#
14"
1|"
0K"
1Q"
1?"
05!
1x"
15"
03"
1#"
0v!
1q
1r
0t
14
15
07
1="
02"
0+"
1$"
0x"
1c"
1a"
0V"
05"
1d
0f
0c
1U
0*
0+
1B"
1g
1&
#55000
0!
04!
0W
#60000
1!
14!
1W
0!#
1R"
0y"
1d"
0?"
11"
15!
0z"
0I"
1t"
1e"
1:!
0#!
1z
0D
1=
0="
12"
1+"
0{"
1x"
0c"
0a"
1V"
15"
0d
1f
1c
0,!
0U
1*
1+
0M
0B"
02"
1f"
1;!
1a"
0V"
05"
0g
0f
12!
10!
0&
0*
1S
1Q
04"
0x"
0q
04
#65000
0!
04!
0W
#70000
1!
14!
1W
1!#
0|"
1g"
1,"
0S"
0Q"
1P!
1D!
05!
0a"
0#"
15"
1Y!
1;"
1n!
1h!
1g!
0r
1x
1v
05
1;
19
0+"
1i!
0\!
1Z!
1##
1H!
1E!
0$"
0c
0+
1P"
1k!
1[!
1i
1(
1$#
1_!
0&#
1'#
1`
1,
#75000
0!
04!
0W
0##
0E!
#80000
1!
14!
1W
1##
1E!
0!#
0T"
0R"
1l!
1`!
0'#
1?"
01"
0P!
0D!
15!
1m!
1a!
0Y!
0`
0,
0i!
1\!
0Z!
0##
0H!
0E!
1p!
1B"
0P"
0k!
1j!
1]!
0[!
1g
0i
1&
0(
1k!
#85000
0!
04!
0W
#90000
1!
14!
1W
1!#
0d"
1Q"
0?"
05!
0t"
0e"
0:!
0z
0=
12"
1+"
1J"
1V"
0;"
05"
13"
1f
1c
1.!
1*
1+
1O
0B"
0f"
0;!
0g
02!
00!
0&
0S
0Q
1<"
16"
1>"
1:"
1h"
15"
1n
1p
11
13
1;"
#95000
0!
04!
0W
0V"
#100000
1!
14!
1W
1V"
0!#
1R"
14"
0g"
1K"
0,"
11"
15!
1x"
17"
05"
03"
0a!
1Y!
1v!
0m!
0h!
0g!
1q
0x
1t
0v
14
0;
17
09
02"
0+"
18!
0p!
1["
0V"
0;"
0f
0c
1h
0*
0+
1'
#105000
0!
04!
0W
#110000
1!
14!
1W
1!#
1S"
0Q"
16!
05!
08!
0h
0'
1B"
1g
1&
#115000
0!
04!
0W
#120000
1!
14!
1W
0!#
1T"
0R"
1y"
1i"
1C"
01"
06!
15!
1z"
1I"
1u"
1e"
1#!
1"!
1~
1D
1C
1A
1+"
1c
1+
12"
0B"
1{"
0J"
0["
1V"
1;"
18"
1f
0g
1,!
0.!
1*
0&
1M
0O
0<"
06"
04"
0>"
0:"
0h"
07"
0x"
13"
0n
0p
0q
01
03
04
0;"
08"
#125000
0!
04!
0W
0V"
#130000
1!
14!
1W
1V"
1!#
14"
1|"
0K"
1Q"
1?"
05!
1x"
15"
03"
1#"
0v!
1q
1r
0t
14
15
07
1="
02"
0+"
1$"
0x"
1c"
1a"
0V"
05"
1d
0f
0c
1U
0*
0+
1B"
1g
1&
#135000
0!
04!
0W
#140000
1!
14!
1W
0!#
1R"
0y"
0i"
1d"
0C"
0?"
11"
15!
0z"
0I"
0u"
1t"
1:!
0#!
0"!
1z
0~
0D
0C
1=
0A
0="
12"
1+"
1v"
1f"
0{"
1x"
0c"
0a"
1V"
15"
0d
1f
1c
13!
12!
0,!
0U
1*
1+
1T
1S
0M
0B"
02"
0v"
1;!
1a"
0V"
05"
0g
0f
03!
10!
0&
0*
0T
1Q
04"
0x"
0q
04
#145000
0!
04!
0W
#150000
1!
14!
1W
1!#
0|"
1g"
1,"
0S"
0Q"
1P!
1D!
05!
0a"
0#"
15"
1a!
0Y!
1;"
1m!
1h!
1g!
0r
1x
1v
05
1;
19
0+"
1i!
1b!
0\!
1Z!
1##
1H!
1E!
0$"
1p!
0c
0+
1P"
0j!
0]!
1[!
1i
1(
#155000
0!
04!
0W
0##
0E!
#160000
1!
14!
1W
1##
1E!
0!#
0T"
0R"
1?"
01"
0P!
0D!
15!
0i!
0b!
1\!
0Z!
0##
0H!
0E!
1B"
0P"
0k!
1j!
1]!
0[!
1g
0i
1&
0(
1k!
#165000
0!
04!
0W
#170000
1!
14!
1W
1!#
0d"
1Q"
0?"
05!
0t"
0e"
0:!
0z
0=
12"
1+"
1J"
1V"
0;"
05"
13"
1f
1c
1.!
1*
1+
1O
0B"
0f"
0;!
0g
02!
00!
0&
0S
0Q
1<"
16"
1>"
1:"
1h"
15"
1n
1p
11
13
1;"
#175000
0!
04!
0W
0V"
#180000
1!
14!
1W
1V"
0!#
1R"
14"
0g"
1K"
0,"
11"
15!
1x"
17"
05"
03"
0a!
1Y!
1v!
0m!
0h!
0g!
1q
0x
1t
0v
14
0;
17
09
02"
0+"
18!
0p!
1["
0V"
0;"
0f
0c
1h
0*
0+
1'
#185000
0!
04!
0W
#190000
1!
14!
1W
1!#
1S"
0Q"
16!
05!
08!
0h
0'
1B"
1g
1&
#195000
0!
04!
0W
#200000
1!
14!
1W
0!#
1T"
0R"
1y"
1i"
1C"
01"
06!
15!
1z"
1I"
1u"
1e"
1#!
1"!
1~
1D
1C
1A
1+"
1c
1+
12"
0B"
1{"
0J"
0["
1V"
1;"
18"
1f
0g
1,!
0.!
1*
0&
1M
0O
0<"
06"
04"
0>"
0:"
0h"
07"
0x"
13"
0n
0p
0q
01
03
04
0;"
08"
#205000
0!
04!
0W
0V"
#210000
1!
14!
1W
1V"
1!#
14"
1|"
0K"
1Q"
1?"
05!
1x"
15"
03"
1#"
0v!
1q
1r
0t
14
15
07
1="
02"
0+"
1$"
0x"
1c"
1a"
0V"
05"
1d
0f
0c
1U
0*
0+
1B"
1g
1&
#215000
0!
04!
0W
#220000
1!
14!
1W
0!#
1R"
0y"
0i"
1d"
0C"
0?"
11"
15!
0z"
0I"
0u"
1t"
1:!
0#!
0"!
1z
0~
0D
0C
1=
0A
0="
12"
1+"
1v"
1f"
0{"
1x"
0c"
0a"
1V"
15"
0d
1f
1c
13!
12!
0,!
0U
1*
1+
1T
1S
0M
0B"
02"
0v"
1;!
1a"
0V"
05"
0g
0f
03!
10!
0&
0*
0T
1Q
04"
0x"
0q
04
#225000
0!
04!
0W
#230000
1!
14!
1W
1!#
0|"
1g"
1,"
0S"
0Q"
1P!
1D!
05!
0a"
0#"
15"
1a!
0Y!
1;"
1m!
1h!
1g!
0r
1x
1v
05
1;
19
0+"
1i!
1b!
0\!
1Z!
1##
1H!
1E!
0$"
1p!
0c
0+
1P"
0j!
0]!
1[!
1i
1(
#235000
0!
04!
0W
0##
0E!
#240000
1!
14!
1W
1##
1E!
0!#
0T"
0R"
1?"
01"
0P!
0D!
15!
0i!
0b!
1\!
0Z!
0##
0H!
0E!
1B"
0P"
0k!
1j!
1]!
0[!
1g
0i
1&
0(
1k!
#245000
0!
04!
0W
#250000
1!
14!
1W
1!#
0d"
1Q"
0?"
05!
0t"
0e"
0:!
0z
0=
12"
1+"
1J"
1V"
0;"
05"
13"
1f
1c
1.!
1*
1+
1O
0B"
0f"
0;!
0g
02!
00!
0&
0S
0Q
1<"
16"
1>"
1:"
1h"
15"
1n
1p
11
13
1;"
#255000
0!
04!
0W
0V"
#260000
1!
14!
1W
1V"
0!#
1R"
14"
0g"
1K"
0,"
11"
15!
1x"
17"
05"
03"
0a!
1Y!
1v!
0m!
0h!
0g!
1q
0x
1t
0v
14
0;
17
09
02"
0+"
18!
0p!
1["
0V"
0;"
0f
0c
1h
0*
0+
1'
#265000
0!
04!
0W
#270000
1!
14!
1W
1!#
1S"
0Q"
16!
05!
08!
0h
0'
1B"
1g
1&
#275000
0!
04!
0W
#280000
1!
14!
1W
0!#
1T"
0R"
1y"
1i"
1C"
01"
06!
15!
1z"
1I"
1u"
1e"
1#!
1"!
1~
1D
1C
1A
1+"
1c
1+
12"
0B"
1{"
0J"
0["
1V"
1;"
18"
1f
0g
1,!
0.!
1*
0&
1M
0O
0<"
06"
04"
0>"
0:"
0h"
07"
0x"
13"
0n
0p
0q
01
03
04
0;"
08"
#285000
0!
04!
0W
0V"
#290000
1!
14!
1W
1V"
1!#
14"
1|"
0K"
1Q"
1?"
05!
1x"
15"
03"
1#"
0v!
1q
1r
0t
14
15
07
1="
02"
0+"
1$"
0x"
1c"
1a"
0V"
05"
1d
0f
0c
1U
0*
0+
1B"
1g
1&
#295000
0!
04!
0W
#300000
1!
14!
1W
0!#
1R"
0y"
0i"
1d"
0C"
0?"
11"
15!
0z"
0I"
0u"
1t"
1:!
0#!
0"!
1z
0~
0D
0C
1=
0A
0="
12"
1+"
1v"
1f"
0{"
1x"
0c"
0a"
1V"
15"
0d
1f
1c
13!
12!
0,!
0U
1*
1+
1T
1S
0M
0B"
02"
0v"
1;!
1a"
0V"
05"
0g
0f
03!
10!
0&
0*
0T
1Q
04"
0x"
0q
04
#305000
0!
04!
0W
#310000
1!
14!
1W
1!#
0|"
1g"
1,"
0S"
0Q"
1P!
1D!
05!
0a"
0#"
15"
1a!
0Y!
1;"
1m!
1h!
1g!
0r
1x
1v
05
1;
19
0+"
1i!
1b!
0\!
1Z!
1##
1H!
1E!
0$"
1p!
0c
0+
1P"
0j!
0]!
1[!
1i
1(
#315000
0!
04!
0W
0##
0E!
#320000
1!
14!
1W
1##
1E!
0!#
0T"
0R"
1?"
01"
0P!
0D!
15!
0i!
0b!
1\!
0Z!
0##
0H!
0E!
1B"
0P"
0k!
1j!
1]!
0[!
1g
0i
1&
0(
1k!
#325000
0!
04!
0W
#330000
1!
14!
1W
1!#
0d"
1Q"
0?"
05!
0t"
0e"
0:!
0z
0=
12"
1+"
1J"
1V"
0;"
05"
13"
1f
1c
1.!
1*
1+
1O
0B"
0f"
0;!
0g
02!
00!
0&
0S
0Q
1<"
16"
1>"
1:"
1h"
15"
1n
1p
11
13
1;"
#335000
0!
04!
0W
0V"
#340000
1!
14!
1W
1V"
0!#
1R"
14"
0g"
1K"
0,"
11"
15!
1x"
17"
05"
03"
0a!
1Y!
1v!
0m!
0h!
0g!
1q
0x
1t
0v
14
0;
17
09
02"
0+"
18!
0p!
1["
0V"
0;"
0f
0c
1h
0*
0+
1'
#345000
0!
04!
0W
#350000
1!
14!
1W
1!#
1S"
0Q"
16!
05!
08!
0h
0'
1B"
1g
1&
#355000
0!
04!
0W
#360000
1!
14!
1W
0!#
1T"
0R"
1y"
1i"
1C"
01"
06!
15!
1z"
1I"
1u"
1e"
1#!
1"!
1~
1D
1C
1A
1+"
1c
1+
12"
0B"
1{"
0J"
0["
1V"
1;"
18"
1f
0g
1,!
0.!
1*
0&
1M
0O
0<"
06"
04"
0>"
0:"
0h"
07"
0x"
13"
0n
0p
0q
01
03
04
0;"
08"
#365000
0!
04!
0W
0V"
#370000
1!
14!
1W
1V"
1!#
14"
1|"
0K"
1Q"
1?"
05!
1x"
15"
03"
1#"
0v!
1q
1r
0t
14
15
07
1="
02"
0+"
1$"
0x"
1c"
1a"
0V"
05"
1d
0f
0c
1U
0*
0+
1B"
1g
1&
#375000
0!
04!
0W
#380000
1!
14!
1W
0!#
1R"
0y"
0i"
1d"
0C"
0?"
11"
15!
0z"
0I"
0u"
1t"
1:!
0#!
0"!
1z
0~
0D
0C
1=
0A
0="
12"
1+"
1v"
1f"
0{"
1x"
0c"
0a"
1V"
15"
0d
1f
1c
13!
12!
0,!
0U
1*
1+
1T
1S
0M
0B"
02"
0v"
1;!
1a"
0V"
05"
0g
0f
03!
10!
0&
0*
0T
1Q
04"
0x"
0q
04
#385000
0!
04!
0W
#390000
1!
14!
1W
1!#
0|"
1g"
1,"
0S"
0Q"
1P!
1D!
05!
0a"
0#"
15"
1a!
0Y!
1;"
1m!
1h!
1g!
0r
1x
1v
05
1;
19
0+"
1i!
1b!
0\!
1Z!
1##
1H!
1E!
0$"
1p!
0c
0+
1P"
0j!
0]!
1[!
1i
1(
#395000
0!
04!
0W
0##
0E!
#400000
1!
14!
1W
1##
1E!
0!#
0T"
0R"
1?"
01"
0P!
0D!
15!
0i!
0b!
1\!
0Z!
0##
0H!
0E!
1B"
0P"
0k!
1j!
1]!
0[!
1g
0i
1&
0(
1k!
#405000
0!
04!
0W
#410000
1!
14!
1W
1!#
0d"
1Q"
0?"
05!
0t"
0e"
0:!
0z
0=
12"
1+"
1J"
1V"
0;"
05"
13"
1f
1c
1.!
1*
1+
1O
0B"
0f"
0;!
0g
02!
00!
0&
0S
0Q
1<"
16"
1>"
1:"
1h"
15"
1n
1p
11
13
1;"
#415000
0!
04!
0W
0V"
