simulation/qsim/Neander.msim.vcd
$comment
	File created using the following command:
		vcd file Neander.msim.vcd -direction
$end
$date
	Tue Dec 02 07:55:39 2025
$end
$version
	ModelSim Version 10.1d
$end
$timescale
	1ps
$end
$scope module LAB09_vlg_vec_tst $end
$var reg 1 ! clk $end
$var reg 1 " N $end
$var reg 4 # opcode [3:0] $end
$var reg 1 $ Z $end
$var wire 1 % cargaAC $end
$var wire 1 & cargaNZ $end
$var wire 1 ' cargaPC $end
$var wire 1 ( cargaRDM $end
$var wire 1 ) cargaREM $end
$var wire 1 * cargaRI $end
$var wire 1 + hlt $end
$var wire 1 , incrementaPC $end
$var wire 1 - Read $end
$var wire 1 . sel $end
$var wire 1 / UALADD $end
$var wire 1 0 UALAND $end
$var wire 1 1 UALNOT $end
$var wire 1 2 UALOR $end
$var wire 1 3 UALY $end
$var wire 1 4 Write $end
$var wire 1 5 sampler $end
$scope module i1 $end
$var wire 1 6 gnd $end
$var wire 1 7 vcc $end
$var wire 1 8 unknown $end
$var tri1 1 9 devclrn $end
$var tri1 1 : devpor $end
$var tri1 1 ; devoe $end
$var wire 1 < Write~output_o $end
$var wire 1 = Read~output_o $end
$var wire 1 > sel~output_o $end
$var wire 1 ? incrementaPC~output_o $end
$var wire 1 @ cargaPC~output_o $end
$var wire 1 A cargaAC~output_o $end
$var wire 1 B cargaREM~output_o $end
$var wire 1 C cargaRI~output_o $end
$var wire 1 D cargaRDM~output_o $end
$var wire 1 E UALY~output_o $end
$var wire 1 F UALADD~output_o $end
$var wire 1 G UALAND~output_o $end
$var wire 1 H UALOR~output_o $end
$var wire 1 I UALNOT~output_o $end
$var wire 1 J cargaNZ~output_o $end
$var wire 1 K hlt~output_o $end
$var wire 1 L clk~input_o $end
$var wire 1 M inst|inst|inst38~0_combout $end
$var wire 1 N opcode[0]~input_o $end
$var wire 1 O opcode[1]~input_o $end
$var wire 1 P opcode[2]~input_o $end
$var wire 1 Q opcode[3]~input_o $end
$var wire 1 R instdec|inst2~9_combout $end
$var wire 1 S inst|inst|inst44~0_combout $end
$var wire 1 T inst|inst|inst44~q $end
$var wire 1 U inst2|inst14|inst1~2_combout $end
$var wire 1 V Z~input_o $end
$var wire 1 W instdec|inst2~1_combout $end
$var wire 1 X inst2|inst12|inst16~0_combout $end
$var wire 1 Y N~input_o $end
$var wire 1 Z instdec|inst2~2_combout $end
$var wire 1 [ inst2|inst12|inst16~1_combout $end
$var wire 1 \ instdec|inst2~3_combout $end
$var wire 1 ] inst2|inst9|inst3~0_combout $end
$var wire 1 ^ instdec|inst2~4_combout $end
$var wire 1 _ inst2|inst13|inst17~0_combout $end
$var wire 1 ` inst2|inst13|inst17~1_combout $end
$var wire 1 a inst2|inst13|inst17~2_combout $end
$var wire 1 b inst2|inst13|inst17~3_combout $end
$var wire 1 c inst|inst3|inst3~0_combout $end
$var wire 1 d inst2|inst14|inst~0_combout $end
$var wire 1 e inst2|inst13|inst17~4_combout $end
$var wire 1 f inst4~combout $end
$var wire 1 g inst3~q $end
$var wire 1 h inst|inst2~combout $end
$var wire 1 i inst|inst|inst38~q $end
$var wire 1 j inst|inst|inst34~0_combout $end
$var wire 1 k inst|inst|inst34~q $end
$var wire 1 l instdec|inst2~0_combout $end
$var wire 1 m inst2|inst4|inst~combout $end
$var wire 1 n inst2|inst8|inst1~0_combout $end
$var wire 1 o inst2|inst12|inst17~6_combout $end
$var wire 1 p inst2|inst12|inst17~4_combout $end
$var wire 1 q inst2|inst12|inst17~5_combout $end
$var wire 1 r inst2|inst14|inst1~3_combout $end
$var wire 1 s inst2|inst11|inst8~0_combout $end
$var wire 1 t inst|inst3|inst3~1_combout $end
$var wire 1 u inst2|inst11|inst8~1_combout $end
$var wire 1 v inst2|inst11|inst8~2_combout $end
$var wire 1 w inst2|inst8|inst3~combout $end
$var wire 1 x inst2|inst10|inst17~0_combout $end
$var wire 1 y inst2|inst10|inst17~1_combout $end
$var wire 1 z inst2|inst10|inst17~combout $end
$var wire 1 { inst|inst3|inst3~2_combout $end
$var wire 1 | inst2|inst5|inst~0_combout $end
$var wire 1 } instdec|inst2~5_combout $end
$var wire 1 ~ inst2|inst|inst~combout $end
$var wire 1 !! instdec|inst2~6_combout $end
$var wire 1 "! inst2|inst26|inst~combout $end
$var wire 1 #! instdec|inst2~7_combout $end
$var wire 1 $! inst2|inst23|inst~combout $end
$var wire 1 %! instdec|inst2~8_combout $end
$var wire 1 &! inst2|inst25|inst~combout $end
$var wire 1 '! inst2|inst8|inst2~combout $end
$upscope $end
$upscope $end
$enddefinitions $end
#0
$dumpvars
1!
x"
b101 #
x$
0%
0&
0'
0(
1)
0*
0+
0,
0-
0.
0/
00
01
02
03
04
x5
06
17
x8
19
1:
1;
0<
0=
0>
0?
0@
0A
1B
0C
0D
0E
0F
0G
0H
0I
0J
0K
1L
1M
1N
0O
1P
0Q
0R
0S
0T
0U
xV
0W
0X
xY
0Z
0[
0\
0]
0^
0_
0`
0a
0b
0c
1d
0e
0f
0g
0h
0i
0j
0k
0l
0m
1n
0o
1p
0q
0r
0s
0t
0u
0v
0w
1x
1y
1z
0{
0|
0}
0~
0!!
0"!
1#!
0$!
0%!
0&!
0'!
$end
#5000
0!
0L
05
#10000
1!
1L
15
1i
0x
1s
1S
0M
1q
0y
1u
1=
1-
0z
1v
0B
1?
0)
1,
#15000
0!
0L
05
#20000
1!
1L
15
0i
1T
0s
1M
1{
0q
0u
1C
0=
1*
0-
0v
0?
0,
#25000
0!
0L
05
#30000
1!
1L
15
1i
1t
1j
0S
0M
0{
0C
0*
1z
1B
1)
#35000
0!
0L
05
#40000
1!
1L
15
1k
0i
0T
0t
1s
1M
1q
1u
1=
1-
0z
0B
0)
1v
1?
1,
#45000
0!
0L
05
#50000
1!
1L
15
1i
0s
1U
1S
0M
1r
0q
0u
1>
0=
1.
0-
1z
1B
1)
0v
0?
0,
#55000
0!
0L
05
#60000
1!
1L
15
0i
1T
0U
1M
0r
1q
0>
1=
0.
1-
0z
0B
0)
#65000
0!
0L
05
#70000
1!
1L
15
1i
0j
1c
0S
0M
1$!
0q
1e
1G
0=
10
0-
1w
1J
1A
1&
1%
#75000
0!
0L
05
#80000
b111 #
b110 #
1!
0N
1O
1L
15
0#!
0d
1^
0n
0e
1a
0p
0$!
0w
0G
0J
0A
00
0&
0%
0k
0i
1g
0T
1x
0c
1M
1h
1f
1y
1z
1B
1)
0g
0h
0f
#85000
0!
0L
05
#90000
1!
1L
15
1i
0x
1s
1S
0M
1q
0y
1u
1=
1-
0z
1v
0B
1?
0)
1,
#95000
0!
0L
05
#100000
1!
1L
15
0i
1T
0s
1M
1{
0q
0u
1C
0=
1*
0-
0v
0?
0,
#105000
0!
0L
05
#110000
1!
1L
15
1i
1t
1j
1b
0S
0M
1'!
0{
1e
1I
0C
11
0*
1w
1J
1A
1&
1%
#115000
0!
0L
05
#120000
1!
1L
15
1k
0i
1g
0T
0t
0b
1M
1h
1f
0'!
0e
0I
01
0w
0J
0A
0&
0%
0k
0g
1x
0j
0h
0f
1y
1z
1B
1)
#125000
0!
0L
05
#130000
1!
1L
15
1i
0x
1s
1S
0M
1q
0y
1u
1=
1-
0z
1v
0B
1?
0)
1,
#135000
0!
0L
05
#140000
1!
1L
15
0i
1T
0s
1M
1{
0q
0u
1C
0=
1*
0-
0v
0?
0,
#145000
0!
0L
05
#150000
1!
1L
15
1i
1t
1j
1b
0S
0M
1'!
0{
1e
1I
0C
11
0*
1w
1J
1A
1&
1%
#155000
0!
0L
05
#160000
1!
1L
15
1k
0i
1g
0T
0t
0b
1M
1h
1f
0'!
0e
0I
01
0w
0J
0A
0&
0%
0k
0g
1x
0j
0h
0f
1y
1z
1B
1)
#165000
0!
0L
05
#170000
1!
1L
15
1i
0x
1s
1S
0M
1q
0y
1u
1=
1-
0z
1v
0B
1?
0)
1,
#175000
0!
0L
05
#180000
1!
1L
15
0i
1T
0s
1M
1{
0q
0u
1C
0=
1*
0-
0v
0?
0,
#185000
0!
0L
05
#190000
1!
1L
15
1i
1t
1j
1b
0S
0M
1'!
0{
1e
1I
0C
11
0*
1w
1J
1A
1&
1%
#195000
0!
0L
05
#200000
1!
1L
15
1k
0i
1g
0T
0t
0b
1M
1h
1f
0'!
0e
0I
01
0w
0J
0A
0&
0%
0k
0g
1x
0j
0h
0f
1y
1z
1B
1)
#205000
0!
0L
05
#210000
1!
1L
15
1i
0x
1s
1S
0M
1q
0y
1u
1=
1-
0z
1v
0B
1?
0)
1,
#215000
0!
0L
05
#220000
1!
1L
15
0i
1T
0s
1M
1{
0q
0u
1C
0=
1*
0-
0v
0?
0,
#225000
0!
0L
05
#230000
1!
1L
15
1i
1t
1j
1b
0S
0M
1'!
0{
1e
1I
0C
11
0*
1w
1J
1A
1&
1%
#235000
0!
0L
05
#240000
1!
1L
15
1k
0i
1g
0T
0t
0b
1M
1h
1f
0'!
0e
0I
01
0w
0J
0A
0&
0%
0k
0g
1x
0j
0h
0f
1y
1z
1B
1)
#245000
0!
0L
05
#250000
1!
1L
15
1i
0x
1s
1S
0M
1q
0y
1u
1=
1-
0z
1v
0B
1?
0)
1,
#255000
0!
0L
05
#260000
1!
1L
15
0i
1T
0s
1M
1{
0q
0u
1C
0=
1*
0-
0v
0?
0,
#265000
0!
0L
05
#270000
1!
1L
15
1i
1t
1j
1b
0S
0M
1'!
0{
1e
1I
0C
11
0*
1w
1J
1A
1&
1%
#275000
0!
0L
05
#280000
1!
1L
15
1k
0i
1g
0T
0t
0b
1M
1h
1f
0'!
0e
0I
01
0w
0J
0A
0&
0%
0k
0g
1x
0j
0h
0f
1y
1z
1B
1)
#285000
0!
0L
05
#290000
1!
1L
15
1i
0x
1s
1S
0M
1q
0y
1u
1=
1-
0z
1v
0B
1?
0)
1,
#295000
0!
0L
05
#300000
1!
1L
15
0i
1T
0s
1M
1{
0q
0u
1C
0=
1*
0-
0v
0?
0,
#305000
0!
0L
05
#310000
1!
1L
15
1i
1t
1j
1b
0S
0M
1'!
0{
1e
1I
0C
11
0*
1w
1J
1A
1&
1%
#315000
0!
0L
05
#320000
1!
1L
15
1k
0i
1g
0T
0t
0b
1M
1h
1f
0'!
0e
0I
01
0w
0J
0A
0&
0%
0k
0g
1x
0j
0h
0f
1y
1z
1B
1)
#325000
0!
0L
05
#330000
1!
1L
15
1i
0x
1s
1S
0M
1q
0y
1u
1=
1-
0z
1v
0B
1?
0)
1,
#335000
0!
0L
05
#340000
1!
1L
15
0i
1T
0s
1M
1{
0q
0u
1C
0=
1*
0-
0v
0?
0,
#345000
0!
0L
05
#350000
1!
1L
15
1i
1t
1j
1b
0S
0M
1'!
0{
1e
1I
0C
11
0*
1w
1J
1A
1&
1%
#355000
0!
0L
05
#360000
1!
1L
15
1k
0i
1g
0T
0t
0b
1M
1h
1f
0'!
0e
0I
01
0w
0J
0A
0&
0%
0k
0g
1x
0j
0h
0f
1y
1z
1B
1)
#365000
0!
0L
05
#370000
1!
1L
15
1i
0x
1s
1S
0M
1q
0y
1u
1=
1-
0z
1v
0B
1?
0)
1,
#375000
0!
0L
05
#380000
1!
1L
15
0i
1T
0s
1M
1{
0q
0u
1C
0=
1*
0-
0v
0?
0,
#385000
0!
0L
05
#390000
1!
1L
15
1i
1t
1j
1b
0S
0M
1'!
0{
1e
1I
0C
11
0*
1w
1J
1A
1&
1%
#395000
0!
0L
05
#400000
1!
1L
15
1k
0i
1g
0T
0t
0b
1M
1h
1f
0'!
0e
0I
01
0w
0J
0A
0&
0%
0k
0g
1x
0j
0h
0f
1y
1z
1B
1)
#405000
0!
0L
05
#410000
1!
1L
15
1i
0x
1s
1S
0M
1q
0y
1u
1=
1-
0z
1v
0B
1?
0)
1,
#415000
0!
0L
05
#420000
1!
1L
15
0i
1T
0s
1M
1{
0q
0u
1C
0=
1*
0-
0v
0?
0,
#425000
0!
0L
05
#430000
1!
1L
15
1i
1t
1j
1b
0S
0M
1'!
0{
1e
1I
0C
11
0*
1w
1J
1A
1&
1%
#435000
0!
0L
05
#440000
1!
1L
15
1k
0i
1g
0T
0t
0b
1M
1h
1f
0'!
0e
0I
01
0w
0J
0A
0&
0%
0k
0g
1x
0j
0h
0f
1y
1z
1B
1)
#445000
0!
0L
05
#450000
1!
1L
15
1i
0x
1s
1S
0M
1q
0y
1u
1=
1-
0z
1v
0B
1?
0)
1,
#455000
0!
0L
05
#460000
1!
1L
15
0i
1T
0s
1M
1{
0q
0u
1C
0=
1*
0-
0v
0?
0,
#465000
0!
0L
05
#470000
1!
1L
15
1i
1t
1j
1b
0S
0M
1'!
0{
1e
1I
0C
11
0*
1w
1J
1A
1&
1%
#475000
0!
0L
05
#480000
1!
1L
15
1k
0i
1g
0T
0t
0b
1M
1h
1f
0'!
0e
0I
01
0w
0J
0A
0&
0%
0k
0g
1x
0j
0h
0f
1y
1z
1B
1)
#485000
0!
0L
05
#490000
1!
1L
15
1i
0x
1s
1S
0M
1q
0y
1u
1=
1-
0z
1v
0B
1?
0)
1,
#495000
0!
0L
05
#500000
1!
1L
15
0i
1T
0s
1M
1{
0q
0u
1C
0=
1*
0-
0v
0?
0,
#505000
0!
0L
05
#510000
1!
1L
15
1i
1t
1j
1b
0S
0M
1'!
0{
1e
1I
0C
11
0*
1w
1J
1A
1&
1%
#515000
0!
0L
05
#520000
1!
1L
15
1k
0i
1g
0T
0t
0b
1M
1h
1f
0'!
0e
0I
01
0w
0J
0A
0&
0%
0k
0g
1x
0j
0h
0f
1y
1z
1B
1)
#525000
0!
0L
05
#530000
1!
1L
15
1i
0x
1s
1S
0M
1q
0y
1u
1=
1-
0z
1v
0B
1?
0)
1,
#535000
0!
0L
05
#540000
1!
1L
15
0i
1T
0s
1M
1{
0q
0u
1C
0=
1*
0-
0v
0?
0,
#545000
0!
0L
05
#550000
1!
1L
15
1i
1t
1j
1b
0S
0M
1'!
0{
1e
1I
0C
11
0*
1w
1J
1A
1&
1%
#555000
0!
0L
05
#560000
1!
1L
15
1k
0i
1g
0T
0t
0b
1M
1h
1f
0'!
0e
0I
01
0w
0J
0A
0&
0%
0k
0g
1x
0j
0h
0f
1y
1z
1B
1)
#565000
0!
0L
05
#570000
1!
1L
15
1i
0x
1s
1S
0M
1q
0y
1u
1=
1-
0z
1v
0B
1?
0)
1,
#575000
0!
0L
05
#580000
1!
1L
15
0i
1T
0s
1M
1{
0q
0u
1C
0=
1*
0-
0v
0?
0,
#585000
0!
0L
05
#590000
1!
1L
15
1i
1t
1j
1b
0S
0M
1'!
0{
1e
1I
0C
11
0*
1w
1J
1A
1&
1%
#595000
0!
0L
05
#600000
1!
1L
15
1k
0i
1g
0T
0t
0b
1M
1h
1f
0'!
0e
0I
01
0w
0J
0A
0&
0%
0k
0g
1x
0j
0h
0f
1y
1z
1B
1)
#605000
0!
0L
05
#610000
1!
1L
15
1i
0x
1s
1S
0M
1q
0y
1u
1=
1-
0z
1v
0B
1?
0)
1,
#615000
0!
0L
05
#620000
1!
1L
15
0i
1T
0s
1M
1{
0q
0u
1C
0=
1*
0-
0v
0?
0,
#625000
0!
0L
05
#630000
1!
1L
15
1i
1t
1j
1b
0S
0M
1'!
0{
1e
1I
0C
11
0*
1w
1J
1A
1&
1%
#635000
0!
0L
05
#640000
1!
1L
15
1k
0i
1g
0T
0t
0b
1M
1h
1f
0'!
0e
0I
01
0w
0J
0A
0&
0%
0k
0g
1x
0j
0h
0f
1y
1z
1B
1)
#645000
0!
0L
05
#650000
1!
1L
15
1i
0x
1s
1S
0M
1q
0y
1u
1=
1-
0z
1v
0B
1?
0)
1,
#655000
0!
0L
05
#660000
1!
1L
15
0i
1T
0s
1M
1{
0q
0u
1C
0=
1*
0-
0v
0?
0,
#665000
0!
0L
05
#670000
1!
1L
15
1i
1t
1j
1b
0S
0M
1'!
0{
1e
1I
0C
11
0*
1w
1J
1A
1&
1%
#675000
0!
0L
05
#680000
1!
1L
15
1k
0i
1g
0T
0t
0b
1M
1h
1f
0'!
0e
0I
01
0w
0J
0A
0&
0%
0k
0g
1x
0j
0h
0f
1y
1z
1B
1)
#685000
0!
0L
05
#690000
1!
1L
15
1i
0x
1s
1S
0M
1q
0y
1u
1=
1-
0z
1v
0B
1?
0)
1,
#695000
0!
0L
05
#700000
1!
1L
15
0i
1T
0s
1M
1{
0q
0u
1C
0=
1*
0-
0v
0?
0,
#705000
0!
0L
05
#710000
1!
1L
15
1i
1t
1j
1b
0S
0M
1'!
0{
1e
1I
0C
11
0*
1w
1J
1A
1&
1%
#715000
0!
0L
05
#720000
1!
1L
15
1k
0i
1g
0T
0t
0b
1M
1h
1f
0'!
0e
0I
01
0w
0J
0A
0&
0%
0k
0g
1x
0j
0h
0f
1y
1z
1B
1)
#725000
0!
0L
05
#730000
1!
1L
15
1i
0x
1s
1S
0M
1q
0y
1u
1=
1-
0z
1v
0B
1?
0)
1,
#735000
0!
0L
05
#740000
1!
1L
15
0i
1T
0s
1M
1{
0q
0u
1C
0=
1*
0-
0v
0?
0,
#745000
0!
0L
05
#750000
1!
1L
15
1i
1t
1j
1b
0S
0M
1'!
0{
1e
1I
0C
11
0*
1w
1J
1A
1&
1%
#755000
0!
0L
05
#760000
1!
1L
15
1k
0i
1g
0T
0t
0b
1M
1h
1f
0'!
0e
0I
01
0w
0J
0A
0&
0%
0k
0g
1x
0j
0h
0f
1y
1z
1B
1)
#765000
0!
0L
05
#770000
1!
1L
15
1i
0x
1s
1S
0M
1q
0y
1u
1=
1-
0z
1v
0B
1?
0)
1,
#775000
0!
0L
05
#780000
1!
1L
15
0i
1T
0s
1M
1{
0q
0u
1C
0=
1*
0-
0v
0?
0,
#785000
0!
0L
05
#790000
1!
1L
15
1i
1t
1j
1b
0S
0M
1'!
0{
1e
1I
0C
11
0*
1w
1J
1A
1&
1%
#795000
0!
0L
05
#800000
1!
1L
15
1k
0i
1g
0T
0t
0b
1M
1h
1f
0'!
0e
0I
01
0w
0J
0A
0&
0%
0k
0g
1x
0j
0h
0f
1y
1z
1B
1)
#805000
0!
0L
05
#810000
1!
1L
15
1i
0x
1s
1S
0M
1q
0y
1u
1=
1-
0z
1v
0B
1?
0)
1,
#815000
0!
0L
05
#820000
1!
1L
15
0i
1T
0s
1M
1{
0q
0u
1C
0=
1*
0-
0v
0?
0,
#825000
0!
0L
05
#830000
1!
1L
15
1i
1t
1j
1b
0S
0M
1'!
0{
1e
1I
0C
11
0*
1w
1J
1A
1&
1%
#835000
0!
0L
05
#840000
1!
1L
15
1k
0i
1g
0T
0t
0b
1M
1h
1f
0'!
0e
0I
01
0w
0J
0A
0&
0%
0k
0g
1x
0j
0h
0f
1y
1z
1B
1)
#845000
0!
0L
05
#850000
1!
1L
15
1i
0x
1s
1S
0M
1q
0y
1u
1=
1-
0z
1v
0B
1?
0)
1,
#855000
0!
0L
05
#860000
1!
1L
15
0i
1T
0s
1M
1{
0q
0u
1C
0=
1*
0-
0v
0?
0,
#865000
0!
0L
05
#870000
1!
1L
15
1i
1t
1j
1b
0S
0M
1'!
0{
1e
1I
0C
11
0*
1w
1J
1A
1&
1%
#875000
0!
0L
05
#880000
1!
1L
15
1k
0i
1g
0T
0t
0b
1M
1h
1f
0'!
0e
0I
01
0w
0J
0A
0&
0%
0k
0g
1x
0j
0h
0f
1y
1z
1B
1)
#885000
0!
0L
05
#890000
1!
1L
15
1i
0x
1s
1S
0M
1q
0y
1u
1=
1-
0z
1v
0B
1?
0)
1,
#895000
0!
0L
05
#900000
1!
1L
15
0i
1T
0s
1M
1{
0q
0u
1C
0=
1*
0-
0v
0?
0,
#905000
0!
0L
05
#910000
1!
1L
15
1i
1t
1j
1b
0S
0M
1'!
0{
1e
1I
0C
11
0*
1w
1J
1A
1&
1%
#915000
0!
0L
05
#920000
1!
1L
15
1k
0i
1g
0T
0t
0b
1M
1h
1f
0'!
0e
0I
01
0w
0J
0A
0&
0%
0k
0g
1x
0j
0h
0f
1y
1z
1B
1)
#925000
0!
0L
05
#930000
1!
1L
15
1i
0x
1s
1S
0M
1q
0y
1u
1=
1-
0z
1v
0B
1?
0)
1,
#935000
0!
0L
05
#940000
1!
1L
15
0i
1T
0s
1M
1{
0q
0u
1C
0=
1*
0-
0v
0?
0,
#945000
0!
0L
05
#950000
1!
1L
15
1i
1t
1j
1b
0S
0M
1'!
0{
1e
1I
0C
11
0*
1w
1J
1A
1&
1%
#955000
0!
0L
05
#960000
1!
1L
15
1k
0i
1g
0T
0t
0b
1M
1h
1f
0'!
0e
0I
01
0w
0J
0A
0&
0%
0k
0g
1x
0j
0h
0f
1y
1z
1B
1)
#965000
0!
0L
05
#970000
1!
1L
15
1i
0x
1s
1S
0M
1q
0y
1u
1=
1-
0z
1v
0B
1?
0)
1,
#975000
0!
0L
05
#980000
1!
1L
15
0i
1T
0s
1M
1{
0q
0u
1C
0=
1*
0-
0v
0?
0,
#985000
0!
0L
05
#990000
1!
1L
15
1i
1t
1j
1b
0S
0M
1'!
0{
1e
1I
0C
11
0*
1w
1J
1A
1&
1%
#995000
0!
0L
05
