simulation/qsim/Neander.msim.vcd
$comment
	File created using the following command:
		vcd file Neander.msim.vcd -direction
$end
$date
	Wed Dec 03 13:20:53 2025
$end
$version
	ModelSim Version 10.1d
$end
$timescale
	1ps
$end
$scope module neander_vlg_vec_tst $end
$var reg 1 ! clk $end
$var reg 1 " reset $end
$var reg 1 # rundebug $end
$var reg 1 $ step $end
$var wire 1 % acumulador [7] $end
$var wire 1 & acumulador [6] $end
$var wire 1 ' acumulador [5] $end
$var wire 1 ( acumulador [4] $end
$var wire 1 ) acumulador [3] $end
$var wire 1 * acumulador [2] $end
$var wire 1 + acumulador [1] $end
$var wire 1 , acumulador [0] $end
$var wire 1 - hlt $end
$var wire 1 . is_negative $end
$var wire 1 / is_zero $end
$var wire 1 0 ppcc [7] $end
$var wire 1 1 ppcc [6] $end
$var wire 1 2 ppcc [5] $end
$var wire 1 3 ppcc [4] $end
$var wire 1 4 ppcc [3] $end
$var wire 1 5 ppcc [2] $end
$var wire 1 6 ppcc [1] $end
$var wire 1 7 ppcc [0] $end
$var wire 1 8 sampler $end
$scope module i1 $end
$var wire 1 9 gnd $end
$var wire 1 : vcc $end
$var wire 1 ; unknown $end
$var tri1 1 < devclrn $end
$var tri1 1 = devpor $end
$var tri1 1 > devoe $end
$var wire 1 ? rundebug~input_o $end
$var wire 1 @ step~input_o $end
$var wire 1 A hlt~output_o $end
$var wire 1 B is_zero~output_o $end
$var wire 1 C is_negative~output_o $end
$var wire 1 D acumulador[7]~output_o $end
$var wire 1 E acumulador[6]~output_o $end
$var wire 1 F acumulador[5]~output_o $end
$var wire 1 G acumulador[4]~output_o $end
$var wire 1 H acumulador[3]~output_o $end
$var wire 1 I acumulador[2]~output_o $end
$var wire 1 J acumulador[1]~output_o $end
$var wire 1 K acumulador[0]~output_o $end
$var wire 1 L ppcc[7]~output_o $end
$var wire 1 M ppcc[6]~output_o $end
$var wire 1 N ppcc[5]~output_o $end
$var wire 1 O ppcc[4]~output_o $end
$var wire 1 P ppcc[3]~output_o $end
$var wire 1 Q ppcc[2]~output_o $end
$var wire 1 R ppcc[1]~output_o $end
$var wire 1 S ppcc[0]~output_o $end
$var wire 1 T clk~input_o $end
$var wire 1 U reset~input_o $end
$var wire 1 V inst4|inst14~0_q $end
$var wire 1 W inst1|inst|inst|inst38~0_combout $end
$var wire 1 X inst1|inst|inst|inst38~q $end
$var wire 1 Y inst1|inst|inst|inst2|inst1~combout $end
$var wire 1 Z inst1|inst|inst|inst34~q $end
$var wire 1 [ inst1|inst|inst3|inst3~1_combout $end
$var wire 1 \ inst8|inst10~q $end
$var wire 1 ] inst8|inst8~q $end
$var wire 1 ^ instdec|inst2~1_combout $end
$var wire 1 _ instdec|inst2~3_combout $end
$var wire 1 ` inst7|inst14|inst9|inst3~3_combout $end
$var wire 1 a inst7|inst14|inst9|inst3~28_combout $end
$var wire 1 b inst|inst~2_combout $end
$var wire 1 c inst|inst~3_combout $end
$var wire 1 d inst1|inst2|inst27|inst~0_combout $end
$var wire 1 e inst|inst3~0_combout $end
$var wire 1 f inst|inst3~1_combout $end
$var wire 1 g inst7|inst14|inst9|inst3~24_combout $end
$var wire 1 h inst7|inst14|inst1|inst3~0_combout $end
$var wire 1 i inst7|inst14|inst9|inst3~15_combout $end
$var wire 1 j inst7|inst14|inst9|inst3~29_combout $end
$var wire 1 k inst7|inst14|inst1|inst3~1_combout $end
$var wire 1 l inst7|inst14|inst|inst3~0_combout $end
$var wire 1 m inst7|inst14|inst|inst3~1_combout $end
$var wire 1 n inst7|inst14|inst|inst3~2_combout $end
$var wire 1 o inst1|inst2|inst8|inst1~0_combout $end
$var wire 1 p inst1|inst2|inst8|inst3~combout $end
$var wire 1 q inst9|inst~q $end
$var wire 1 r inst7|inst14|inst4|inst3~0_combout $end
$var wire 1 s inst7|inst14|inst4|inst3~1_combout $end
$var wire 1 t inst7|inst14|inst4|inst3~2_combout $end
$var wire 1 u inst9|inst3~q $end
$var wire 1 v inst7|inst3|inst1|inst4~0_combout $end
$var wire 1 w inst7|inst14|inst5|inst3~0_combout $end
$var wire 1 x inst7|inst14|inst5|inst3~1_combout $end
$var wire 1 y inst7|inst14|inst5|inst3~2_combout $end
$var wire 1 z inst7|inst14|inst5|inst3~3_combout $end
$var wire 1 { inst9|inst5~q $end
$var wire 1 | inst7|inst3|inst2|inst4~0_combout $end
$var wire 1 } inst7|inst14|inst6|inst3~0_combout $end
$var wire 1 ~ inst7|inst14|inst6|inst3~1_combout $end
$var wire 1 !! inst7|inst14|inst6|inst3~2_combout $end
$var wire 1 "! inst9|inst6~q $end
$var wire 1 #! inst7|inst3|inst7|inst1~0_combout $end
$var wire 1 $! inst7|inst3|inst7|inst1~combout $end
$var wire 1 %! inst7|inst14|inst1|inst3~2_combout $end
$var wire 1 &! inst9|inst8~q $end
$var wire 1 '! inst7|inst3|inst7|inst4~1_combout $end
$var wire 1 (! inst7|inst3|inst7|inst4~2_combout $end
$var wire 1 )! inst7|inst3|inst7|inst4~0_combout $end
$var wire 1 *! inst9|inst10~q $end
$var wire 1 +! inst7|inst14|inst7|inst3~1_combout $end
$var wire 1 ,! inst7|inst14|inst7|inst3~0_combout $end
$var wire 1 -! inst7|inst14|inst7|inst3~2_combout $end
$var wire 1 .! inst6|inst~q $end
$var wire 1 /! inst7|inst14|inst9|inst3~25_combout $end
$var wire 1 0! inst7|inst14|inst9|inst3~26_combout $end
$var wire 1 1! inst7|inst3|inst4|inst4~0_combout $end
$var wire 1 2! inst7|inst14|inst8|inst3~1_combout $end
$var wire 1 3! inst7|inst14|inst8|inst3~0_combout $end
$var wire 1 4! inst7|inst14|inst8|inst3~2_combout $end
$var wire 1 5! inst9|inst12~q $end
$var wire 1 6! inst7|inst3|inst6|inst1~0_combout $end
$var wire 1 7! inst7|inst3|inst6|inst1~combout $end
$var wire 1 8! inst7|inst14|inst9|inst3~27_combout $end
$var wire 1 9! inst7|inst8|inst1~0_combout $end
$var wire 1 :! inst7|inst8|inst1~1_combout $end
$var wire 1 ;! inst7|inst8|inst1~combout $end
$var wire 1 <! inst5|inst~q $end
$var wire 1 =! inst1|inst2|inst13|inst17~3_combout $end
$var wire 1 >! inst1|inst2|inst13|inst17~8_combout $end
$var wire 1 ?! inst1|inst2|inst13|inst17~6_combout $end
$var wire 1 @! inst1|inst2|inst13|inst8~3_combout $end
$var wire 1 A! inst1|inst2|inst13|inst8~7_combout $end
$var wire 1 B! inst1|inst2|inst13|inst8~6_combout $end
$var wire 1 C! inst1|inst2|inst13|inst17~7_combout $end
$var wire 1 D! inst1|inst|inst|inst1|inst1~combout $end
$var wire 1 E! inst1|inst|inst|inst44~q $end
$var wire 1 F! inst1|inst|inst3|inst3~0_combout $end
$var wire 1 G! inst8|inst12~q $end
$var wire 1 H! inst1|inst2|inst13|inst11~0_combout $end
$var wire 1 I! inst1|inst2|inst11|inst8~0_combout $end
$var wire 1 J! inst10|inst12~combout $end
$var wire 1 K! inst10|inst|inst1|inst3~0_combout $end
$var wire 1 L! inst10|inst10~combout $end
$var wire 1 M! inst10|inst38~q $end
$var wire 1 N! inst10|inst13|inst1|inst3~0_combout $end
$var wire 1 O! inst10|inst44~q $end
$var wire 1 P! inst10|inst32~combout $end
$var wire 1 Q! inst10|inst14|inst1|inst3~0_combout $end
$var wire 1 R! inst10|inst34~q $end
$var wire 1 S! inst10|inst45~combout $end
$var wire 1 T! inst10|inst15|inst1|inst3~0_combout $end
$var wire 1 U! inst10|inst39~q $end
$var wire 1 V! inst10|inst33~combout $end
$var wire 1 W! inst10|inst16|inst1|inst3~0_combout $end
$var wire 1 X! inst10|inst35~q $end
$var wire 1 Y! inst10|inst43~combout $end
$var wire 1 Z! inst10|inst17|inst1|inst3~0_combout $end
$var wire 1 [! inst10|inst40~q $end
$var wire 1 \! inst10|inst48~combout $end
$var wire 1 ]! inst10|inst18|inst1|inst3~0_combout $end
$var wire 1 ^! inst10|inst37~q $end
$var wire 1 _! inst10|inst50~combout $end
$var wire 1 `! inst10|inst19|inst1|inst3~0_combout $end
$var wire 1 a! inst10|inst49~q $end
$var wire 1 b! inst1|inst2|inst14|inst1~0_combout $end
$var wire 1 c! inst3|instmux8|inst3~0_combout $end
$var wire 1 d! inst1|inst2|inst10|inst17~0_combout $end
$var wire 1 e! inst1|inst2|inst10|inst17~1_combout $end
$var wire 1 f! inst3|inst14~q $end
$var wire 1 g! inst13|Mux0_rtl_0|auto_generated|ram_block1a1~portadataout $end
$var wire 1 h! inst4|inst12~1_q $end
$var wire 1 i! instdec|inst2~2_combout $end
$var wire 1 j! inst1|inst2|inst12|inst17~0_combout $end
$var wire 1 k! inst1|inst2|inst12|inst17~1_combout $end
$var wire 1 l! inst4|inst14~3_q $end
$var wire 1 m! inst4|inst12~4_combout $end
$var wire 1 n! inst3|instmux7|inst3~0_combout $end
$var wire 1 o! inst3|inst12~q $end
$var wire 1 p! inst13|Mux0_rtl_0|auto_generated|ram_block1a2~portadataout $end
$var wire 1 q! inst4|inst10~1_q $end
$var wire 1 r! inst4|inst10~4_combout $end
$var wire 1 s! inst3|instmux6|inst3~0_combout $end
$var wire 1 t! inst3|inst10~q $end
$var wire 1 u! inst13|Mux0_rtl_0|auto_generated|ram_block1a3~portadataout $end
$var wire 1 v! inst4|inst8~1_q $end
$var wire 1 w! inst4|inst8~4_combout $end
$var wire 1 x! inst3|instmux5|inst3~0_combout $end
$var wire 1 y! inst3|inst8~q $end
$var wire 1 z! inst13|Mux0_rtl_0|auto_generated|ram_block1a4~portadataout $end
$var wire 1 {! inst4|inst6~1_q $end
$var wire 1 |! inst4|inst6~4_combout $end
$var wire 1 }! inst3|instmux4|inst3~0_combout $end
$var wire 1 ~! inst3|inst6~q $end
$var wire 1 !" inst13|Mux0_rtl_0|auto_generated|ram_block1a7~portadataout $end
$var wire 1 "" inst4|inst5~1_q $end
$var wire 1 #" inst4|inst5~4_combout $end
$var wire 1 $" inst3|instmux3|inst3~0_combout $end
$var wire 1 %" inst3|inst5~q $end
$var wire 1 &" inst13|Mux0_rtl_0|auto_generated|ram_block1a6~portadataout $end
$var wire 1 '" inst4|inst3~1_q $end
$var wire 1 (" inst4|inst3~4_combout $end
$var wire 1 )" inst3|instmux2|inst3~0_combout $end
$var wire 1 *" inst3|inst3~q $end
$var wire 1 +" inst13|Mux0_rtl_0|auto_generated|ram_block1a5~portadataout $end
$var wire 1 ," inst4|inst~1_q $end
$var wire 1 -" inst4|inst~4_combout $end
$var wire 1 ." inst3|instmux1|inst3~0_combout $end
$var wire 1 /" inst3|inst~q $end
$var wire 1 0" inst13|Mux0_rtl_0|auto_generated|ram_block1a0~portadataout $end
$var wire 1 1" inst4|inst14~1_q $end
$var wire 1 2" inst4|inst14~4_combout $end
$var wire 1 3" inst8|inst14~q $end
$var wire 1 4" instdec|inst2~0_combout $end
$var wire 1 5" inst13|Mux0_rtl_0|auto_generated|ram_block1a0_PORTADATAOUT_bus [0] $end
$var wire 1 6" inst13|Mux0_rtl_0|auto_generated|ram_block1a1_PORTADATAOUT_bus [0] $end
$var wire 1 7" inst13|Mux0_rtl_0|auto_generated|ram_block1a2_PORTADATAOUT_bus [0] $end
$var wire 1 8" inst13|Mux0_rtl_0|auto_generated|ram_block1a3_PORTADATAOUT_bus [0] $end
$var wire 1 9" inst13|Mux0_rtl_0|auto_generated|ram_block1a4_PORTADATAOUT_bus [0] $end
$var wire 1 :" inst13|Mux0_rtl_0|auto_generated|ram_block1a7_PORTADATAOUT_bus [0] $end
$var wire 1 ;" inst13|Mux0_rtl_0|auto_generated|ram_block1a5_PORTADATAOUT_bus [0] $end
$var wire 1 <" inst13|Mux0_rtl_0|auto_generated|ram_block1a6_PORTADATAOUT_bus [0] $end
$upscope $end
$upscope $end
$enddefinitions $end
#0
$dumpvars
1!
1"
0#
0$
0,
0+
0*
0)
0(
0'
0&
0%
0-
0.
0/
07
06
05
04
03
02
01
00
x8
09
1:
x;
1<
1=
1>
0?
0@
0A
0B
0C
0D
0E
0F
0G
0H
0I
0J
0K
0L
0M
0N
0O
0P
0Q
0R
0S
1T
1U
0V
1W
0X
0Y
0Z
0[
0\
0]
0^
1_
1`
1a
0b
0c
0d
0e
0f
0g
0h
0i
0j
0k
0l
0m
0n
0o
0p
0q
0r
0s
0t
0u
0v
0w
1x
0y
0z
0{
0|
0}
0~
0!!
0"!
0#!
0$!
0%!
0&!
0'!
0(!
0)!
0*!
0+!
0,!
0-!
0.!
0/!
00!
01!
02!
03!
04!
05!
06!
07!
08!
09!
0:!
1;!
0<!
1=!
1>!
0?!
0@!
1A!
0B!
0C!
0D!
0E!
0F!
0G!
0H!
0I!
0J!
0K!
0L!
0M!
0N!
0O!
0P!
0Q!
0R!
0S!
0T!
0U!
0V!
0W!
0X!
0Y!
0Z!
0[!
0\!
0]!
0^!
0_!
0`!
0a!
0b!
0c!
1d!
1e!
0f!
0g!
0h!
0i!
0j!
0k!
0l!
0m!
0n!
0o!
0p!
0q!
0r!
0s!
0t!
0u!
0v!
0w!
0x!
0y!
0z!
0{!
0|!
0}!
0~!
0!"
0""
0#"
0$"
0%"
0&"
0'"
0("
0)"
0*"
0+"
0,"
0-"
0."
0/"
00"
01"
02"
03"
04"
05"
06"
07"
08"
09"
0:"
0;"
0<"
$end
#5000
0!
0T
08
#10000
1!
1T
18
1X
1V
1k!
0d!
1I!
1D!
0W
0e!
1L!
1J!
1K!
#10001
17"
1p!
#15000
0!
0T
08
#20000
1!
1T
18
1l!
1E!
0X
1M!
1r!
1j!
0I!
1F!
0k!
1W
1."
1N!
0K!
1S
17
0L!
0J!
1Z!
0N!
#25000
0!
0T
08
#30000
1!
1T
18
1q!
0l!
1\
1X
1H!
1@!
0=!
1o
0_
0F!
0D!
1[
1Y
0W
1e!
#35000
0!
0T
08
#40000
1!
1T
18
1/"
0E!
1Z
0X
1I!
0[
1k!
1W
1L!
1J!
0e!
0Z!
1N!
#45000
0!
0T
08
#50000
1!
1T
18
1l!
1X
1O!
0M!
0k!
1d!
1b!
0I!
1D!
0W
1)"
0."
1K!
1R
0S
16
07
1e!
0)"
1s!
0L!
0J!
1Z!
0N!
0K!
#50001
15"
07"
10"
0p!
12"
0r!
1c!
1`!
16!
0s!
0Z!
17!
#55000
0!
0T
08
#60000
1!
1T
18
11"
0/"
0q!
0l!
1f!
1E!
0X
0d!
0b!
1k!
1W
0e!
1)"
0c!
#65000
0!
0T
08
#70000
1!
1T
18
1l!
1X
0k!
0D!
1i
1e
0`
0Y
0W
1j
1C!
1p
10!
0x
18!
19!
1D
1%
0;!
#70001
05"
1<"
19"
00"
1&"
1z!
02"
1("
1|!
0`!
06!
00!
1N!
1s
1T!
1}
1t
07!
1:!
1J
1+
08!
1!!
09!
0D
1H
0%
1)
#75000
0!
0T
08
#80000
1!
1T
18
01"
1'"
1{!
0l!
0E!
1"!
1u
0Z
0X
0j!
1d!
0i
0e
1`
1$!
1~
1v
0s
1W
1e!
0j
0C!
0p
1w
1y
0w
0y
1x
1z
1I
1*
0z
0I
0*
#85000
0!
0T
08
#90000
1!
1T
18
1*"
0f!
1X
1k!
0d!
1I!
1D!
0W
0e!
1L!
1J!
0T!
1K!
#95000
0!
0T
08
#100000
1!
1T
18
1l!
1E!
0X
1M!
1j!
0I!
1F!
0k!
1W
1."
1P!
0N!
0K!
1S
17
0L!
0J!
1Q!
1T!
0Q!
1N!
#100001
0<"
09"
17"
16"
0&"
0z!
1p!
1g!
0("
0|!
1r!
1m!
0N!
0v
1s
0T!
0$!
0}
1Z!
1]!
12!
0t
0J
0+
1t
1J
1+
#105000
0!
0T
08
#110000
1!
1T
18
0'"
0{!
1q!
0l!
1h!
1G!
1X
0H!
0o
1^
0F!
0D!
1[
1Y
0W
1p
1?!
1d
1C!
1g
0Y
13!
1/!
1,!
0~
1y
0x
0s
1m
1h
10!
1k
14!
1-!
0!!
1z
0t
1n
19!
1E
1F
0H
1I
0J
1K
1&
1'
0)
1*
0+
1,
18!
1%!
1D
1G
1%
1(
#115000
0!
0T
08
#120000
1!
1T
18
0E!
15!
1*!
1&!
0"!
1{
0u
1q
0X
1.!
0j!
1d!
0d
0[
17!
03!
11!
0,!
1'!
1#!
0h
1~
1w
1s
0m
1W
16!
0/!
1C
1.
1e!
0g
0?!
0p
07!
1$!
0k
0y
1x
00!
04!
0-!
1!!
1t
0n
13!
1/!
1,!
0~
1y
0x
0s
1m
1h
0C!
0E
0F
1H
1J
0K
0&
0'
1)
1+
0,
08!
0%!
0z
10!
1k
09!
0D
0G
0I
0%
0(
0*
14!
1-!
0!!
1z
0t
1n
19!
1E
1F
0H
1I
0J
1K
1&
1'
0)
1*
0+
1,
18!
1%!
1D
1G
1%
1(
#125000
0!
0T
08
#130000
1!
1T
18
1/"
1X
1k!
0d!
1I!
1D!
0W
0e!
1L!
1J!
0]!
0Z!
1Q!
#135000
0!
0T
08
#140000
1!
1T
18
1l!
1E!
0X
1R!
0O!
0M!
1j!
0I!
1F!
0k!
1W
1$"
0)"
0."
1K!
1Q
0R
0S
15
06
07
0L!
0J!
1]!
1Z!
0Q!
0K!
#140001
18"
06"
1u!
0g!
1w!
0m!
1W!
1)!
0#!
0]!
02!
0$!
#145000
0!
0T
08
#150000
1!
1T
18
1v!
0l!
0h!
0G!
1]
1X
1H!
1o
1b
0^
1=!
0F!
0D!
1d
1[
1Y
0W
1e!
0d
1g
0g
03!
0/!
0,!
1~
0y
1x
1s
0m
0h
13!
1/!
1,!
0~
1y
0x
0s
1m
1h
00!
0k
04!
0-!
1!!
0z
1t
0n
10!
1k
0E
0F
1H
0I
1J
0K
0&
0'
1)
0*
1+
0,
14!
1-!
0!!
1z
0t
1n
08!
0%!
1E
1F
0H
1I
0J
1K
0D
0G
1&
1'
0)
1*
0+
1,
0%
0(
18!
1%!
1D
1G
1%
1(
#155000
0!
0T
08
#160000
1!
1T
18
0/"
0*"
1%"
0E!
1Z
0X
1I!
0[
1k!
1W
1L!
1J!
0e!
0Z!
0W!
1Q!
1K!
#165000
0!
0T
08
#170000
1!
1T
18
1l!
1X
1M!
0k!
1d!
1b!
0I!
1D!
0W
1."
1N!
0K!
1S
17
1e!
0."
0$"
1x!
1s!
0L!
0J!
1Z!
1W!
0Q!
0N!
#170001
15"
1;"
08"
07"
10"
1+"
0u!
0p!
12"
1-"
0w!
0r!
1c!
1`!
06!
1."
1K!
1l
0x!
0W!
0)!
1#!
0s!
0Z!
17!
01!
1$!
07!
#175000
0!
0T
08
#180000
1!
1T
18
11"
1/"
1,"
0%"
0v!
0q!
0l!
1f!
1E!
0X
0d!
0b!
1k!
1W
0e!
1$"
0c!
#185000
0!
0T
08
#190000
1!
1T
18
1l!
1X
0k!
0D!
1i
1e
1c
0`
0Y
0W
1j
1C!
1p
0l
12!
1+!
1r
00!
1x
0k
1t
0n
1J
0K
1+
0,
08!
0D
0%
#190001
05"
00"
02"
0`!
16!
17!
18!
1D
1%
#195000
0!
0T
08
#200000
1!
1T
18
01"
0l!
0E!
1u
0q
0Z
0X
0j!
1d!
0i
0e
0c
1`
1s
0m
1l
1W
1e!
0j
0C!
0p
02!
0+!
0r
08!
0%!
0z
1n
10!
0x
1k
0D
0G
0I
1K
0%
0(
0*
1,
0n
0K
0,
18!
1z
1%!
1D
1I
1G
1%
1*
1(
#205000
0!
0T
08
#210000
1!
1T
18
1%"
0f!
1X
1k!
0d!
1I!
1D!
0W
0e!
1L!
1J!
1Q!
1N!
0K!
#215000
0!
0T
08
#220000
1!
1T
18
1l!
1E!
0X
1O!
0M!
1j!
0I!
1F!
0k!
1W
1)"
0."
1K!
1R
0S
16
07
0L!
0J!
0Q!
0N!
#220001
0;"
18"
17"
0+"
1u!
1p!
0-"
1w!
1r!
0K!
0l
1W!
1)!
0#!
1Z!
11!
0$!
07!
#225000
0!
0T
08
#230000
1!
1T
18
0,"
1v!
1q!
0l!
1X
0F!
0D!
1[
1Y
0W
1e!
#235000
0!
0T
08
#240000
1!
1T
18
0/"
1*"
0E!
1Z
0X
1I!
0[
1k!
1W
1L!
1J!
0e!
0Z!
0W!
1Q!
1N!
1K!
#245000
0!
0T
08
#250000
1!
1T
18
1l!
1X
1M!
0k!
1d!
1b!
0I!
1D!
0W
1."
1S!
0P!
0N!
0K!
1S
17
1e!
0."
0)"
0$"
1x!
1s!
0L!
0J!
1T!
0Q!
1Z!
1W!
0T!
#250001
15"
1<"
08"
07"
10"
1&"
0u!
0p!
12"
1("
0w!
0r!
1c!
1`!
06!
1)"
1N!
1v
0s
0x!
0W!
0)!
1#!
0s!
0Z!
0t
17!
1|
01!
1$!
0J
0+
1t
07!
1J
1+
#255000
0!
0T
08
#260000
1!
1T
18
11"
1'"
0%"
0v!
0q!
0l!
1f!
1E!
0X
0d!
0b!
1k!
1W
0e!
1."
1$"
0c!
#265000
0!
0T
08
#270000
1!
1T
18
1l!
1X
0k!
0D!
1i
1e
1c
0`
0Y
0W
1j
1C!
1p
12!
1+!
1}
1r
00!
1x
0w
0k
1!!
0t
0y
0x
1H
0J
1)
0+
08!
0D
0%
0z
0I
0*
#270001
05"
19"
00"
1z!
02"
1|!
0`!
16!
1T!
1(!
0$!
0}
17!
11!
0+!
0%!
0!!
07!
02!
0:!
0G
0H
0(
0)
18!
0-!
1D
0F
1%
0'
08!
04!
09!
0D
0E
0%
0&
1;!
#275000
0!
0T
08
#280000
1!
1T
18
01"
1{!
0l!
0E!
05!
0*!
0&!
0{
0u
0Z
0X
1<!
0.!
0j!
1d!
0i
0e
0c
1`
17!
03!
12!
01!
0,!
1+!
0'!
0#!
0h
0|
1w
0v
1s
0r
1W
06!
0/!
1B
0C
1/
0.
1e!
0j
0C!
0p
02!
0+!
1}
07!
0(!
1y
1x
0w
14!
1-!
1t
0y
19!
0;!
1:!
1E
1F
1J
1&
1'
1+
04!
0-!
0t
09!
0:!
0E
0F
0J
0&
0'
0+
1;!
#285000
0!
0T
08
#290000
1!
1T
18
1/"
1%"
0f!
1X
1k!
0d!
1I!
1D!
0W
0e!
1L!
1J!
0N!
#295000
0!
0T
08
#300000
1!
1T
18
1l!
1E!
0X
1U!
0R!
0O!
0M!
1j!
0I!
1F!
0k!
1W
1}!
0$"
0)"
0."
1K!
1P
0Q
0R
0S
14
05
06
07
0L!
0J!
1N!
0K!
#300001
15"
0<"
09"
17"
10"
0&"
0z!
1p!
12"
0("
0|!
1r!
1`!
16!
0N!
0s
0T!
0}
1Z!
1t
17!
1:!
1J
1+
0t
0;!
0:!
0J
0+
1;!
#305000
0!
0T
08
#310000
1!
1T
18
13"
11"
0'"
0{!
1q!
0l!
0]
1X
0H!
0o
0b
0@!
0F!
0D!
1[
1Y
0W
0A!
1e!
#315000
0!
0T
08
#320000
1!
1T
18
0/"
0*"
0%"
1~!
0E!
1Z
0X
0j!
0[
1W
1k!
0e!
#325000
0!
0T
08
#330000
1!
1T
18
1l!
1X
0k!
1D!
1B!
0W
1L!
1C!
0D!
0Y
#330001
05"
1;"
1:"
19"
07"
00"
1+"
1!"
1z!
0p!
02"
1-"
1#"
1|!
0r!
0`!
06!
1K!
1l
1Q!
1T!
1}
0Z!
07!
#335000
0!
0T
08
#340000
1!
1T
18
01"
1,"
1""
1{!
0q!
0l!
0Z
0X
1R!
1M!
1d!
0B!
1W
1$"
1P!
1."
1Q
1S
15
17
1e!
0L!
0C!
#345000
0!
0T
08
#350000
1!
1T
18
1/"
1%"
1X
1k!
0d!
1I!
1D!
0W
0e!
1L!
1J!
1N!
0K!
#355000
0!
0T
08
#360000
1!
1T
18
1l!
1E!
0X
1O!
0M!
1j!
0I!
1F!
0k!
1W
1)"
0."
1K!
1R
0S
16
07
0L!
0J!
0N!
#360001
0;"
0:"
09"
17"
0+"
0!"
0z!
1p!
0-"
0#"
0|!
1r!
0K!
0l
0Q!
0T!
0}
1Z!
#365000
0!
0T
08
#370000
1!
1T
18
03"
0,"
0""
0{!
1q!
0l!
1X
1H!
1A!
1o
0F!
0D!
1[
1Y
0W
1e!
#375000
0!
0T
08
#380000
1!
1T
18
0/"
1*"
0E!
1Z
0X
1I!
0[
1k!
1W
1L!
1J!
0e!
0Z!
1T!
1Q!
1N!
1K!
#385000
0!
0T
08
#390000
1!
1T
18
1l!
1X
1M!
0k!
1d!
1b!
0I!
1D!
0W
1."
1V!
0S!
0P!
0N!
0K!
1S
17
1e!
0."
0)"
0$"
0}!
1s!
0L!
0J!
1W!
0T!
0Q!
1Z!
0W!
#390001
15"
1:"
07"
10"
1!"
0p!
12"
1#"
0r!
1c!
1`!
16!
1$"
1Q!
0s!
0Z!
17!
#395000
0!
0T
08
#400000
1!
1T
18
11"
0*"
1""
0~!
0q!
0l!
1f!
1E!
0X
0d!
0b!
1k!
1W
0e!
1."
1)"
1}!
0c!
#405000
0!
0T
08
#410000
1!
1T
18
1l!
1X
0k!
0D!
1i
1e
0`
0Y
0W
1j
1C!
1p
10!
0x
18!
1z
19!
1:!
1D
1I
1%
1*
0;!
#410001
05"
1;"
0:"
00"
1+"
0!"
02"
1-"
0#"
0`!
06!
00!
1K!
1l
0Q!
0z
07!
0:!
0I
0*
08!
1n
09!
0D
1K
0%
1,
#415000
0!
0T
08
#420000
1!
1T
18
01"
1,"
0""
0l!
0E!
1q
0Z
0X
0<!
0j!
1d!
0i
0e
1`
1m
1W
1@!
0=!
0B
0/
1e!
0j
0C!
0p
1x
#425000
0!
0T
08
#430000
1!
1T
18
1/"
1*"
1~!
0f!
1X
1k!
0d!
1I!
1D!
0W
0e!
1L!
1J!
1W!
0K!
#435000
0!
0T
08
#440000
1!
1T
18
1l!
1E!
0X
1X!
0U!
0R!
0O!
0M!
1j!
0I!
1F!
0k!
1W
1x!
1Y!
0W!
0}!
0V!
0$"
0)"
0."
1K!
1O
0P
0Q
0R
0S
13
04
05
06
07
0L!
0J!
1Z!
0Y!
1W!
0Z!
0W!
#440001
15"
0;"
18"
17"
16"
10"
0+"
1u!
1p!
1g!
12"
0-"
1w!
1r!
1m!
1`!
16!
0K!
0l
1W!
1'!
1#!
1Z!
1]!
12!
17!
1$!
#445000
0!
0T
08
#450000
1!
1T
18
13"
11"
0,"
1v!
1q!
0l!
1h!
1G!
1]
1X
0H!
0o
1=!
0F!
0D!
1[
1Y
0W
14"
1A
1-
0X
0E!
1d!
0[
0Y
1W
0j!
1e!
#455000
0!
0T
08
#460000
1!
1T
18
0/"
0*"
0%"
0~!
1y!
#465000
0!
0T
08
#470000
1!
1T
18
#470001
05"
08"
07"
06"
00"
0u!
0p!
0g!
#475000
0!
0T
08
#480000
1!
1T
18
#485000
0!
0T
08
#490000
1!
1T
18
#495000
0!
0T
08
#500000
1!
1T
18
#505000
0!
0T
08
#510000
1!
1T
18
#515000
0!
0T
08
#520000
1!
1T
18
#525000
0!
0T
08
#530000
1!
1T
18
#535000
0!
0T
08
#540000
1!
1T
18
#545000
0!
0T
08
#550000
1!
1T
18
#555000
0!
0T
08
#560000
1!
1T
18
#565000
0!
0T
08
#570000
1!
1T
18
#575000
0!
0T
08
#580000
1!
1T
18
#585000
0!
0T
08
#590000
1!
1T
18
#595000
0!
0T
08
#600000
1!
1T
18
#605000
0!
0T
08
#610000
1!
1T
18
#615000
0!
0T
08
#620000
1!
1T
18
#625000
0!
0T
08
#630000
1!
1T
18
#635000
0!
0T
08
#640000
1!
1T
18
#645000
0!
0T
08
#650000
1!
1T
18
#655000
0!
0T
08
#660000
1!
1T
18
#665000
0!
0T
08
#670000
1!
1T
18
#675000
0!
0T
08
#680000
1!
1T
18
#685000
0!
0T
08
#690000
1!
1T
18
#695000
0!
0T
08
#700000
1!
1T
18
#705000
0!
0T
08
#710000
1!
1T
18
#715000
0!
0T
08
#720000
1!
1T
18
#725000
0!
0T
08
#730000
1!
1T
18
#735000
0!
0T
08
#740000
1!
1T
18
#745000
0!
0T
08
#750000
1!
1T
18
#755000
0!
0T
08
#760000
1!
1T
18
#765000
0!
0T
08
#770000
1!
1T
18
#775000
0!
0T
08
#780000
1!
1T
18
#785000
0!
0T
08
#790000
1!
1T
18
#795000
0!
0T
08
#800000
1!
1T
18
#805000
0!
0T
08
#810000
1!
1T
18
#815000
0!
0T
08
#820000
1!
1T
18
#825000
0!
0T
08
#830000
1!
1T
18
#835000
0!
0T
08
#840000
1!
1T
18
#845000
0!
0T
08
#850000
1!
1T
18
#855000
0!
0T
08
#860000
1!
1T
18
#865000
0!
0T
08
#870000
1!
1T
18
#875000
0!
0T
08
#880000
1!
1T
18
#885000
0!
0T
08
#890000
1!
1T
18
#895000
0!
0T
08
#900000
1!
1T
18
#905000
0!
0T
08
#910000
1!
1T
18
#915000
0!
0T
08
#920000
1!
1T
18
#925000
0!
0T
08
#930000
1!
1T
18
#935000
0!
0T
08
#940000
1!
1T
18
#945000
0!
0T
08
#950000
1!
1T
18
#955000
0!
0T
08
#960000
1!
1T
18
#965000
0!
0T
08
#970000
1!
1T
18
#975000
0!
0T
08
#980000
1!
1T
18
#985000
0!
0T
08
#990000
1!
1T
18
#995000
0!
0T
08
