simulation/qsim/Neander.msim.vcd
$comment
	File created using the following command:
		vcd file Neander.msim.vcd -direction
$end
$date
	Wed Dec 03 00:02:48 2025
$end
$version
	ModelSim Version 10.1d
$end
$timescale
	1ps
$end
$scope module neander_vlg_vec_tst $end
$var reg 1 ! clk $end
$var reg 1 " reset $end
$var reg 1 # rundebug $end
$var reg 1 $ step $end
$var wire 1 % acumulador [7] $end
$var wire 1 & acumulador [6] $end
$var wire 1 ' acumulador [5] $end
$var wire 1 ( acumulador [4] $end
$var wire 1 ) acumulador [3] $end
$var wire 1 * acumulador [2] $end
$var wire 1 + acumulador [1] $end
$var wire 1 , acumulador [0] $end
$var wire 1 - cpc $end
$var wire 1 . crem $end
$var wire 1 / cri $end
$var wire 1 0 goto0 $end
$var wire 1 1 hlt $end
$var wire 1 2 incpc $end
$var wire 1 3 ler $end
$var wire 1 4 n $end
$var wire 1 5 ppcc [7] $end
$var wire 1 6 ppcc [6] $end
$var wire 1 7 ppcc [5] $end
$var wire 1 8 ppcc [4] $end
$var wire 1 9 ppcc [3] $end
$var wire 1 : ppcc [2] $end
$var wire 1 ; ppcc [1] $end
$var wire 1 < ppcc [0] $end
$var wire 1 = rdm [7] $end
$var wire 1 > rdm [6] $end
$var wire 1 ? rdm [5] $end
$var wire 1 @ rdm [4] $end
$var wire 1 A rdm [3] $end
$var wire 1 B rdm [2] $end
$var wire 1 C rdm [1] $end
$var wire 1 D rdm [0] $end
$var wire 1 E rem [7] $end
$var wire 1 F rem [6] $end
$var wire 1 G rem [5] $end
$var wire 1 H rem [4] $end
$var wire 1 I rem [3] $end
$var wire 1 J rem [2] $end
$var wire 1 K rem [1] $end
$var wire 1 L rem [0] $end
$var wire 1 M ri [7] $end
$var wire 1 N ri [6] $end
$var wire 1 O ri [5] $end
$var wire 1 P ri [4] $end
$var wire 1 Q ri [3] $end
$var wire 1 R ri [2] $end
$var wire 1 S ri [1] $end
$var wire 1 T ri [0] $end
$var wire 1 U ri19 [15] $end
$var wire 1 V ri19 [14] $end
$var wire 1 W ri19 [13] $end
$var wire 1 X ri19 [12] $end
$var wire 1 Y ri19 [11] $end
$var wire 1 Z ri19 [10] $end
$var wire 1 [ ri19 [9] $end
$var wire 1 \ ri19 [8] $end
$var wire 1 ] ri19 [7] $end
$var wire 1 ^ ri19 [6] $end
$var wire 1 _ ri19 [5] $end
$var wire 1 ` ri19 [4] $end
$var wire 1 a ri19 [3] $end
$var wire 1 b ri19 [2] $end
$var wire 1 c ri19 [1] $end
$var wire 1 d ri19 [0] $end
$var wire 1 e rom [7] $end
$var wire 1 f rom [6] $end
$var wire 1 g rom [5] $end
$var wire 1 h rom [4] $end
$var wire 1 i rom [3] $end
$var wire 1 j rom [2] $end
$var wire 1 k rom [1] $end
$var wire 1 l rom [0] $end
$var wire 1 m seletor $end
$var wire 1 n z $end
$var wire 1 o sampler $end
$scope module i1 $end
$var wire 1 p gnd $end
$var wire 1 q vcc $end
$var wire 1 r unknown $end
$var tri1 1 s devclrn $end
$var tri1 1 t devpor $end
$var tri1 1 u devoe $end
$var wire 1 v rundebug~input_o $end
$var wire 1 w step~input_o $end
$var wire 1 x n~output_o $end
$var wire 1 y z~output_o $end
$var wire 1 z hlt~output_o $end
$var wire 1 { ler~output_o $end
$var wire 1 | seletor~output_o $end
$var wire 1 } cpc~output_o $end
$var wire 1 ~ incpc~output_o $end
$var wire 1 !! crem~output_o $end
$var wire 1 "! cri~output_o $end
$var wire 1 #! goto0~output_o $end
$var wire 1 $! acumulador[7]~output_o $end
$var wire 1 %! acumulador[6]~output_o $end
$var wire 1 &! acumulador[5]~output_o $end
$var wire 1 '! acumulador[4]~output_o $end
$var wire 1 (! acumulador[3]~output_o $end
$var wire 1 )! acumulador[2]~output_o $end
$var wire 1 *! acumulador[1]~output_o $end
$var wire 1 +! acumulador[0]~output_o $end
$var wire 1 ,! ppcc[7]~output_o $end
$var wire 1 -! ppcc[6]~output_o $end
$var wire 1 .! ppcc[5]~output_o $end
$var wire 1 /! ppcc[4]~output_o $end
$var wire 1 0! ppcc[3]~output_o $end
$var wire 1 1! ppcc[2]~output_o $end
$var wire 1 2! ppcc[1]~output_o $end
$var wire 1 3! ppcc[0]~output_o $end
$var wire 1 4! rdm[7]~output_o $end
$var wire 1 5! rdm[6]~output_o $end
$var wire 1 6! rdm[5]~output_o $end
$var wire 1 7! rdm[4]~output_o $end
$var wire 1 8! rdm[3]~output_o $end
$var wire 1 9! rdm[2]~output_o $end
$var wire 1 :! rdm[1]~output_o $end
$var wire 1 ;! rdm[0]~output_o $end
$var wire 1 <! rem[7]~output_o $end
$var wire 1 =! rem[6]~output_o $end
$var wire 1 >! rem[5]~output_o $end
$var wire 1 ?! rem[4]~output_o $end
$var wire 1 @! rem[3]~output_o $end
$var wire 1 A! rem[2]~output_o $end
$var wire 1 B! rem[1]~output_o $end
$var wire 1 C! rem[0]~output_o $end
$var wire 1 D! ri[7]~output_o $end
$var wire 1 E! ri[6]~output_o $end
$var wire 1 F! ri[5]~output_o $end
$var wire 1 G! ri[4]~output_o $end
$var wire 1 H! ri[3]~output_o $end
$var wire 1 I! ri[2]~output_o $end
$var wire 1 J! ri[1]~output_o $end
$var wire 1 K! ri[0]~output_o $end
$var wire 1 L! ri19[15]~output_o $end
$var wire 1 M! ri19[14]~output_o $end
$var wire 1 N! ri19[13]~output_o $end
$var wire 1 O! ri19[12]~output_o $end
$var wire 1 P! ri19[11]~output_o $end
$var wire 1 Q! ri19[10]~output_o $end
$var wire 1 R! ri19[9]~output_o $end
$var wire 1 S! ri19[8]~output_o $end
$var wire 1 T! ri19[7]~output_o $end
$var wire 1 U! ri19[6]~output_o $end
$var wire 1 V! ri19[5]~output_o $end
$var wire 1 W! ri19[4]~output_o $end
$var wire 1 X! ri19[3]~output_o $end
$var wire 1 Y! ri19[2]~output_o $end
$var wire 1 Z! ri19[1]~output_o $end
$var wire 1 [! ri19[0]~output_o $end
$var wire 1 \! rom[7]~output_o $end
$var wire 1 ]! rom[6]~output_o $end
$var wire 1 ^! rom[5]~output_o $end
$var wire 1 _! rom[4]~output_o $end
$var wire 1 `! rom[3]~output_o $end
$var wire 1 a! rom[2]~output_o $end
$var wire 1 b! rom[1]~output_o $end
$var wire 1 c! rom[0]~output_o $end
$var wire 1 d! clk~input_o $end
$var wire 1 e! inst1|inst|inst|inst38~0_combout $end
$var wire 1 f! reset~input_o $end
$var wire 1 g! inst1|inst2|inst12|inst2~1_combout $end
$var wire 1 h! inst1|inst2|inst12|inst2~2_combout $end
$var wire 1 i! inst13|Mux4~0_combout $end
$var wire 1 j! inst13|Mux4~1_combout $end
$var wire 1 k! inst1|inst|inst|inst2|inst1~combout $end
$var wire 1 l! inst1|inst|inst|inst34~q $end
$var wire 1 m! inst1|inst2|inst12|inst17~0_combout $end
$var wire 1 n! inst13|Mux3~0_combout $end
$var wire 1 o! inst13|Mux3~1_combout $end
$var wire 1 p! inst4|inst8~q $end
$var wire 1 q! inst8|inst8~q $end
$var wire 1 r! instdec|inst2~3_combout $end
$var wire 1 s! instdec|inst2~4_combout $end
$var wire 1 t! inst1|inst2|inst12|inst17~1_combout $end
$var wire 1 u! inst1|inst2|inst12|inst17~2_combout $end
$var wire 1 v! inst4|inst6~q $end
$var wire 1 w! inst10|inst|inst1|inst3~0_combout $end
$var wire 1 x! inst10|inst10~combout $end
$var wire 1 y! inst10|inst38~q $end
$var wire 1 z! inst10|inst13|inst1|inst3~0_combout $end
$var wire 1 {! inst10|inst44~q $end
$var wire 1 |! inst10|inst32~combout $end
$var wire 1 }! inst10|inst14|inst1|inst3~0_combout $end
$var wire 1 ~! inst10|inst34~q $end
$var wire 1 !" inst10|inst45~combout $end
$var wire 1 "" inst10|inst15|inst1|inst3~0_combout $end
$var wire 1 #" inst10|inst39~q $end
$var wire 1 $" inst1|inst2|inst14|inst~0_combout $end
$var wire 1 %" inst1|inst2|inst14|inst1~0_combout $end
$var wire 1 &" inst3|instmux4|inst3~0_combout $end
$var wire 1 '" inst1|inst2|inst10|inst17~0_combout $end
$var wire 1 (" inst1|inst|inst3|inst3~0_combout $end
$var wire 1 )" inst1|inst2|inst9|inst3~3_combout $end
$var wire 1 *" inst1|inst2|inst10|inst17~1_combout $end
$var wire 1 +" inst3|inst6~q $end
$var wire 1 ," inst13|Mux5~0_combout $end
$var wire 1 -" inst13|Mux5~1_combout $end
$var wire 1 ." inst4|inst5~q $end
$var wire 1 /" inst3|instmux3|inst3~0_combout $end
$var wire 1 0" inst3|inst5~q $end
$var wire 1 1" inst13|Mux2~0_combout $end
$var wire 1 2" inst13|Mux2~1_combout $end
$var wire 1 3" inst4|inst10~q $end
$var wire 1 4" inst8|inst10~q $end
$var wire 1 5" inst1|inst2|inst12|inst2~0_combout $end
$var wire 1 6" inst1|inst|inst3|inst3~2_combout $end
$var wire 1 7" inst6|inst2~combout $end
$var wire 1 8" instdec|inst2~7_combout $end
$var wire 1 9" instdec|inst2~8_combout $end
$var wire 1 :" instdec|inst2~9_combout $end
$var wire 1 ;" instdec|inst2~10_combout $end
$var wire 1 <" inst|inst3~0_combout $end
$var wire 1 =" inst7|inst14|inst9|inst3~10_combout $end
$var wire 1 >" inst1|inst2|inst8|inst3~combout $end
$var wire 1 ?" inst9|inst14~q $end
$var wire 1 @" inst|inst~2_combout $end
$var wire 1 A" inst|inst~3_combout $end
$var wire 1 B" inst7|inst14|inst9|inst3~4_combout $end
$var wire 1 C" inst7|inst14|inst9|inst3~5_combout $end
$var wire 1 D" inst7|inst14|inst9|inst3~6_combout $end
$var wire 1 E" inst7|inst14|inst9|inst3~7_combout $end
$var wire 1 F" inst7|inst14|inst9|inst3~8_combout $end
$var wire 1 G" inst7|inst14|inst6|inst3~0_combout $end
$var wire 1 H" inst7|inst14|inst1|inst3~0_combout $end
$var wire 1 I" inst7|inst14|inst|inst3~0_combout $end
$var wire 1 J" inst7|inst14|inst|inst3~1_combout $end
$var wire 1 K" inst7|inst14|inst|inst3~2_combout $end
$var wire 1 L" inst9|inst~q $end
$var wire 1 M" inst7|inst3|inst1|inst1~0_combout $end
$var wire 1 N" inst7|inst14|inst4|inst3~0_combout $end
$var wire 1 O" inst7|inst14|inst4|inst3~1_combout $end
$var wire 1 P" inst7|inst14|inst1|inst3~5_combout $end
$var wire 1 Q" inst7|inst14|inst4|inst3~2_combout $end
$var wire 1 R" inst7|inst14|inst1|inst3~3_combout $end
$var wire 1 S" inst7|inst14|inst4|inst3~3_combout $end
$var wire 1 T" inst9|inst3~q $end
$var wire 1 U" inst7|inst3|inst1|inst4~0_combout $end
$var wire 1 V" inst7|inst14|inst5|inst3~2_combout $end
$var wire 1 W" inst7|inst14|inst5|inst3~3_combout $end
$var wire 1 X" inst7|inst14|inst5|inst3~0_combout $end
$var wire 1 Y" inst7|inst14|inst5|inst3~1_combout $end
$var wire 1 Z" inst9|inst5~q $end
$var wire 1 [" inst7|inst3|inst3|inst1~0_combout $end
$var wire 1 \" inst7|inst14|inst6|inst3~1_combout $end
$var wire 1 ]" inst7|inst3|inst3|inst4~2_combout $end
$var wire 1 ^" inst7|inst14|inst6|inst3~2_combout $end
$var wire 1 _" inst7|inst14|inst6|inst3~3_combout $end
$var wire 1 `" inst7|inst14|inst6|inst3~4_combout $end
$var wire 1 a" inst9|inst6~q $end
$var wire 1 b" inst7|inst3|inst3|inst4~0_combout $end
$var wire 1 c" inst7|inst3|inst3|inst4~1_combout $end
$var wire 1 d" inst7|inst3|inst7|inst1~combout $end
$var wire 1 e" inst7|inst14|inst1|inst3~1_combout $end
$var wire 1 f" inst7|inst14|inst1|inst3~2_combout $end
$var wire 1 g" inst7|inst14|inst1|inst3~4_combout $end
$var wire 1 h" inst9|inst8~q $end
$var wire 1 i" inst7|inst3|inst7|inst4~0_combout $end
$var wire 1 j" inst7|inst14|inst7|inst3~1_combout $end
$var wire 1 k" inst7|inst14|inst7|inst3~0_combout $end
$var wire 1 l" inst7|inst14|inst7|inst3~2_combout $end
$var wire 1 m" inst9|inst10~q $end
$var wire 1 n" inst7|inst14|inst8|inst3~0_combout $end
$var wire 1 o" inst7|inst14|inst8|inst3~1_combout $end
$var wire 1 p" inst7|inst14|inst8|inst3~2_combout $end
$var wire 1 q" inst7|inst14|inst8|inst3~3_combout $end
$var wire 1 r" inst9|inst12~q $end
$var wire 1 s" inst7|inst3|inst4|inst4~0_combout $end
$var wire 1 t" inst7|inst3|inst6|inst1~0_combout $end
$var wire 1 u" inst7|inst3|inst6|inst1~combout $end
$var wire 1 v" inst7|inst14|inst9|inst3~9_combout $end
$var wire 1 w" inst6|inst~q $end
$var wire 1 x" instdec|inst2~2_combout $end
$var wire 1 y" inst1|inst2|inst9|inst3~0_combout $end
$var wire 1 z" inst1|inst2|inst9|inst3~1_combout $end
$var wire 1 {" inst1|inst2|inst9|inst3~2_combout $end
$var wire 1 |" instdec|inst2~5_combout $end
$var wire 1 }" instdec|inst2~6_combout $end
$var wire 1 ~" inst1|inst2|inst13|inst17~0_combout $end
$var wire 1 !# inst1|inst2|inst13|inst17~1_combout $end
$var wire 1 "# inst1|inst2|inst13|inst17~2_combout $end
$var wire 1 ## inst1|inst|inst|inst1|inst1~combout $end
$var wire 1 $# inst1|inst|inst|inst44~q $end
$var wire 1 %# inst1|inst|inst3|inst3~1_combout $end
$var wire 1 &# inst8|inst12~q $end
$var wire 1 '# instdec|inst2~1_combout $end
$var wire 1 (# inst1|inst2|inst11|inst8~0_combout $end
$var wire 1 )# inst1|inst2|inst11|inst8~1_combout $end
$var wire 1 *# inst1|inst2|inst11|inst8~2_combout $end
$var wire 1 +# inst10|inst12~combout $end
$var wire 1 ,# inst10|inst33~combout $end
$var wire 1 -# inst10|inst16|inst1|inst3~0_combout $end
$var wire 1 .# inst10|inst35~q $end
$var wire 1 /# inst10|inst46~combout $end
$var wire 1 0# inst10|inst17|inst1|inst3~0_combout $end
$var wire 1 1# inst10|inst40~q $end
$var wire 1 2# inst10|inst48~combout $end
$var wire 1 3# inst10|inst18|inst1|inst3~0_combout $end
$var wire 1 4# inst10|inst37~q $end
$var wire 1 5# inst10|inst50~combout $end
$var wire 1 6# inst10|inst19|inst1|inst3~0_combout $end
$var wire 1 7# inst10|inst49~q $end
$var wire 1 8# inst3|instmux8|inst3~0_combout $end
$var wire 1 9# inst3|inst14~q $end
$var wire 1 :# inst13|Mux6~1_combout $end
$var wire 1 ;# inst13|Mux6~2_combout $end
$var wire 1 <# inst4|inst3~q $end
$var wire 1 =# inst3|instmux2|inst3~0_combout $end
$var wire 1 ># inst3|inst3~q $end
$var wire 1 ?# inst13|Mux1~0_combout $end
$var wire 1 @# inst13|Mux1~1_combout $end
$var wire 1 A# inst4|inst12~q $end
$var wire 1 B# inst3|instmux7|inst3~0_combout $end
$var wire 1 C# inst3|inst12~q $end
$var wire 1 D# inst3|instmux6|inst3~0_combout $end
$var wire 1 E# inst3|inst10~q $end
$var wire 1 F# inst3|instmux5|inst3~0_combout $end
$var wire 1 G# inst3|inst8~q $end
$var wire 1 H# inst13|Mux6~0_combout $end
$var wire 1 I# inst13|Mux7~0_combout $end
$var wire 1 J# inst13|Mux7~1_combout $end
$var wire 1 K# inst13|Mux7~2_combout $end
$var wire 1 L# inst4|inst~q $end
$var wire 1 M# inst3|instmux1|inst3~0_combout $end
$var wire 1 N# inst3|inst~q $end
$var wire 1 O# inst13|Mux0~0_combout $end
$var wire 1 P# inst13|Mux0~1_combout $end
$var wire 1 Q# inst4|inst14~q $end
$var wire 1 R# inst8|inst14~q $end
$var wire 1 S# instdec|inst2~0_combout $end
$var wire 1 T# inst1|inst|inst|inst38~q $end
$var wire 1 U# inst1|inst2|inst27|inst~0_combout $end
$var wire 1 V# inst5|inst2~combout $end
$var wire 1 W# inst7|inst8|inst1~0_combout $end
$var wire 1 X# inst7|inst8|inst1~1_combout $end
$var wire 1 Y# inst7|inst8|inst1~2_combout $end
$var wire 1 Z# inst5|inst~q $end
$var wire 1 [# inst8|inst6~q $end
$var wire 1 \# inst8|inst5~q $end
$var wire 1 ]# inst8|inst3~q $end
$var wire 1 ^# inst8|inst~q $end
$var wire 1 _# instdec|inst2~11_combout $end
$var wire 1 `# instdec|inst2~12_combout $end
$var wire 1 a# instdec|inst2~13_combout $end
$var wire 1 b# instdec|inst2~14_combout $end
$var wire 1 c# instdec|inst2~15_combout $end
$upscope $end
$upscope $end
$enddefinitions $end
#0
$dumpvars
1!
1"
0#
0$
0,
0+
0*
0)
0(
0'
0&
0%
0-
1.
0/
00
01
02
03
04
0<
0;
0:
09
08
07
06
05
0D
0C
0B
0A
0@
0?
0>
0=
0L
0K
0J
0I
0H
0G
0F
0E
0T
0S
0R
0Q
0P
0O
0N
0M
1d
0c
0b
0a
0`
0_
0^
0]
0\
0[
0Z
0Y
0X
0W
0V
0U
0l
0k
0j
0i
0h
1g
0f
0e
0m
0n
xo
0p
1q
xr
1s
1t
1u
0v
0w
0x
0y
0z
0{
0|
0}
0~
1!!
0"!
0#!
0$!
0%!
0&!
0'!
0(!
0)!
0*!
0+!
0,!
0-!
0.!
0/!
00!
01!
02!
03!
04!
05!
06!
07!
08!
09!
0:!
0;!
0<!
0=!
0>!
0?!
0@!
0A!
0B!
0C!
0D!
0E!
0F!
0G!
0H!
0I!
0J!
0K!
0L!
0M!
0N!
0O!
0P!
0Q!
0R!
0S!
0T!
0U!
0V!
0W!
0X!
0Y!
0Z!
1[!
0\!
0]!
1^!
0_!
0`!
0a!
0b!
0c!
1d!
1e!
1f!
1g!
0h!
0i!
0j!
0k!
0l!
0m!
0n!
0o!
0p!
0q!
0r!
0s!
0t!
0u!
0v!
0w!
0x!
0y!
0z!
0{!
0|!
0}!
0~!
0!"
0""
0#"
0$"
0%"
0&"
1'"
0("
1)"
1*"
0+"
0,"
0-"
0."
0/"
00"
01"
12"
03"
04"
05"
06"
07"
08"
09"
0:"
0;"
0<"
1="
0>"
0?"
0@"
0A"
1B"
0C"
0D"
0E"
0F"
0G"
0H"
0I"
0J"
0K"
0L"
0M"
0N"
0O"
1P"
0Q"
0R"
0S"
0T"
0U"
0V"
0W"
0X"
0Y"
0Z"
0["
0\"
0]"
0^"
0_"
0`"
0a"
0b"
0c"
0d"
0e"
0f"
0g"
0h"
0i"
0j"
0k"
0l"
0m"
0n"
0o"
0p"
0q"
0r"
0s"
0t"
0u"
0v"
0w"
0x"
1y"
0z"
0{"
1|"
0}"
1~"
0!#
0"#
0##
0$#
0%#
0&#
0'#
0(#
1)#
0*#
0+#
0,#
0-#
0.#
0/#
00#
01#
02#
03#
04#
05#
06#
07#
08#
09#
0:#
0;#
0<#
0=#
0>#
0?#
0@#
0A#
0B#
0C#
0D#
0E#
0F#
0G#
1H#
0I#
0J#
0K#
0L#
0M#
0N#
0O#
0P#
0Q#
0R#
0S#
0T#
0U#
0V#
0W#
0X#
1Y#
0Z#
0[#
0\#
0]#
0^#
0_#
0`#
0a#
0b#
0c#
$end
#5000
0!
0d!
0o
#10000
1!
1d!
1o
1T#
1(#
1##
0'"
1t!
1m!
0e!
1*#
0*"
1u!
1+#
1x!
1w!
1~
0!!
1{
12
0.
13
#15000
0!
0d!
0o
#20000
1!
1d!
1o
0T#
1$#
13"
1y!
0(#
0t!
0m!
1e!
0)#
1j"
1M#
1z!
0w!
16!
13!
1?
1<
1%#
1"!
1/
0*#
0u!
10#
0+#
0x!
0~
0{
02
03
0z!
#25000
0!
0d!
0o
#30000
1!
1d!
1o
1T#
14"
1(#
0##
1("
1t!
1k!
0e!
15"
1$"
1F!
1O
0%#
0|"
18"
0B"
0"!
0[!
1Y!
0/
0d
1b
1*"
1!!
1.
#35000
0!
0d!
0o
#40000
1!
1d!
1o
0T#
0$#
1l!
1N#
0("
0t!
1m!
1e!
1)#
1z"
1O#
11"
1C!
1L
0*"
1u!
1*#
1P#
02"
00#
1+#
1x!
0!!
1{
1~
1\!
0^!
0.
13
12
1e
0g
1z!
#45000
0!
0d!
0o
#50000
1!
1d!
1o
1T#
1Q#
03"
1{!
0y!
0(#
1##
1'"
1t!
0m!
0e!
1t"
0j"
1=#
0M#
1w!
14!
06!
12!
03!
1=
0?
1;
0<
1%"
1u"
0=#
18#
1|
1m
0*#
1*"
0u!
0+#
0x!
0w!
0~
1!!
0{
02
1.
03
16#
0z!
#55000
0!
0d!
0o
#60000
1!
1d!
1o
0T#
1$#
0N#
19#
0'"
0t!
1m!
1e!
0)#
0z"
0O#
01"
1I#
1:#
1i!
0C!
1<!
0L
1E
0%"
0P#
1=#
08#
0|
0\!
0m
0e
0*"
1u!
1;#
1j!
0!!
1{
1b!
1`!
0.
13
1k
1i
#65000
0!
0d!
0o
#70000
1!
1d!
1o
1T#
0Q#
1<#
1v!
0##
16"
1t!
0m!
0k!
0e!
06#
0t"
1M"
1z!
1b"
1\"
1["
1""
04!
1:!
18!
0=
1C
1A
1V#
1E"
1>"
17"
0u"
1"#
0u!
1^"
0P"
1N"
1#!
0{
10
03
1O"
1`"
1W#
1(!
1)
1S"
0Y#
1*!
1+
1Z#
1x
14
#75000
0!
0d!
0o
0V#
07"
#80000
1!
1d!
1o
1V#
17"
0T#
0$#
1a"
1T"
0l!
0Z#
06"
1'"
0t!
1e!
1)#
1]"
1U"
0M"
0x
04
0V#
0E"
0>"
07"
1d"
1V"
0"#
1*"
0^"
0V"
1P"
0N"
0#!
1!!
00
1.
1_"
1Q"
0O"
0`"
0(!
0)
1`"
1(!
1)
#85000
0!
0d!
0o
#90000
1!
1d!
1o
1T#
1>#
09#
1(#
1##
0'"
1t!
1m!
0e!
0I#
1?#
0:#
0i!
1B!
0<!
1K
0E
12"
1^!
1g
1*#
0*"
1u!
1@#
0;#
0j!
1+#
0""
1x!
1w!
1~
0!!
1{
1]!
0b!
0`!
12
0.
13
1f
0k
0i
#95000
0!
0d!
0o
#100000
1!
1d!
1o
0T#
1$#
1A#
0<#
13"
1y!
0v!
0(#
0t!
0m!
1e!
0)#
0U"
1M"
0z!
1j"
1M#
1|!
0w!
0]"
0\"
0["
15!
0:!
16!
13!
08!
1>
0C
1?
1<
0A
1%#
1}!
0d"
1"!
1/
0*#
0u!
13#
10#
0+#
0}!
0x!
0~
0{
02
03
#105000
0!
0d!
0o
#110000
1!
1d!
1o
1T#
1&#
1(#
0##
1("
1t!
1k!
0e!
0$"
1h!
0g!
1E!
1N
0%#
1}"
08"
1!#
05"
1U#
1B"
0"!
1U!
0Y!
0/
1^
0b
1V#
1>"
17"
1C"
1"#
1p"
1k"
1R"
0P"
1J"
1D"
0k!
1#!
10
1X#
0_"
0Q"
1F"
1q"
1l"
1g"
1Y"
1K"
1%!
1&!
1'!
1)!
1+!
1&
1'
1(
1*
1,
0`"
0S"
1v"
0(!
0*!
1$!
0)
0+
1%
#115000
0!
0d!
0o
0V#
07"
#120000
1!
1d!
1o
1V#
17"
0T#
0$#
1r"
1m"
1h"
0a"
1Z"
0T"
1L"
1?"
1w"
0U#
0(#
0("
1'"
0t!
1e!
1)#
1u"
0p"
1s"
0k"
1d"
0b"
0M"
0J"
1t"
0D"
1y
1n
0g"
1`"
0Y"
1S"
0V#
0C"
0>"
07"
0!#
0u"
0F"
0'!
1(!
0)!
1*!
0(
1)
0*
1+
1*"
0q"
0l"
0K"
1p"
1k"
1f"
0R"
1P"
1J"
1D"
0X#
1!!
0%!
0&!
0+!
1.
0&
0'
0,
0"#
0v"
1X#
1X"
1F"
0#!
0$!
00
0%
1q"
1l"
1g"
0`"
0S"
1K"
1%!
1&!
1'!
0(!
0*!
1+!
1&
1'
1(
0)
0+
1,
1Y"
1v"
1)!
1$!
1*
1%
#125000
0!
0d!
0o
#130000
1!
1d!
1o
1T#
1N#
1(#
1##
0'"
1t!
1m!
0e!
0?#
1n!
1C!
1L
1*#
0*"
1u!
0@#
1o!
03#
00#
1+#
1}!
1x!
1~
0!!
1{
0]!
1_!
12
0.
13
0f
1h
#135000
0!
0d!
0o
#140000
1!
1d!
1o
0T#
1$#
0A#
1~!
0{!
0y!
1p!
0(#
0t!
0m!
1e!
0)#
1/"
0=#
0M#
1w!
1i"
0d"
05!
11!
02!
03!
17!
0>
1:
0;
0<
1@
1%#
1"!
1/
0*#
0u!
10#
0+#
0}!
0x!
0w!
0~
0{
02
03
1-#
#145000
0!
0d!
0o
#150000
1!
1d!
1o
1T#
0&#
1q!
1U#
1(#
0##
1("
1t!
1k!
0e!
1@"
1$"
0h!
1g!
0E!
1G!
0N
1P
0%#
0}"
19"
1V#
1C"
1>"
17"
15"
0U#
0B"
0"!
0U!
1X!
0/
0^
1a
1*"
0p"
0k"
0f"
1R"
0P"
0J"
0D"
0V#
0>"
07"
0C"
1!!
1.
0X"
0F"
1p"
1k"
1f"
0R"
1P"
1J"
1D"
0q"
0l"
0g"
1`"
1S"
0K"
1X"
1F"
0%!
0&!
0'!
1(!
1*!
0+!
0&
0'
0(
1)
1+
0,
0Y"
0v"
1q"
1l"
1g"
0`"
0S"
1K"
0)!
0$!
1%!
1&!
1'!
0(!
0*!
1+!
0*
0%
1&
1'
1(
0)
0+
1,
1Y"
1v"
1)!
1$!
1*
1%
#155000
0!
0d!
0o
#160000
1!
1d!
1o
0T#
0$#
1l!
0N#
0>#
10"
0("
0t!
1m!
1e!
1)#
1z"
1O#
11"
0n!
1J#
0C!
0B!
1A!
0L
0K
1J
0*"
1u!
1*#
1P#
02"
0o!
1K#
00#
1+#
1}!
1x!
1w!
0!!
1{
1~
1\!
0^!
0_!
1c!
0.
13
12
1e
0g
0h
1l
0-#
#165000
0!
0d!
0o
#170000
1!
1d!
1o
1T#
1Q#
1L#
03"
1y!
0p!
0(#
1##
1'"
1t!
0m!
0e!
0t"
1M#
1M"
1I"
0w!
0j"
1z!
0i"
1d"
14!
1;!
06!
13!
07!
1=
1D
0?
1<
0@
1%"
1u"
0s"
1n"
18#
0/"
1|
1m
0*#
1*"
0u!
0u"
0+#
0}!
0x!
1w!
0~
1!!
0{
02
1.
03
16#
0z!
#175000
0!
0d!
0o
#180000
1!
1d!
1o
0T#
1$#
1N#
19#
00"
0'"
0t!
1m!
1e!
0)#
0z"
0J#
1I#
1:#
1i!
1C!
1<!
0A!
1L
1E
0J
0%"
0K#
0P#
08#
1/"
0|
0c!
0\!
0m
0l
0e
0*"
1u!
1K#
0!!
1{
1c!
0.
13
1l
#185000
0!
0d!
0o
#190000
1!
1d!
1o
1T#
0Q#
0##
1A"
16"
1t!
0m!
0k!
0e!
06#
1t"
04!
0=
1j"
1V#
0I"
1E"
1>"
17"
1u"
1"#
0u!
1o"
0f"
1e"
1V"
0P"
1N"
0F"
1#!
0{
10
03
0K"
0q"
1f"
1W"
0X"
1O"
0+!
0%!
0,
0&
1q"
0g"
1%!
0'!
1&
0(
1g"
1S"
1'!
1*!
1(
1+
#195000
0!
0d!
0o
0V#
07"
#200000
1!
1d!
1o
1V#
17"
0T#
0$#
1T"
0L"
0l!
0A"
06"
1'"
0t!
1e!
1)#
0J"
1I"
0o"
0j"
0e"
0W"
0N"
0V#
0E"
0>"
07"
0v"
0"#
1*"
1K"
0O"
0V"
1P"
1F"
0$!
0#!
1!!
1+!
0%
00
1.
1,
0Y"
0K"
1X"
1Q"
0)!
0+!
0*
0,
0S"
1v"
0*!
1$!
0+
1%
1Y"
1S"
1)!
1*!
1*
1+
#205000
0!
0d!
0o
#210000
1!
1d!
1o
1T#
09#
10"
1(#
1##
0'"
1t!
1m!
0e!
1J#
0I#
0:#
0i!
0O#
01"
1n!
0<!
1A!
0E
1J
1P#
1\!
1e
1*#
0*"
1u!
0K#
0P#
12"
1o!
1+#
1}!
1x!
0w!
1~
0!!
1{
0c!
0\!
1^!
1_!
12
0.
13
0l
0e
1g
1h
1z!
#215000
0!
0d!
0o
#220000
1!
1d!
1o
0T#
1$#
0L#
13"
1{!
0y!
1p!
0(#
0t!
0m!
1e!
0)#
0M#
0I"
1w!
1s"
0n"
1j"
1=#
1i"
0d"
0;!
16!
12!
03!
17!
0D
1?
1;
0<
1@
1%#
0u"
1"!
1/
0*#
0u!
10#
0+#
0}!
0x!
0w!
0~
0{
02
03
1-#
0z!
#225000
0!
0d!
0o
#230000
1!
1d!
1o
1T#
1(#
0##
1("
1t!
1k!
0e!
0%#
0"!
0/
1*"
1!!
1.
#235000
0!
0d!
0o
#240000
1!
1d!
1o
0T#
0$#
1l!
0N#
1>#
0("
0t!
1m!
1e!
1)#
1z"
1O#
11"
0n!
0J#
1:#
0C!
1B!
0L
1K
1K#
1c!
1l
0*"
1u!
1*#
1P#
02"
0o!
0K#
1;#
00#
1+#
1}!
1x!
1w!
0!!
1{
1~
1\!
0^!
0_!
0c!
1b!
0.
13
12
1e
0g
0h
0l
1k
0-#
1z!
#245000
0!
0d!
0o
#250000
1!
1d!
1o
1T#
1Q#
1<#
03"
1y!
0p!
0(#
1##
1'"
1t!
0m!
0e!
0t"
1U"
0M"
0z!
0j"
1M#
1!"
0|!
0w!
0i"
1d"
14!
1:!
06!
13!
07!
1=
1C
0?
1<
0@
1%"
1u"
1["
1""
0}!
0s"
1n"
0M#
18#
0/"
1|
1m
0*#
1*"
0u!
0u"
0+#
0""
0x!
0~
1!!
0{
02
1.
03
16#
1z!
#255000
0!
0d!
0o
#260000
1!
1d!
1o
0T#
1$#
19#
00"
0'"
0t!
1m!
1e!
0)#
0z"
1i!
0O#
1?#
01"
1<!
0A!
1E
0J
0%"
0P#
1M#
08#
1/"
0|
0\!
0m
0e
0*"
1u!
1j!
0!!
1{
1`!
0.
13
1i
#265000
0!
0d!
0o
