simulation/qsim/Neander.msim.vcd
$comment
	File created using the following command:
		vcd file Neander.msim.vcd -direction
$end
$date
	Wed Dec 03 08:53:25 2025
$end
$version
	ModelSim Version 10.1d
$end
$timescale
	1ps
$end
$scope module neander_vlg_vec_tst $end
$var reg 1 ! clk $end
$var reg 1 " reset $end
$var reg 1 # rundebug $end
$var reg 1 $ step $end
$var wire 1 % acumulador [7] $end
$var wire 1 & acumulador [6] $end
$var wire 1 ' acumulador [5] $end
$var wire 1 ( acumulador [4] $end
$var wire 1 ) acumulador [3] $end
$var wire 1 * acumulador [2] $end
$var wire 1 + acumulador [1] $end
$var wire 1 , acumulador [0] $end
$var wire 1 - ADD $end
$var wire 1 . CAC $end
$var wire 1 / cpc $end
$var wire 1 0 crem $end
$var wire 1 1 cri $end
$var wire 1 2 goto0 $end
$var wire 1 3 hlt $end
$var wire 1 4 incpc $end
$var wire 1 5 is_negative $end
$var wire 1 6 is_zero $end
$var wire 1 7 ler $end
$var wire 1 8 NOT $end
$var wire 1 9 ppcc [7] $end
$var wire 1 : ppcc [6] $end
$var wire 1 ; ppcc [5] $end
$var wire 1 < ppcc [4] $end
$var wire 1 = ppcc [3] $end
$var wire 1 > ppcc [2] $end
$var wire 1 ? ppcc [1] $end
$var wire 1 @ ppcc [0] $end
$var wire 1 A rdm [7] $end
$var wire 1 B rdm [6] $end
$var wire 1 C rdm [5] $end
$var wire 1 D rdm [4] $end
$var wire 1 E rdm [3] $end
$var wire 1 F rdm [2] $end
$var wire 1 G rdm [1] $end
$var wire 1 H rdm [0] $end
$var wire 1 I rem [7] $end
$var wire 1 J rem [6] $end
$var wire 1 K rem [5] $end
$var wire 1 L rem [4] $end
$var wire 1 M rem [3] $end
$var wire 1 N rem [2] $end
$var wire 1 O rem [1] $end
$var wire 1 P rem [0] $end
$var wire 1 Q ri [7] $end
$var wire 1 R ri [6] $end
$var wire 1 S ri [5] $end
$var wire 1 T ri [4] $end
$var wire 1 U ri [3] $end
$var wire 1 V ri [2] $end
$var wire 1 W ri [1] $end
$var wire 1 X ri [0] $end
$var wire 1 Y ri19 [15] $end
$var wire 1 Z ri19 [14] $end
$var wire 1 [ ri19 [13] $end
$var wire 1 \ ri19 [12] $end
$var wire 1 ] ri19 [11] $end
$var wire 1 ^ ri19 [10] $end
$var wire 1 _ ri19 [9] $end
$var wire 1 ` ri19 [8] $end
$var wire 1 a ri19 [7] $end
$var wire 1 b ri19 [6] $end
$var wire 1 c ri19 [5] $end
$var wire 1 d ri19 [4] $end
$var wire 1 e ri19 [3] $end
$var wire 1 f ri19 [2] $end
$var wire 1 g ri19 [1] $end
$var wire 1 h ri19 [0] $end
$var wire 1 i rom [7] $end
$var wire 1 j rom [6] $end
$var wire 1 k rom [5] $end
$var wire 1 l rom [4] $end
$var wire 1 m rom [3] $end
$var wire 1 n rom [2] $end
$var wire 1 o rom [1] $end
$var wire 1 p rom [0] $end
$var wire 1 q seletor $end
$var wire 1 r Y $end
$var wire 1 s sampler $end
$scope module i1 $end
$var wire 1 t gnd $end
$var wire 1 u vcc $end
$var wire 1 v unknown $end
$var tri1 1 w devclrn $end
$var tri1 1 x devpor $end
$var tri1 1 y devoe $end
$var wire 1 z rundebug~input_o $end
$var wire 1 { step~input_o $end
$var wire 1 | hlt~output_o $end
$var wire 1 } ler~output_o $end
$var wire 1 ~ seletor~output_o $end
$var wire 1 !! cpc~output_o $end
$var wire 1 "! incpc~output_o $end
$var wire 1 #! crem~output_o $end
$var wire 1 $! cri~output_o $end
$var wire 1 %! goto0~output_o $end
$var wire 1 &! Y~output_o $end
$var wire 1 '! ADD~output_o $end
$var wire 1 (! NOT~output_o $end
$var wire 1 )! CAC~output_o $end
$var wire 1 *! is_zero~output_o $end
$var wire 1 +! is_negative~output_o $end
$var wire 1 ,! acumulador[7]~output_o $end
$var wire 1 -! acumulador[6]~output_o $end
$var wire 1 .! acumulador[5]~output_o $end
$var wire 1 /! acumulador[4]~output_o $end
$var wire 1 0! acumulador[3]~output_o $end
$var wire 1 1! acumulador[2]~output_o $end
$var wire 1 2! acumulador[1]~output_o $end
$var wire 1 3! acumulador[0]~output_o $end
$var wire 1 4! ppcc[7]~output_o $end
$var wire 1 5! ppcc[6]~output_o $end
$var wire 1 6! ppcc[5]~output_o $end
$var wire 1 7! ppcc[4]~output_o $end
$var wire 1 8! ppcc[3]~output_o $end
$var wire 1 9! ppcc[2]~output_o $end
$var wire 1 :! ppcc[1]~output_o $end
$var wire 1 ;! ppcc[0]~output_o $end
$var wire 1 <! rdm[7]~output_o $end
$var wire 1 =! rdm[6]~output_o $end
$var wire 1 >! rdm[5]~output_o $end
$var wire 1 ?! rdm[4]~output_o $end
$var wire 1 @! rdm[3]~output_o $end
$var wire 1 A! rdm[2]~output_o $end
$var wire 1 B! rdm[1]~output_o $end
$var wire 1 C! rdm[0]~output_o $end
$var wire 1 D! rem[7]~output_o $end
$var wire 1 E! rem[6]~output_o $end
$var wire 1 F! rem[5]~output_o $end
$var wire 1 G! rem[4]~output_o $end
$var wire 1 H! rem[3]~output_o $end
$var wire 1 I! rem[2]~output_o $end
$var wire 1 J! rem[1]~output_o $end
$var wire 1 K! rem[0]~output_o $end
$var wire 1 L! ri[7]~output_o $end
$var wire 1 M! ri[6]~output_o $end
$var wire 1 N! ri[5]~output_o $end
$var wire 1 O! ri[4]~output_o $end
$var wire 1 P! ri[3]~output_o $end
$var wire 1 Q! ri[2]~output_o $end
$var wire 1 R! ri[1]~output_o $end
$var wire 1 S! ri[0]~output_o $end
$var wire 1 T! ri19[15]~output_o $end
$var wire 1 U! ri19[14]~output_o $end
$var wire 1 V! ri19[13]~output_o $end
$var wire 1 W! ri19[12]~output_o $end
$var wire 1 X! ri19[11]~output_o $end
$var wire 1 Y! ri19[10]~output_o $end
$var wire 1 Z! ri19[9]~output_o $end
$var wire 1 [! ri19[8]~output_o $end
$var wire 1 \! ri19[7]~output_o $end
$var wire 1 ]! ri19[6]~output_o $end
$var wire 1 ^! ri19[5]~output_o $end
$var wire 1 _! ri19[4]~output_o $end
$var wire 1 `! ri19[3]~output_o $end
$var wire 1 a! ri19[2]~output_o $end
$var wire 1 b! ri19[1]~output_o $end
$var wire 1 c! ri19[0]~output_o $end
$var wire 1 d! rom[7]~output_o $end
$var wire 1 e! rom[6]~output_o $end
$var wire 1 f! rom[5]~output_o $end
$var wire 1 g! rom[4]~output_o $end
$var wire 1 h! rom[3]~output_o $end
$var wire 1 i! rom[2]~output_o $end
$var wire 1 j! rom[1]~output_o $end
$var wire 1 k! rom[0]~output_o $end
$var wire 1 l! clk~input_o $end
$var wire 1 m! reset~input_o $end
$var wire 1 n! inst1|inst|inst|inst38~0_combout $end
$var wire 1 o! inst1|inst|inst|inst38~q $end
$var wire 1 p! inst1|inst|inst|inst2|inst1~combout $end
$var wire 1 q! inst1|inst|inst|inst34~q $end
$var wire 1 r! inst1|inst|inst3|inst3~0_combout $end
$var wire 1 s! inst1|inst2|inst14|inst1~2_combout $end
$var wire 1 t! inst13|Mux4~0_combout $end
$var wire 1 u! inst13|Mux4~1_combout $end
$var wire 1 v! inst1|inst2|inst8|inst1~0_combout $end
$var wire 1 w! inst13|Mux3~0_combout $end
$var wire 1 x! inst13|Mux3~1_combout $end
$var wire 1 y! inst4|inst8~q $end
$var wire 1 z! inst8|inst8~q $end
$var wire 1 {! instdec|inst2~1_combout $end
$var wire 1 |! instdec|inst2~2_combout $end
$var wire 1 }! inst1|inst2|inst|inst~combout $end
$var wire 1 ~! instdec|inst2~3_combout $end
$var wire 1 !" inst1|inst2|inst26|inst~combout $end
$var wire 1 "" instdec|inst2~4_combout $end
$var wire 1 #" inst1|inst2|inst27|inst~combout $end
$var wire 1 $" instdec|inst2~5_combout $end
$var wire 1 %" instdec|inst2~6_combout $end
$var wire 1 &" inst|inst3~2_combout $end
$var wire 1 '" inst7|inst14|inst|inst3~0_combout $end
$var wire 1 (" inst|inst~2_combout $end
$var wire 1 )" inst|inst~3_combout $end
$var wire 1 *" inst|inst3~3_combout $end
$var wire 1 +" inst7|inst14|inst|inst3~1_combout $end
$var wire 1 ," inst1|inst|inst3|inst3~1_combout $end
$var wire 1 -" inst1|inst2|inst8|inst3~combout $end
$var wire 1 ." inst9|inst14~q $end
$var wire 1 /" inst7|inst14|inst9|inst3~0_combout $end
$var wire 1 0" inst7|inst14|inst9|inst3~1_combout $end
$var wire 1 1" inst7|inst14|inst7|inst3~0_combout $end
$var wire 1 2" inst7|inst14|inst|inst3~6_combout $end
$var wire 1 3" inst7|inst14|inst8|inst3~0_combout $end
$var wire 1 4" inst7|inst14|inst8|inst3~1_combout $end
$var wire 1 5" inst7|inst14|inst8|inst3~2_combout $end
$var wire 1 6" inst7|inst14|inst4|inst3~0_combout $end
$var wire 1 7" inst7|inst14|inst|inst3~3_combout $end
$var wire 1 8" inst7|inst14|inst7|inst3~1_combout $end
$var wire 1 9" inst7|inst14|inst7|inst3~2_combout $end
$var wire 1 :" inst7|inst14|inst7|inst3~3_combout $end
$var wire 1 ;" inst7|inst14|inst1|inst3~0_combout $end
$var wire 1 <" inst7|inst14|inst6|inst3~0_combout $end
$var wire 1 =" inst7|inst13|inst[3]~0_combout $end
$var wire 1 >" inst7|inst14|inst|inst3~2_combout $end
$var wire 1 ?" inst7|inst14|inst|inst3~4_combout $end
$var wire 1 @" inst7|inst14|inst|inst3~5_combout $end
$var wire 1 A" inst9|inst~q $end
$var wire 1 B" inst7|inst14|inst4|inst3~1_combout $end
$var wire 1 C" inst7|inst14|inst4|inst3~2_combout $end
$var wire 1 D" inst7|inst14|inst4|inst3~3_combout $end
$var wire 1 E" inst7|inst14|inst1|inst3~4_combout $end
$var wire 1 F" inst7|inst14|inst4|inst3~4_combout $end
$var wire 1 G" inst7|inst14|inst4|inst3~5_combout $end
$var wire 1 H" inst9|inst3~q $end
$var wire 1 I" inst7|inst3|inst1|inst4~0_combout $end
$var wire 1 J" inst7|inst14|inst5|inst3~0_combout $end
$var wire 1 K" inst7|inst14|inst5|inst3~3_combout $end
$var wire 1 L" inst7|inst14|inst5|inst3~4_combout $end
$var wire 1 M" inst7|inst14|inst5|inst3~1_combout $end
$var wire 1 N" inst7|inst14|inst5|inst3~2_combout $end
$var wire 1 O" inst9|inst5~q $end
$var wire 1 P" inst7|inst3|inst3|inst1~0_combout $end
$var wire 1 Q" inst7|inst14|inst6|inst3~1_combout $end
$var wire 1 R" inst7|inst14|inst6|inst3~2_combout $end
$var wire 1 S" inst7|inst14|inst6|inst3~3_combout $end
$var wire 1 T" inst7|inst14|inst6|inst3~4_combout $end
$var wire 1 U" inst9|inst6~q $end
$var wire 1 V" inst7|inst3|inst3|inst4~0_combout $end
$var wire 1 W" inst7|inst3|inst3|inst4~1_combout $end
$var wire 1 X" inst7|inst3|inst7|inst1~combout $end
$var wire 1 Y" inst7|inst14|inst1|inst3~1_combout $end
$var wire 1 Z" inst7|inst14|inst1|inst3~2_combout $end
$var wire 1 [" inst7|inst14|inst1|inst3~3_combout $end
$var wire 1 \" inst9|inst8~q $end
$var wire 1 ]" inst7|inst3|inst7|inst4~0_combout $end
$var wire 1 ^" inst7|inst3|inst4|inst1~combout $end
$var wire 1 _" inst7|inst14|inst7|inst3~4_combout $end
$var wire 1 `" inst9|inst10~q $end
$var wire 1 a" inst7|inst3|inst5|inst1~0_combout $end
$var wire 1 b" inst7|inst3|inst5|inst1~combout $end
$var wire 1 c" inst7|inst14|inst8|inst3~3_combout $end
$var wire 1 d" inst9|inst12~q $end
$var wire 1 e" inst7|inst3|inst4|inst4~0_combout $end
$var wire 1 f" inst7|inst14|inst9|inst3~2_combout $end
$var wire 1 g" inst7|inst14|inst9|inst3~3_combout $end
$var wire 1 h" inst7|inst14|inst9|inst3~4_combout $end
$var wire 1 i" instdec|inst2~7_combout $end
$var wire 1 j" inst1|inst2|inst10|inst17~0_combout $end
$var wire 1 k" inst7|inst8|inst1~0_combout $end
$var wire 1 l" inst7|inst8|inst1~1_combout $end
$var wire 1 m" inst7|inst8|inst1~2_combout $end
$var wire 1 n" instdec|inst2~9_combout $end
$var wire 1 o" inst1|inst2|inst10|inst17~1_combout $end
$var wire 1 p" inst1|inst2|inst12|inst17~0_combout $end
$var wire 1 q" inst1|inst2|inst12|inst17~1_combout $end
$var wire 1 r" inst4|inst6~q $end
$var wire 1 s" inst1|inst2|inst11|inst7~2_combout $end
$var wire 1 t" inst7|inst8|inst1~3_combout $end
$var wire 1 u" inst7|inst8|inst1~4_combout $end
$var wire 1 v" inst1|inst2|inst11|inst7~3_combout $end
$var wire 1 w" inst1|inst2|inst11|inst8~combout $end
$var wire 1 x" inst10|inst|inst1|inst3~0_combout $end
$var wire 1 y" inst10|inst10~combout $end
$var wire 1 z" inst10|inst38~q $end
$var wire 1 {" inst10|inst13|inst1|inst3~0_combout $end
$var wire 1 |" inst10|inst44~q $end
$var wire 1 }" inst10|inst32~combout $end
$var wire 1 ~" inst10|inst14|inst1|inst3~0_combout $end
$var wire 1 !# inst10|inst34~q $end
$var wire 1 "# inst10|inst45~combout $end
$var wire 1 ## inst10|inst15|inst1|inst3~0_combout $end
$var wire 1 $# inst10|inst39~q $end
$var wire 1 %# inst3|instmux4|inst3~0_combout $end
$var wire 1 &# inst1|inst2|inst10|inst17~2_combout $end
$var wire 1 '# inst1|inst2|inst10|inst17~3_combout $end
$var wire 1 (# inst3|inst6~q $end
$var wire 1 )# inst13|Mux5~0_combout $end
$var wire 1 *# inst13|Mux5~1_combout $end
$var wire 1 +# inst4|inst5~q $end
$var wire 1 ,# inst3|instmux3|inst3~0_combout $end
$var wire 1 -# inst3|inst5~q $end
$var wire 1 .# inst13|Mux2~0_combout $end
$var wire 1 /# inst13|Mux2~1_combout $end
$var wire 1 0# inst4|inst10~q $end
$var wire 1 1# inst8|inst10~q $end
$var wire 1 2# instdec|inst2~8_combout $end
$var wire 1 3# inst1|inst2|inst9|inst3~0_combout $end
$var wire 1 4# inst1|inst2|inst9|inst3~1_combout $end
$var wire 1 5# instdec|inst2~10_combout $end
$var wire 1 6# inst1|inst2|inst11|inst8~1_combout $end
$var wire 1 7# inst1|inst2|inst13|inst17~0_combout $end
$var wire 1 8# inst1|inst2|inst13|inst17~1_combout $end
$var wire 1 9# inst1|inst|inst|inst1|inst1~combout $end
$var wire 1 :# inst1|inst|inst|inst44~q $end
$var wire 1 ;# inst1|inst|inst3|inst3~2_combout $end
$var wire 1 <# inst8|inst12~q $end
$var wire 1 =# inst1|inst2|inst14|inst~0_combout $end
$var wire 1 ># inst1|inst2|inst11|inst8~0_combout $end
$var wire 1 ?# inst10|inst12~combout $end
$var wire 1 @# inst10|inst33~combout $end
$var wire 1 A# inst10|inst16|inst1|inst3~0_combout $end
$var wire 1 B# inst10|inst35~q $end
$var wire 1 C# inst10|inst46~combout $end
$var wire 1 D# inst10|inst17|inst1|inst3~0_combout $end
$var wire 1 E# inst10|inst40~q $end
$var wire 1 F# inst10|inst48~combout $end
$var wire 1 G# inst10|inst18|inst1|inst3~0_combout $end
$var wire 1 H# inst10|inst37~q $end
$var wire 1 I# inst10|inst50~combout $end
$var wire 1 J# inst10|inst19|inst1|inst3~0_combout $end
$var wire 1 K# inst10|inst49~q $end
$var wire 1 L# inst3|instmux8|inst3~0_combout $end
$var wire 1 M# inst3|inst14~q $end
$var wire 1 N# inst13|Mux6~1_combout $end
$var wire 1 O# inst13|Mux6~2_combout $end
$var wire 1 P# inst4|inst3~q $end
$var wire 1 Q# inst3|instmux2|inst3~0_combout $end
$var wire 1 R# inst3|inst3~q $end
$var wire 1 S# inst13|Mux1~0_combout $end
$var wire 1 T# inst13|Mux1~1_combout $end
$var wire 1 U# inst4|inst12~q $end
$var wire 1 V# inst3|instmux7|inst3~0_combout $end
$var wire 1 W# inst3|inst12~q $end
$var wire 1 X# inst3|instmux6|inst3~0_combout $end
$var wire 1 Y# inst3|inst10~q $end
$var wire 1 Z# inst3|instmux5|inst3~0_combout $end
$var wire 1 [# inst3|inst8~q $end
$var wire 1 \# inst13|Mux6~0_combout $end
$var wire 1 ]# inst13|Mux7~0_combout $end
$var wire 1 ^# inst13|Mux7~1_combout $end
$var wire 1 _# inst13|Mux7~2_combout $end
$var wire 1 `# inst4|inst~q $end
$var wire 1 a# inst3|instmux1|inst3~0_combout $end
$var wire 1 b# inst3|inst~q $end
$var wire 1 c# inst13|Mux0~0_combout $end
$var wire 1 d# inst13|Mux0~1_combout $end
$var wire 1 e# inst4|inst14~q $end
$var wire 1 f# inst8|inst14~q $end
$var wire 1 g# instdec|inst2~0_combout $end
$var wire 1 h# inst1|inst2|inst14|inst1~3_combout $end
$var wire 1 i# inst8|inst6~q $end
$var wire 1 j# inst8|inst5~q $end
$var wire 1 k# inst8|inst3~q $end
$var wire 1 l# inst8|inst~q $end
$var wire 1 m# instdec|inst2~11_combout $end
$var wire 1 n# instdec|inst2~12_combout $end
$var wire 1 o# instdec|inst2~13_combout $end
$var wire 1 p# instdec|inst2~14_combout $end
$var wire 1 q# instdec|inst2~15_combout $end
$upscope $end
$upscope $end
$enddefinitions $end
#0
$dumpvars
1!
1"
0#
0$
0,
0+
0*
0)
0(
0'
0&
0%
0-
0.
0/
10
01
02
03
04
05
16
07
08
0@
0?
0>
0=
0<
0;
0:
09
0H
0G
0F
0E
0D
0C
0B
0A
0P
0O
0N
0M
0L
0K
0J
0I
0X
0W
0V
0U
0T
0S
0R
0Q
1h
0g
0f
0e
0d
0c
0b
0a
0`
0_
0^
0]
0\
0[
0Z
0Y
0p
0o
0n
0m
0l
1k
0j
0i
0q
0r
xs
0t
1u
xv
1w
1x
1y
0z
0{
0|
0}
0~
0!!
0"!
1#!
0$!
0%!
0&!
0'!
0(!
0)!
1*!
0+!
0,!
0-!
0.!
0/!
00!
01!
02!
03!
04!
05!
06!
07!
08!
09!
0:!
0;!
0<!
0=!
0>!
0?!
0@!
0A!
0B!
0C!
0D!
0E!
0F!
0G!
0H!
0I!
0J!
0K!
0L!
0M!
0N!
0O!
0P!
0Q!
0R!
0S!
0T!
0U!
0V!
0W!
0X!
0Y!
0Z!
0[!
0\!
0]!
0^!
0_!
0`!
0a!
0b!
1c!
0d!
0e!
1f!
0g!
0h!
0i!
0j!
0k!
1l!
1m!
1n!
0o!
0p!
0q!
0r!
0s!
0t!
0u!
0v!
0w!
0x!
0y!
0z!
0{!
0|!
0}!
0~!
0!"
0""
0#"
0$"
0%"
0&"
0'"
0("
0)"
0*"
1+"
0,"
0-"
0."
0/"
00"
01"
12"
03"
04"
05"
06"
07"
08"
09"
0:"
0;"
0<"
0="
0>"
0?"
0@"
0A"
0B"
0C"
0D"
1E"
0F"
0G"
0H"
0I"
0J"
0K"
0L"
0M"
0N"
0O"
0P"
0Q"
0R"
0S"
0T"
0U"
0V"
0W"
0X"
0Y"
0Z"
0["
0\"
0]"
0^"
0_"
0`"
0a"
0b"
0c"
0d"
0e"
0f"
0g"
0h"
0i"
1j"
0k"
0l"
0m"
0n"
1o"
0p"
0q"
0r"
0s"
0t"
0u"
0v"
0w"
0x"
0y"
0z"
0{"
0|"
0}"
0~"
0!#
0"#
0##
0$#
0%#
1&#
1'#
0(#
0)#
0*#
0+#
0,#
0-#
0.#
1/#
00#
01#
02#
03#
04#
15#
16#
17#
08#
09#
0:#
0;#
0<#
0=#
0>#
0?#
0@#
0A#
0B#
0C#
0D#
0E#
0F#
0G#
0H#
0I#
0J#
0K#
0L#
0M#
0N#
0O#
0P#
0Q#
0R#
0S#
0T#
0U#
0V#
0W#
0X#
0Y#
0Z#
0[#
1\#
0]#
0^#
0_#
0`#
0a#
0b#
0c#
0d#
0e#
0f#
0g#
0h#
0i#
0j#
0k#
0l#
0m#
0n#
0o#
0p#
0q#
$end
#5000
0!
0l!
0s
#10000
1!
1l!
1s
1o!
1>#
19#
0&#
0n!
1q"
1?#
1}
17
1w"
0'#
1y"
1x"
1"!
0#!
14
00
#15000
0!
0l!
0s
#20000
1!
1l!
1s
1:#
0o!
10#
1z"
0>#
1p"
1n!
1^"
1a#
1{"
0x"
1>!
1;!
1C
1@
1;#
0q"
0?#
1$!
0}
11
07
0w"
0{"
1D#
0y"
0"!
04
#25000
0!
0l!
0s
#30000
1!
1l!
1s
1o!
11#
09#
1,"
1p!
0n!
1=#
1v!
1N!
1S
0;#
05#
1|!
0$!
0c!
1a!
01
0h
1f
1'#
1#!
10
#35000
0!
0l!
0s
#40000
1!
1l!
1s
0:#
1q!
0o!
1b#
1>#
0,"
1n!
1c#
1.#
1K!
1P
1q"
1?#
1}
17
1w"
0'#
1d#
0/#
1{"
0D#
1y"
1"!
0#!
1d!
0f!
14
00
1i
0k
#45000
0!
0l!
0s
#50000
1!
1l!
1s
1o!
1e#
00#
1|"
0z"
0>#
19#
1&#
1s!
0n!
0^"
1Q#
0a#
1x"
1<!
0>!
1:!
0;!
1A
0C
1?
0@
1h#
0q"
0?#
0Q#
1L#
1~
0}
1q
07
0w"
1'#
1J#
0{"
0y"
0x"
0"!
1#!
04
10
#55000
0!
0l!
0s
#60000
1!
1l!
1s
1:#
0o!
0b#
1M#
0&#
0s!
1n!
0c#
0.#
1]#
1N#
1t!
0K!
1D!
0P
1I
0h#
1q"
0d#
1Q#
0L#
0~
1}
0d!
0q
17
0i
0'#
1O#
1u!
0#!
1j!
1h!
00
1o
1m
#65000
0!
0l!
0s
#70000
1!
1l!
1s
1o!
0e#
1P#
1r"
09#
1r!
0p!
0n!
0J#
1{"
1##
1V"
1Q"
0<!
1B!
1@!
0A
1G
1E
0q"
1}!
02"
1'"
0}
1&!
07
1r
18#
1-"
1R"
0E"
1C"
1%!
1)!
12
1.
1T"
1G"
1l"
1t"
1m"
10!
12!
1)
1+
1u"
0*!
06
#75000
0!
0l!
0s
#80000
1!
1l!
1s
0:#
1U"
1H"
0q!
0o!
1&#
0p"
0r!
1S"
1P"
1="
1I"
1n!
0}!
1X"
12"
0'"
0&!
0r
1'#
08#
0-"
0R"
1E"
0C"
1#!
0%!
0)!
10
02
0.
1F"
0G"
0t"
02!
0+
1G"
1t"
12!
1+
#85000
0!
0l!
0s
#90000
1!
1l!
1s
1o!
1R#
0M#
1>#
19#
0&#
0n!
0]#
1S#
0N#
0t!
1J!
0D!
1O
0I
1q"
1/#
1?#
1}
1f!
17
1k
1w"
0'#
1T#
0O#
0u!
0##
1y"
1x"
1"!
0#!
1e!
0j!
0h!
14
00
1j
0o
0m
#95000
0!
0l!
0s
#100000
1!
1l!
1s
1:#
0o!
1U#
0P#
10#
1z"
0r"
0>#
1p"
1n!
1a"
0{"
0I"
1^"
1a#
1}"
0x"
0Q"
0="
1=!
0B!
1>!
1;!
0@!
1B
0G
1C
1@
0E
1;#
0q"
0?#
1b"
1~"
0X"
1$!
0}
11
07
0w"
1G#
1D#
0~"
0y"
0"!
04
#105000
0!
0l!
0s
#110000
1!
1l!
1s
1o!
1<#
09#
1,"
1p!
0n!
0=#
0v!
1M!
1R
0;#
1""
0|!
07#
0$!
1]!
0a!
01
1b
0f
1-"
1#"
02"
1*"
1)!
1(!
1.
18
18#
1J"
0E"
1;"
19"
13"
17"
10"
0p!
1%!
12
1:"
1?"
1g"
1N"
0T"
0G"
1["
1c"
11!
00!
02!
1/!
1-!
1*
0)
0+
1(
1&
1_"
1@"
1h"
1k"
1.!
13!
1,!
1+!
1'
1,
1%
15
#115000
0!
0l!
0s
#120000
1!
1l!
1s
0:#
1d"
1`"
1\"
0U"
1O"
0H"
1A"
1."
0o!
1&#
0p"
0,"
0a"
03"
1e"
0b"
0^"
09"
1X"
0;"
0V"
0S"
0P"
1<"
1M"
0J"
0F"
1D"
0?"
1/"
1n!
0#"
17#
1b"
0:"
00"
12"
0*"
0(!
08
1'#
0-"
0c"
0["
1T"
0N"
1G"
0@"
0g"
1K"
1E"
0D"
0<"
1;"
19"
13"
07"
10"
1#!
0)!
0-!
0/!
10!
01!
12!
03!
10
0.
0&
0(
1)
0*
1+
0,
08#
0_"
1:"
1?"
1g"
0%!
0.!
02
0'
0h"
0T"
1N"
0G"
1["
1c"
0k"
0,!
0+!
00!
11!
02!
1/!
1-!
0%
05
0)
1*
0+
1(
1&
1_"
1@"
1h"
1k"
1.!
13!
1,!
1+!
1'
1,
1%
15
#125000
0!
0l!
0s
#130000
1!
1l!
1s
1o!
1b#
1>#
19#
0&#
0n!
0S#
1w!
1K!
1P
1q"
1?#
1}
17
1w"
0'#
0T#
1x!
0G#
0D#
1~"
1y"
1"!
0#!
0e!
1g!
14
00
0j
1l
#135000
0!
0l!
0s
#140000
1!
1l!
1s
1:#
0o!
0U#
1!#
0|"
0z"
1y!
0>#
1p"
1n!
1a"
1,#
0Q#
0a#
1x"
1]"
0X"
0=!
19!
0:!
0;!
1?!
0B
1>
0?
0@
1D
1;#
0q"
0?#
0b"
1^"
1$!
0}
11
07
0w"
1A#
1D#
0~"
0y"
0x"
0"!
04
#145000
0!
0l!
0s
#150000
1!
1l!
1s
1o!
0<#
1z!
09#
1,"
1p!
0n!
1=#
1("
1v!
0M!
1O!
0R
1T
0;#
1#"
0""
1~!
02"
1*"
0$!
1(!
0]!
1`!
01
18
0b
1e
1'#
0#"
0K"
0E"
1D"
1<"
0;"
09"
03"
17"
00"
12"
0*"
1#!
0(!
10
08
0:"
0?"
0g"
1K"
1E"
0D"
0<"
1;"
19"
13"
07"
10"
1T"
0N"
1G"
0["
0c"
1:"
1?"
1g"
10!
01!
12!
0/!
0-!
1)
0*
1+
0(
0&
0_"
0@"
0h"
0T"
1N"
0G"
1["
1c"
0k"
0.!
03!
0,!
0+!
00!
11!
02!
1/!
1-!
0'
0,
0%
05
0)
1*
0+
1(
1&
1_"
1@"
1h"
1k"
1.!
13!
1,!
1+!
1'
1,
1%
15
#155000
0!
0l!
0s
#160000
1!
1l!
1s
0:#
1q!
0o!
0b#
0R#
1-#
1>#
0,"
1n!
1c#
1.#
0w!
1^#
0K!
0J!
1I!
0P
0O
1N
1q"
1?#
1}
17
1w"
0'#
1d#
0/#
0x!
1_#
0A#
0D#
1~"
1y"
1x"
1"!
0#!
1d!
0f!
0g!
1k!
14
00
1i
0k
0l
1p
#165000
0!
0l!
0s
#170000
1!
1l!
1s
1o!
1e#
1`#
00#
1z"
0y!
0>#
19#
1&#
1s!
0n!
1a#
0x"
1>"
0^"
1{"
0]"
1X"
1<!
1C!
0>!
1;!
0?!
1A
1H
0C
1@
0D
1h#
0q"
0?#
1L#
0,#
0e"
1b"
1^"
1~
0}
1q
07
0w"
1'#
1J#
0{"
1f"
0~"
0y"
1x"
0"!
1#!
04
10
#175000
0!
0l!
0s
#180000
1!
1l!
1s
1:#
0o!
1b#
1M#
0-#
0&#
0s!
1n!
0^#
1]#
1N#
1t!
1K!
1D!
0I!
1P
1I
0N
0h#
1q"
0_#
0d#
0L#
1,#
0~
1}
0k!
0d!
0q
17
0p
0i
0'#
1_#
0#!
1k!
00
1p
#185000
0!
0l!
0s
#190000
1!
1l!
1s
1o!
0e#
09#
1)"
1r!
0p!
0n!
0J#
0<!
0A
0q"
1!"
1B"
0>"
02"
1'"
0}
1'!
07
1-
18#
1-"
1C"
1L"
0E"
0;"
09"
03"
1Y"
11"
00"
1%!
1)!
12
1.
0@"
0:"
03!
0,
1G"
12!
1+
#195000
0!
0l!
0s
#200000
1!
1l!
1s
0:#
1H"
0A"
0q!
0o!
1&#
0p"
0)"
0r!
1F"
0?"
1>"
1n!
0!"
0Y"
0K"
0B"
01"
12"
0'"
0'!
0-
1'#
08#
0-"
1@"
0L"
0C"
0g"
1K"
1E"
1;"
19"
13"
10"
1#!
0%!
0)!
13!
10
02
0.
1,
0["
0c"
0_"
0@"
1:"
1g"
0/!
0-!
0.!
03!
0(
0&
0'
0,
0h"
1["
1c"
0k"
0,!
0+!
1/!
1-!
0%
05
1(
1&
1_"
1h"
1k"
1.!
1,!
1+!
1'
1%
15
#205000
0!
0l!
0s
#210000
1!
1l!
1s
1o!
0M#
1-#
1>#
19#
0&#
0n!
1^#
0]#
0N#
0t!
0c#
0.#
1w!
0D!
1I!
0I
1N
1q"
1d#
1?#
1}
1d!
17
1i
1w"
0'#
0_#
0d#
1/#
1x!
1{"
1~"
1y"
0x"
1"!
0#!
0k!
0d!
1f!
1g!
14
00
0p
0i
1k
1l
#215000
0!
0l!
0s
#220000
1!
1l!
1s
1:#
0o!
0`#
10#
1|"
0z"
1y!
0>#
1p"
1n!
0a#
1x"
0>"
1e"
0b"
0^"
1Q#
1]"
0X"
0C!
1>!
1:!
0;!
1?!
0H
1C
1?
0@
1D
1;#
0q"
0?#
0f"
1^"
1$!
0}
11
07
0w"
1A#
0{"
1D#
0~"
0y"
0x"
0"!
04
#225000
0!
0l!
0s
#230000
1!
1l!
1s
1o!
09#
1,"
1p!
0n!
0;#
0$!
01
1'#
1#!
10
#235000
0!
0l!
0s
#240000
1!
1l!
1s
0:#
1q!
0o!
0b#
1R#
1>#
0,"
1n!
1c#
1.#
0w!
0^#
1N#
0K!
1J!
0P
1O
1q"
1_#
1?#
1}
1k!
17
1p
1w"
0'#
1d#
0/#
0x!
0_#
1O#
0A#
1{"
0D#
1~"
1y"
1x"
1"!
0#!
1d!
0f!
0g!
0k!
1j!
14
00
1i
0k
0l
0p
1o
#245000
0!
0l!
0s
#250000
1!
1l!
1s
1o!
1e#
1P#
00#
1z"
0y!
0>#
19#
1&#
1s!
0n!
0{"
1I"
0^"
1a#
1"#
0}"
0x"
0]"
1X"
1<!
1B!
0>!
1;!
0?!
1A
1G
0C
1@
0D
1h#
0q"
0?#
0a#
1L#
0,#
1P"
1##
0~"
0e"
1b"
1^"
1~
0}
1q
07
0w"
1'#
1J#
1{"
1f"
0##
0y"
0"!
1#!
04
10
